<?xml version='1.0' encoding='utf-8'?>
<COLLADA xmlns="http://www.collada.org/2005/11/COLLADASchema" version="1.4.1">
  <asset>
    <contributor>
      <author>Assimp</author>
      <authoring_tool>Assimp Exporter</authoring_tool>
    </contributor>
    <created>2025-02-15T16:22:16</created>
    <modified>2025-02-15T16:22:16</modified>
    <unit name="meter" meter="1" />
    <up_axis>Z_UP</up_axis>
  </asset>
  <library_effects>
    <effect id="DefaultMaterial-fx" name="DefaultMaterial">
      <profile_COMMON>
        <technique sid="standard">
          <phong>
            <ambient>
              <color sid="ambient">0.050000001   0.050000001   0.050000001   1</color>
            </ambient>
            <diffuse>
              <color sid="diffuse">1   1   1   1</color>
            </diffuse>
            <specular>
              <color sid="specular">1   1   1   1</color>
            </specular>
          </phong>
        </technique>
      </profile_COMMON>
    </effect>
  </library_effects>
  <library_materials>
    <material id="DefaultMaterial" name="DefaultMaterial">
      <instance_effect url="#DefaultMaterial-fx" />
    </material>
  </library_materials>
  <library_geometries>
    <geometry id="meshId0" name="meshId0_name">
      <mesh>
        <source id="meshId0-positions" name="meshId0-positions">
          <float_array id="meshId0-positions-array" count="432"> 0.391 -0.27377725 0.33546782 -0.0089999996 -0.27377725 0.35346779 -0.0089999996 -0.27377725 0.33546782 0.391 -0.27377725 0.33546782 0.391 -0.27377725 0.35346779 -0.0089999996 -0.27377725 0.35346779 0.391 0.028000001 0.33546782 0.391 0.028000001 0.35346779 0.391 -0.27377725 0.33546782 0.391 0.028000001 0.35346779 0.391 -0.27377725 0.35346779 0.391 -0.27377725 0.33546782 0.391 0.028000001 0.33546782 -0.0089999996 0.028000001 0.33546782 0.391 0.028000001 0.35346779 -0.0089999996 0.028000001 0.33546782 -0.0089999996 0.028000001 0.35346779 0.391 0.028000001 0.35346779 -0.0089999996 0.028000001 0.33546782 -0.0089999996 -0.27377725 0.33546782 -0.0089999996 -0.27377725 0.35346779 -0.0089999996 0.028000001 0.33546782 -0.0089999996 -0.27377725 0.35346779 -0.0089999996 0.028000001 0.35346779 0.391 0.028000001 0.35346779 -0.0089999996 0.028000001 0.35346779 -0.0089999996 -0.27377725 0.35346779 0.391 0.028000001 0.35346779 -0.0089999996 -0.27377725 0.35346779 0.391 -0.27377725 0.35346779 0.391 0.028000001 0.33546782 0.391 -0.27377725 0.33546782 -0.0089999996 0.028000001 0.33546782 -0.0089999996 0.028000001 0.33546782 0.391 -0.27377725 0.33546782 -0.0089999996 -0.27377725 0.33546782 0.391 -0.27377725 -0.35346779 -0.0089999996 -0.27377725 -0.33546782 -0.0089999996 -0.27377725 -0.35346779 0.391 -0.27377725 -0.35346779 0.391 -0.27377725 -0.33546782 -0.0089999996 -0.27377725 -0.33546782 0.391 0.028000001 -0.35346779 0.391 0.028000001 -0.33546782 0.391 -0.27377725 -0.35346779 0.391 0.028000001 -0.33546782 0.391 -0.27377725 -0.33546782 0.391 -0.27377725 -0.35346779 0.391 0.028000001 -0.35346779 -0.0089999996 0.028000001 -0.35346779 0.391 0.028000001 -0.33546782 -0.0089999996 0.028000001 -0.35346779 -0.0089999996 0.028000001 -0.33546782 0.391 0.028000001 -0.33546782 -0.0089999996 0.028000001 -0.35346779 -0.0089999996 -0.27377725 -0.35346779 -0.0089999996 -0.27377725 -0.33546782 -0.0089999996 0.028000001 -0.35346779 -0.0089999996 -0.27377725 -0.33546782 -0.0089999996 0.028000001 -0.33546782 0.391 0.028000001 -0.33546782 -0.0089999996 0.028000001 -0.33546782 -0.0089999996 -0.27377725 -0.33546782 0.391 0.028000001 -0.33546782 -0.0089999996 -0.27377725 -0.33546782 0.391 -0.27377725 -0.33546782 0.391 0.028000001 -0.35346779 0.391 -0.27377725 -0.35346779 -0.0089999996 0.028000001 -0.35346779 -0.0089999996 0.028000001 -0.35346779 0.391 -0.27377725 -0.35346779 -0.0089999996 -0.27377725 -0.35346779 0.391 0.0099999998 -0.35346779 -0.0089999996 0.0099999998 0.35346779 -0.0089999996 0.0099999998 -0.35346779 0.391 0.0099999998 -0.35346779 0.391 0.0099999998 0.35346779 -0.0089999996 0.0099999998 0.35346779 0.391 0.028000001 -0.35346779 0.391 0.028000001 0.35346779 0.391 0.0099999998 -0.35346779 0.391 0.028000001 0.35346779 0.391 0.0099999998 0.35346779 0.391 0.0099999998 -0.35346779 0.391 0.028000001 -0.35346779 -0.0089999996 0.028000001 -0.35346779 0.391 0.028000001 0.35346779 -0.0089999996 0.028000001 -0.35346779 -0.0089999996 0.028000001 0.35346779 0.391 0.028000001 0.35346779 -0.0089999996 0.028000001 -0.35346779 -0.0089999996 0.0099999998 -0.35346779 -0.0089999996 0.0099999998 0.35346779 -0.0089999996 0.028000001 -0.35346779 -0.0089999996 0.0099999998 0.35346779 -0.0089999996 0.028000001 0.35346779 0.391 0.028000001 0.35346779 -0.0089999996 0.028000001 0.35346779 -0.0089999996 0.0099999998 0.35346779 0.391 0.028000001 0.35346779 -0.0089999996 0.0099999998 0.35346779 0.391 0.0099999998 0.35346779 0.391 0.028000001 -0.35346779 0.391 0.0099999998 -0.35346779 -0.0089999996 0.028000001 -0.35346779 -0.0089999996 0.028000001 -0.35346779 0.391 0.0099999998 -0.35346779 -0.0089999996 0.0099999998 -0.35346779 0.391 -0.27377725 -0.35346779 -0.0089999996 -0.27377725 0.35346779 -0.0089999996 -0.27377725 -0.35346779 0.391 -0.27377725 -0.35346779 0.391 -0.27377725 0.35346779 -0.0089999996 -0.27377725 0.35346779 0.391 -0.25577724 -0.35346779 0.391 -0.25577724 0.35346779 0.391 -0.27377725 -0.35346779 0.391 -0.25577724 0.35346779 0.391 -0.27377725 0.35346779 0.391 -0.27377725 -0.35346779 0.391 -0.25577724 -0.35346779 -0.0089999996 -0.25577724 -0.35346779 0.391 -0.25577724 0.35346779 -0.0089999996 -0.25577724 -0.35346779 -0.0089999996 -0.25577724 0.35346779 0.391 -0.25577724 0.35346779 -0.0089999996 -0.25577724 -0.35346779 -0.0089999996 -0.27377725 -0.35346779 -0.0089999996 -0.27377725 0.35346779 -0.0089999996 -0.25577724 -0.35346779 -0.0089999996 -0.27377725 0.35346779 -0.0089999996 -0.25577724 0.35346779 0.391 -0.25577724 0.35346779 -0.0089999996 -0.25577724 0.35346779 -0.0089999996 -0.27377725 0.35346779 0.391 -0.25577724 0.35346779 -0.0089999996 -0.27377725 0.35346779 0.391 -0.27377725 0.35346779 0.391 -0.25577724 -0.35346779 0.391 -0.27377725 -0.35346779 -0.0089999996 -0.25577724 -0.35346779 -0.0089999996 -0.25577724 -0.35346779 0.391 -0.27377725 -0.35346779 -0.0089999996 -0.27377725 -0.35346779 </float_array>
          <technique_common>
            <accessor count="144" offset="0" source="#meshId0-positions-array" stride="3">
              <param name="X" type="float" />
              <param name="Y" type="float" />
              <param name="Z" type="float" />
            </accessor>
          </technique_common>
        </source>
        <source id="meshId0-normals" name="meshId0-normals">
          <float_array id="meshId0-normals-array" count="432"> 1.2246469e-16 -1 0 1.2246469e-16 -1 0 1.2246469e-16 -1 0 1.2246469e-16 -1 0 1.2246469e-16 -1 0 1.2246469e-16 -1 0 1 1.2246469e-16 0 1 1.2246469e-16 0 1 1.2246469e-16 0 1 1.2246469e-16 0 1 1.2246469e-16 0 1 1.2246469e-16 0 -1.2246469e-16 1 0 -1.2246469e-16 1 0 -1.2246469e-16 1 0 -1.2246469e-16 1 0 -1.2246469e-16 1 0 -1.2246469e-16 1 0 -1 -1.2246469e-16 0 -1 -1.2246469e-16 0 -1 -1.2246469e-16 0 -1 -1.2246469e-16 0 -1 -1.2246469e-16 0 -1 -1.2246469e-16 0 0 -0 1 0 -0 1 0 -0 1 0 -0 1 0 -0 1 0 -0 1 0 0 -1 0 0 -1 0 0 -1 0 0 -1 0 0 -1 0 0 -1 1.2246469e-16 -1 0 1.2246469e-16 -1 0 1.2246469e-16 -1 0 1.2246469e-16 -1 0 1.2246469e-16 -1 0 1.2246469e-16 -1 0 1 1.2246469e-16 0 1 1.2246469e-16 0 1 1.2246469e-16 0 1 1.2246469e-16 0 1 1.2246469e-16 0 1 1.2246469e-16 0 -1.2246469e-16 1 0 -1.2246469e-16 1 0 -1.2246469e-16 1 0 -1.2246469e-16 1 0 -1.2246469e-16 1 0 -1.2246469e-16 1 0 -1 -1.2246469e-16 0 -1 -1.2246469e-16 0 -1 -1.2246469e-16 0 -1 -1.2246469e-16 0 -1 -1.2246469e-16 0 -1 -1.2246469e-16 0 0 -0 1 0 -0 1 0 -0 1 0 -0 1 0 -0 1 0 -0 1 0 0 -1 0 0 -1 0 0 -1 0 0 -1 0 0 -1 0 0 -1 1.2246469e-16 -1 0 1.2246469e-16 -1 0 1.2246469e-16 -1 0 1.2246469e-16 -1 0 1.2246469e-16 -1 0 1.2246469e-16 -1 0 1 1.2246469e-16 0 1 1.2246469e-16 0 1 1.2246469e-16 0 1 1.2246469e-16 0 1 1.2246469e-16 0 1 1.2246469e-16 0 -1.2246469e-16 1 0 -1.2246469e-16 1 0 -1.2246469e-16 1 0 -1.2246469e-16 1 0 -1.2246469e-16 1 0 -1.2246469e-16 1 0 -1 -1.2246469e-16 0 -1 -1.2246469e-16 0 -1 -1.2246469e-16 0 -1 -1.2246469e-16 0 -1 -1.2246469e-16 0 -1 -1.2246469e-16 0 0 -0 1 0 -0 1 0 -0 1 0 -0 1 0 -0 1 0 -0 1 0 0 -1 0 0 -1 0 0 -1 0 0 -1 0 0 -1 0 0 -1 1.2246469e-16 -1 0 1.2246469e-16 -1 0 1.2246469e-16 -1 0 1.2246469e-16 -1 0 1.2246469e-16 -1 0 1.2246469e-16 -1 0 1 1.2246469e-16 0 1 1.2246469e-16 0 1 1.2246469e-16 0 1 1.2246469e-16 0 1 1.2246469e-16 0 1 1.2246469e-16 0 -1.2246469e-16 1 0 -1.2246469e-16 1 0 -1.2246469e-16 1 0 -1.2246469e-16 1 0 -1.2246469e-16 1 0 -1.2246469e-16 1 0 -1 -1.2246469e-16 0 -1 -1.2246469e-16 0 -1 -1.2246469e-16 0 -1 -1.2246469e-16 0 -1 -1.2246469e-16 0 -1 -1.2246469e-16 0 0 -0 1 0 -0 1 0 -0 1 0 -0 1 0 -0 1 0 -0 1 0 0 -1 0 0 -1 0 0 -1 0 0 -1 0 0 -1 0 0 -1 </float_array>
          <technique_common>
            <accessor count="144" offset="0" source="#meshId0-normals-array" stride="3">
              <param name="X" type="float" />
              <param name="Y" type="float" />
              <param name="Z" type="float" />
            </accessor>
          </technique_common>
        </source>
        <vertices id="meshId0-vertices">
          <input semantic="POSITION" source="#meshId0-positions" />
        </vertices>
        <polylist count="48" material="defaultMaterial">
          <input offset="0" semantic="VERTEX" source="#meshId0-vertices" />
          <input offset="0" semantic="NORMAL" source="#meshId0-normals" />
          <vcount>3 3 3 3 3 3 3 3 3 3 3 3 3 3 3 3 3 3 3 3 3 3 3 3 3 3 3 3 3 3 3 3 3 3 3 3 3 3 3 3 3 3 3 3 3 3 3 3 </vcount>
          <p>0 1 2 3 4 5 6 7 8 9 10 11 12 13 14 15 16 17 18 19 20 21 22 23 24 25 26 27 28 29 30 31 32 33 34 35 36 37 38 39 40 41 42 43 44 45 46 47 48 49 50 51 52 53 54 55 56 57 58 59 60 61 62 63 64 65 66 67 68 69 70 71 72 73 74 75 76 77 78 79 80 81 82 83 84 85 86 87 88 89 90 91 92 93 94 95 96 97 98 99 100 101 102 103 104 105 106 107 108 109 110 111 112 113 114 115 116 117 118 119 120 121 122 123 124 125 126 127 128 129 130 131 132 133 134 135 136 137 138 139 140 141 142 143 </p>
        </polylist>
      </mesh>
    </geometry>
  </library_geometries>
  <library_controllers>
  </library_controllers>
  <library_visual_scenes>
    <visual_scene id="&lt;STL_BINARY&gt;" name="&lt;STL_BINARY&gt;">
      <node id="Node_0x14b6ab50" name="Node_0x14b6ab50" type="NODE">
        <matrix sid="matrix">1 0 0 0 0 1 0 0 0 0 1 0 0 0 0 1</matrix>
        <instance_geometry url="#meshId0">
          <bind_material>
            <technique_common>
              <instance_material symbol="defaultMaterial" target="#DefaultMaterial">
              </instance_material>
            </technique_common>
          </bind_material>
        </instance_geometry>
      </node>
    </visual_scene>
  </library_visual_scenes>
  <scene>
    <instance_visual_scene url="#&lt;STL_BINARY&gt;" />
  </scene>
</COLLADA>