(0,0) -> 0
(0,1) -> 1	(1,0) -> 1	0.020746
(0,2) -> Different cluster types
(0,3) -> Different cluster types
(0,4) -> Different cluster types
(0,5) -> Different cluster types
(0,6) -> Different cluster types
(1,1) -> 0
(1,2) -> Different cluster types
(1,3) -> Different cluster types
(1,4) -> Different cluster types
(1,5) -> Different cluster types
(1,6) -> Different cluster types
(2,0) -> Different cluster types
(2,1) -> Different cluster types
(2,2) -> 0
(2,3) -> 1	(3,2) -> 1	0.014889
(2,4) -> 1	(4,2) -> 1	-0.029085
(2,5) -> 1	(5,2) -> 1	-0.023911
(2,6) -> 1	(6,2) -> 1	-0.029085
(3,0) -> Different cluster types
(3,1) -> Different cluster types
(3,3) -> 0
(3,4) -> 1	(4,3) -> 1	-0.125429
(3,5) -> 1	(5,3) -> 1	-0.106456
(3,6) -> 1	(6,3) -> 1	-0.125429
(4,0) -> Different cluster types
(4,1) -> Different cluster types
(4,4) -> 0
(4,5) -> 1	(5,4) -> 1	0.528791
(4,6) -> 1	(6,4) -> 1	0.688690
(5,0) -> Different cluster types
(5,1) -> Different cluster types
(5,5) -> 0
(5,6) -> 1	(6,5) -> 1	0.260869
(6,0) -> Different cluster types
(6,1) -> Different cluster types
(6,6) -> 0
