nFeatures=82
0.000000	0.000000	1.000000
0.000000	-0.707107	0.707107
0.707107	0.000000	0.707107
0.000000	-0.382683	0.923880
0.382683	0.000000	0.923880
0.408248	-0.408248	0.816497
0.000000	0.382683	0.923880
-0.382683	0.000000	0.923880
0.408248	0.408248	0.816497
-0.408248	-0.408248	0.816497
-0.408248	0.408248	0.816497
-1.000000	0.000000	0.000000
-0.707107	0.000000	0.707107
-0.707107	0.707107	0.000000
-0.923880	0.000000	0.382683
-0.923880	0.382683	0.000000
-0.816497	0.408248	0.408248
-0.923880	0.000000	-0.382683
-0.923880	-0.382683	0.000000
-0.816497	0.408248	-0.408248
-0.816497	-0.408248	0.408248
-0.816497	-0.408248	-0.408248
0.000000	-1.000000	0.000000
-0.707107	-0.707107	0.000000
0.000000	-0.707107	-0.707107
-0.382683	-0.923880	0.000000
0.000000	-0.923880	-0.382683
-0.408248	-0.816497	-0.408248
0.382683	-0.923880	0.000000
0.000000	-0.923880	0.382683
0.408248	-0.816497	-0.408248
-0.408248	-0.816497	0.408248
0.408248	-0.816497	0.408248
-0.000000	-0.000000	-1.000000
0.000000	0.707107	-0.707107
-0.707107	-0.000000	-0.707107
0.000000	0.382683	-0.923880
-0.382683	-0.000000	-0.923880
-0.408248	0.408248	-0.816497
-0.000000	-0.382683	-0.923880
0.382683	0.000000	-0.923880
-0.408248	-0.408248	-0.816497
0.408248	0.408248	-0.816497
0.408248	-0.408248	-0.816497
1.000000	0.000000	0.000000
0.707107	0.000000	-0.707107
0.707107	-0.707107	0.000000
0.923880	0.000000	-0.382683
0.923880	-0.382683	0.000000
0.816497	-0.408248	-0.408248
0.923880	0.000000	0.382683
0.923880	0.382683	0.000000
0.816497	-0.408248	0.408248
0.816497	0.408248	-0.408248
0.816497	0.408248	0.408248
0.000000	1.000000	0.000000
0.707107	0.707107	0.000000
0.000000	0.707107	0.707107
0.382683	0.923880	0.000000
0.000000	0.923880	0.382683
0.408248	0.816497	0.408248
-0.382683	0.923880	0.000000
0.000000	0.923880	-0.382683
-0.408248	0.816497	0.408248
0.408248	0.816497	-0.408248
-0.408248	0.816497	-0.408248
-1.000000	0.000000	0.000000
-0.707107	0.707107	0.000000
-0.923880	0.382683	0.000000
-0.923880	-0.382683	0.000000
0.000000	-1.000000	0.000000
-0.707107	-0.707107	0.000000
-0.382683	-0.923880	0.000000
0.382683	-0.923880	0.000000
1.000000	0.000000	0.000000
0.707107	-0.707107	0.000000
0.923880	-0.382683	0.000000
0.923880	0.382683	0.000000
0.000000	1.000000	0.000000
0.707107	0.707107	0.000000
0.382683	0.923880	0.000000
-0.382683	0.923880	0.000000
O1
O-1
O1
E0-82
E1-82
E2-82
E3-82
E4-82
E5-82
E6-82
E7-82
E8-82
E9-82
E10-82
E11-82
E12-82
E13-82
E14-82
E15-82
E16-82
E17-82
E18-82
E19-82
E20-82
E21-82
E22-82
E23-82
E24-82
E25-82
E26-82
E27-82
E28-82
E29-82
E30-82
E31-82
E32-82
E33-82
E34-82
E35-82
E36-82
E37-82
E38-82
E39-82
E40-82
E41-82
E42-82
E43-82
E44-82
E45-82
E46-82
E47-82
E48-82
E49-82
E50-82
E51-82
E52-82
E53-82
E54-82
E55-82
E56-82
E57-82
E58-82
E59-82
E60-82
E61-82
E62-82
E63-82
E64-82
E65-82
E66-83
E67-83
E68-83
E69-83
E70-83
E71-83
E72-83
E73-83
E74-83
E75-83
E76-83
E77-83
E78-83
E79-83
E80-83
E81-83
E82-84
E83-84
#conv.clusters 15, #concave clusters: 27
288770
8761
8154
7822
7648
7433
89244
37816
(1 7) (1 6) (0 5) (0 4) (0 3) (0 2) (0 1) (0 0) (-1 -1) 197.535492
(-1 7) (1 6) (0 5) (0 4) (0 3) (0 2) (0 1) (0 0) (-1 -1) 32.888958
(1 7) (-1 6) (0 5) (0 4) (0 3) (0 2) (0 1) (0 0) (-1 -1) 197.535492
(1 7) (1 6) (-1 5) (0 4) (0 3) (0 2) (0 1) (0 0) (-1 -1) 197.535492
(-1 7) (1 6) (-1 5) (0 4) (0 3) (0 2) (0 1) (0 0) (-1 -1) 32.888958
(1 7) (-1 6) (-1 5) (0 4) (0 3) (0 2) (0 1) (0 0) (-1 -1) 197.535492
(1 7) (1 6) (0 5) (-1 4) (0 3) (0 2) (0 1) (0 0) (-1 -1) 197.535492
(-1 7) (1 6) (0 5) (-1 4) (0 3) (0 2) (0 1) (0 0) (-1 -1) 32.888958
(1 7) (-1 6) (0 5) (-1 4) (0 3) (0 2) (0 1) (0 0) (-1 -1) 197.535492
(1 7) (1 6) (-1 5) (-1 4) (0 3) (0 2) (0 1) (0 0) (-1 -1) 197.535492
(-1 7) (1 6) (-1 5) (-1 4) (0 3) (0 2) (0 1) (0 0) (-1 -1) 32.888958
(1 7) (-1 6) (-1 5) (-1 4) (0 3) (0 2) (0 1) (0 0) (-1 -1) 197.535492
(1 7) (1 6) (0 5) (0 4) (-1 3) (0 2) (0 1) (0 0) (-1 -1) 197.535492
(-1 7) (1 6) (0 5) (0 4) (-1 3) (0 2) (0 1) (0 0) (-1 -1) 32.888958
(1 7) (-1 6) (0 5) (0 4) (-1 3) (0 2) (0 1) (0 0) (-1 -1) 197.535492
(1 7) (1 6) (-1 5) (0 4) (-1 3) (0 2) (0 1) (0 0) (-1 -1) 197.535492
(-1 7) (1 6) (-1 5) (0 4) (-1 3) (0 2) (0 1) (0 0) (-1 -1) 32.888958
(1 7) (-1 6) (-1 5) (0 4) (-1 3) (0 2) (0 1) (0 0) (-1 -1) 197.535492
(1 7) (1 6) (0 5) (-1 4) (-1 3) (0 2) (0 1) (0 0) (-1 -1) 197.535492
(-1 7) (1 6) (0 5) (-1 4) (-1 3) (0 2) (0 1) (0 0) (-1 -1) 32.888958
(1 7) (-1 6) (0 5) (-1 4) (-1 3) (0 2) (0 1) (0 0) (-1 -1) 197.535492
(1 7) (1 6) (-1 5) (-1 4) (-1 3) (0 2) (0 1) (0 0) (-1 -1) 197.535492
(-1 7) (1 6) (-1 5) (-1 4) (-1 3) (0 2) (0 1) (0 0) (-1 -1) 32.888958
(1 7) (-1 6) (-1 5) (-1 4) (-1 3) (0 2) (0 1) (0 0) (-1 -1) 197.535492
(1 7) (1 6) (0 5) (0 4) (0 3) (-1 2) (0 1) (0 0) (-1 -1) 197.535492
(-1 7) (1 6) (0 5) (0 4) (0 3) (-1 2) (0 1) (0 0) (-1 -1) 32.888958
(1 7) (-1 6) (0 5) (0 4) (0 3) (-1 2) (0 1) (0 0) (-1 -1) 197.535492
(1 7) (1 6) (-1 5) (0 4) (0 3) (-1 2) (0 1) (0 0) (-1 -1) 197.535492
(-1 7) (1 6) (-1 5) (0 4) (0 3) (-1 2) (0 1) (0 0) (-1 -1) 32.888958
(1 7) (-1 6) (-1 5) (0 4) (0 3) (-1 2) (0 1) (0 0) (-1 -1) 197.535492
(1 7) (1 6) (0 5) (-1 4) (0 3) (-1 2) (0 1) (0 0) (-1 -1) 197.535492
(-1 7) (1 6) (0 5) (-1 4) (0 3) (-1 2) (0 1) (0 0) (-1 -1) 32.888958
(1 7) (-1 6) (0 5) (-1 4) (0 3) (-1 2) (0 1) (0 0) (-1 -1) 197.535492
(1 7) (1 6) (-1 5) (-1 4) (0 3) (-1 2) (0 1) (0 0) (-1 -1) 197.535492
(-1 7) (1 6) (-1 5) (-1 4) (0 3) (-1 2) (0 1) (0 0) (-1 -1) 32.888958
(1 7) (-1 6) (-1 5) (-1 4) (0 3) (-1 2) (0 1) (0 0) (-1 -1) 197.535492
(1 7) (1 6) (0 5) (0 4) (-1 3) (-1 2) (0 1) (0 0) (-1 -1) 197.535492
(-1 7) (1 6) (0 5) (0 4) (-1 3) (-1 2) (0 1) (0 0) (-1 -1) 32.888958
(1 7) (-1 6) (0 5) (0 4) (-1 3) (-1 2) (0 1) (0 0) (-1 -1) 197.535492
(1 7) (1 6) (-1 5) (0 4) (-1 3) (-1 2) (0 1) (0 0) (-1 -1) 197.535492
(-1 7) (1 6) (-1 5) (0 4) (-1 3) (-1 2) (0 1) (0 0) (-1 -1) 32.888958
(1 7) (-1 6) (-1 5) (0 4) (-1 3) (-1 2) (0 1) (0 0) (-1 -1) 197.535492
(1 7) (1 6) (0 5) (-1 4) (-1 3) (-1 2) (0 1) (0 0) (-1 -1) 197.535492
(-1 7) (1 6) (0 5) (-1 4) (-1 3) (-1 2) (0 1) (0 0) (-1 -1) 32.888958
(1 7) (-1 6) (0 5) (-1 4) (-1 3) (-1 2) (0 1) (0 0) (-1 -1) 197.535492
(1 7) (1 6) (-1 5) (-1 4) (-1 3) (-1 2) (0 1) (0 0) (-1 -1) 197.535492
(-1 7) (1 6) (-1 5) (-1 4) (-1 3) (-1 2) (0 1) (0 0) (-1 -1) 32.888958
(1 7) (-1 6) (-1 5) (-1 4) (-1 3) (-1 2) (0 1) (0 0) (-1 -1) 197.535492
(1 7) (1 6) (0 5) (0 4) (0 3) (0 2) (-1 1) (0 0) (-1 -1) 197.535492
(-1 7) (1 6) (0 5) (0 4) (0 3) (0 2) (-1 1) (0 0) (-1 -1) 32.888958
(1 7) (-1 6) (0 5) (0 4) (0 3) (0 2) (-1 1) (0 0) (-1 -1) 197.535492
(1 7) (1 6) (-1 5) (0 4) (0 3) (0 2) (-1 1) (0 0) (-1 -1) 197.535492
(-1 7) (1 6) (-1 5) (0 4) (0 3) (0 2) (-1 1) (0 0) (-1 -1) 32.888958
(1 7) (-1 6) (-1 5) (0 4) (0 3) (0 2) (-1 1) (0 0) (-1 -1) 197.535492
(1 7) (1 6) (0 5) (-1 4) (0 3) (0 2) (-1 1) (0 0) (-1 -1) 197.535492
(-1 7) (1 6) (0 5) (-1 4) (0 3) (0 2) (-1 1) (0 0) (-1 -1) 32.888958
(1 7) (-1 6) (0 5) (-1 4) (0 3) (0 2) (-1 1) (0 0) (-1 -1) 197.535492
(1 7) (1 6) (-1 5) (-1 4) (0 3) (0 2) (-1 1) (0 0) (-1 -1) 197.535492
(-1 7) (1 6) (-1 5) (-1 4) (0 3) (0 2) (-1 1) (0 0) (-1 -1) 32.888958
(1 7) (-1 6) (-1 5) (-1 4) (0 3) (0 2) (-1 1) (0 0) (-1 -1) 197.535492
(1 7) (1 6) (0 5) (0 4) (-1 3) (0 2) (-1 1) (0 0) (-1 -1) 197.535492
(-1 7) (1 6) (0 5) (0 4) (-1 3) (0 2) (-1 1) (0 0) (-1 -1) 32.888958
(1 7) (-1 6) (0 5) (0 4) (-1 3) (0 2) (-1 1) (0 0) (-1 -1) 197.535492
(1 7) (1 6) (-1 5) (0 4) (-1 3) (0 2) (-1 1) (0 0) (-1 -1) 197.535492
(-1 7) (1 6) (-1 5) (0 4) (-1 3) (0 2) (-1 1) (0 0) (-1 -1) 32.888958
(1 7) (-1 6) (-1 5) (0 4) (-1 3) (0 2) (-1 1) (0 0) (-1 -1) 197.535492
(1 7) (1 6) (0 5) (-1 4) (-1 3) (0 2) (-1 1) (0 0) (-1 -1) 197.535492
(-1 7) (1 6) (0 5) (-1 4) (-1 3) (0 2) (-1 1) (0 0) (-1 -1) 32.888958
(1 7) (-1 6) (0 5) (-1 4) (-1 3) (0 2) (-1 1) (0 0) (-1 -1) 197.535492
(1 7) (1 6) (-1 5) (-1 4) (-1 3) (0 2) (-1 1) (0 0) (-1 -1) 197.535492
(-1 7) (1 6) (-1 5) (-1 4) (-1 3) (0 2) (-1 1) (0 0) (-1 -1) 32.888958
(1 7) (-1 6) (-1 5) (-1 4) (-1 3) (0 2) (-1 1) (0 0) (-1 -1) 197.535492
(1 7) (1 6) (0 5) (0 4) (0 3) (-1 2) (-1 1) (0 0) (-1 -1) 197.535492
(-1 7) (1 6) (0 5) (0 4) (0 3) (-1 2) (-1 1) (0 0) (-1 -1) 32.888958
(1 7) (-1 6) (0 5) (0 4) (0 3) (-1 2) (-1 1) (0 0) (-1 -1) 197.535492
(1 7) (1 6) (-1 5) (0 4) (0 3) (-1 2) (-1 1) (0 0) (-1 -1) 197.535492
(-1 7) (1 6) (-1 5) (0 4) (0 3) (-1 2) (-1 1) (0 0) (-1 -1) 32.888958
(1 7) (-1 6) (-1 5) (0 4) (0 3) (-1 2) (-1 1) (0 0) (-1 -1) 197.535492
(1 7) (1 6) (0 5) (-1 4) (0 3) (-1 2) (-1 1) (0 0) (-1 -1) 197.535492
(-1 7) (1 6) (0 5) (-1 4) (0 3) (-1 2) (-1 1) (0 0) (-1 -1) 32.888958
(1 7) (-1 6) (0 5) (-1 4) (0 3) (-1 2) (-1 1) (0 0) (-1 -1) 197.535492
(1 7) (1 6) (-1 5) (-1 4) (0 3) (-1 2) (-1 1) (0 0) (-1 -1) 197.535492
(-1 7) (1 6) (-1 5) (-1 4) (0 3) (-1 2) (-1 1) (0 0) (-1 -1) 32.888958
(1 7) (-1 6) (-1 5) (-1 4) (0 3) (-1 2) (-1 1) (0 0) (-1 -1) 197.535492
(1 7) (1 6) (0 5) (0 4) (-1 3) (-1 2) (-1 1) (0 0) (-1 -1) 197.535492
(-1 7) (1 6) (0 5) (0 4) (-1 3) (-1 2) (-1 1) (0 0) (-1 -1) 32.888958
(1 7) (-1 6) (0 5) (0 4) (-1 3) (-1 2) (-1 1) (0 0) (-1 -1) 197.535492
(1 7) (1 6) (-1 5) (0 4) (-1 3) (-1 2) (-1 1) (0 0) (-1 -1) 197.535492
(-1 7) (1 6) (-1 5) (0 4) (-1 3) (-1 2) (-1 1) (0 0) (-1 -1) 32.888958
(1 7) (-1 6) (-1 5) (0 4) (-1 3) (-1 2) (-1 1) (0 0) (-1 -1) 197.535492
(1 7) (1 6) (0 5) (-1 4) (-1 3) (-1 2) (-1 1) (0 0) (-1 -1) 197.535492
(-1 7) (1 6) (0 5) (-1 4) (-1 3) (-1 2) (-1 1) (0 0) (-1 -1) 32.888958
(1 7) (-1 6) (0 5) (-1 4) (-1 3) (-1 2) (-1 1) (0 0) (-1 -1) 197.535492
(1 7) (1 6) (-1 5) (-1 4) (-1 3) (-1 2) (-1 1) (0 0) (-1 -1) 197.535492
(-1 7) (1 6) (-1 5) (-1 4) (-1 3) (-1 2) (-1 1) (0 0) (-1 -1) 32.888958
(1 7) (-1 6) (-1 5) (-1 4) (-1 3) (-1 2) (-1 1) (0 0) (-1 -1) 197.535492
(1 7) (1 6) (0 5) (0 4) (0 3) (0 2) (0 1) (-1 0) (-1 -1) 600.000000
(-1 7) (1 6) (0 5) (0 4) (0 3) (0 2) (0 1) (-1 0) (-1 -1) 539.529297
(1 7) (-1 6) (0 5) (0 4) (0 3) (0 2) (0 1) (-1 0) (-1 -1) 600.000000
(1 7) (1 6) (-1 5) (0 4) (0 3) (0 2) (0 1) (-1 0) (-1 -1) 600.000000
(-1 7) (1 6) (-1 5) (0 4) (0 3) (0 2) (0 1) (-1 0) (-1 -1) 544.625183
(1 7) (-1 6) (-1 5) (0 4) (0 3) (0 2) (0 1) (-1 0) (-1 -1) 600.000000
(1 7) (1 6) (0 5) (-1 4) (0 3) (0 2) (0 1) (-1 0) (-1 -1) 600.000000
(-1 7) (1 6) (0 5) (-1 4) (0 3) (0 2) (0 1) (-1 0) (-1 -1) 539.886780
(1 7) (-1 6) (0 5) (-1 4) (0 3) (0 2) (0 1) (-1 0) (-1 -1) 600.000000
(1 7) (1 6) (-1 5) (-1 4) (0 3) (0 2) (0 1) (-1 0) (-1 -1) 600.000000
(-1 7) (1 6) (-1 5) (-1 4) (0 3) (0 2) (0 1) (-1 0) (-1 -1) 544.982666
(1 7) (-1 6) (-1 5) (-1 4) (0 3) (0 2) (0 1) (-1 0) (-1 -1) 600.000000
(1 7) (1 6) (0 5) (0 4) (-1 3) (0 2) (0 1) (-1 0) (-1 -1) 600.000000
(-1 7) (1 6) (0 5) (0 4) (-1 3) (0 2) (0 1) (-1 0) (-1 -1) 539.543518
(1 7) (-1 6) (0 5) (0 4) (-1 3) (0 2) (0 1) (-1 0) (-1 -1) 600.000000
(1 7) (1 6) (-1 5) (0 4) (-1 3) (0 2) (0 1) (-1 0) (-1 -1) 600.000000
(-1 7) (1 6) (-1 5) (0 4) (-1 3) (0 2) (0 1) (-1 0) (-1 -1) 544.639404
(1 7) (-1 6) (-1 5) (0 4) (-1 3) (0 2) (0 1) (-1 0) (-1 -1) 600.000000
(1 7) (1 6) (0 5) (-1 4) (-1 3) (0 2) (0 1) (-1 0) (-1 -1) 600.000000
(-1 7) (1 6) (0 5) (-1 4) (-1 3) (0 2) (0 1) (-1 0) (-1 -1) 541.485352
(1 7) (-1 6) (0 5) (-1 4) (-1 3) (0 2) (0 1) (-1 0) (-1 -1) 600.000000
(1 7) (1 6) (-1 5) (-1 4) (-1 3) (0 2) (0 1) (-1 0) (-1 -1) 600.000000
(-1 7) (1 6) (-1 5) (-1 4) (-1 3) (0 2) (0 1) (-1 0) (-1 -1) 546.581238
(1 7) (-1 6) (-1 5) (-1 4) (-1 3) (0 2) (0 1) (-1 0) (-1 -1) 600.000000
(1 7) (1 6) (0 5) (0 4) (0 3) (-1 2) (0 1) (-1 0) (-1 -1) 600.000000
(-1 7) (1 6) (0 5) (0 4) (0 3) (-1 2) (0 1) (-1 0) (-1 -1) 563.191406
(1 7) (-1 6) (0 5) (0 4) (0 3) (-1 2) (0 1) (-1 0) (-1 -1) 600.000000
(1 7) (1 6) (-1 5) (0 4) (0 3) (-1 2) (0 1) (-1 0) (-1 -1) 600.000000
(-1 7) (1 6) (-1 5) (0 4) (0 3) (-1 2) (0 1) (-1 0) (-1 -1) 573.013916
(1 7) (-1 6) (-1 5) (0 4) (0 3) (-1 2) (0 1) (-1 0) (-1 -1) 600.000000
(1 7) (1 6) (0 5) (-1 4) (0 3) (-1 2) (0 1) (-1 0) (-1 -1) 600.000000
(-1 7) (1 6) (0 5) (-1 4) (0 3) (-1 2) (0 1) (-1 0) (-1 -1) 570.050476
(1 7) (-1 6) (0 5) (-1 4) (0 3) (-1 2) (0 1) (-1 0) (-1 -1) 600.000000
(1 7) (1 6) (-1 5) (-1 4) (0 3) (-1 2) (0 1) (-1 0) (-1 -1) 600.000000
(-1 7) (1 6) (-1 5) (-1 4) (0 3) (-1 2) (0 1) (-1 0) (-1 -1) 578.592651
(1 7) (-1 6) (-1 5) (-1 4) (0 3) (-1 2) (0 1) (-1 0) (-1 -1) 600.000000
(1 7) (1 6) (0 5) (0 4) (-1 3) (-1 2) (0 1) (-1 0) (-1 -1) 600.000000
(-1 7) (1 6) (0 5) (0 4) (-1 3) (-1 2) (0 1) (-1 0) (-1 -1) 563.205688
(1 7) (-1 6) (0 5) (0 4) (-1 3) (-1 2) (0 1) (-1 0) (-1 -1) 600.000000
(1 7) (1 6) (-1 5) (0 4) (-1 3) (-1 2) (0 1) (-1 0) (-1 -1) 600.000000
(-1 7) (1 6) (-1 5) (0 4) (-1 3) (-1 2) (0 1) (-1 0) (-1 -1) 573.028198
(1 7) (-1 6) (-1 5) (0 4) (-1 3) (-1 2) (0 1) (-1 0) (-1 -1) 600.000000
(1 7) (1 6) (0 5) (-1 4) (-1 3) (-1 2) (0 1) (-1 0) (-1 -1) 600.000000
(-1 7) (1 6) (0 5) (-1 4) (-1 3) (-1 2) (0 1) (-1 0) (-1 -1) 580.166870
(1 7) (-1 6) (0 5) (-1 4) (-1 3) (-1 2) (0 1) (-1 0) (-1 -1) 600.000000
(1 7) (1 6) (-1 5) (-1 4) (-1 3) (-1 2) (0 1) (-1 0) (-1 -1) 600.000000
(-1 7) (1 6) (-1 5) (-1 4) (-1 3) (-1 2) (0 1) (-1 0) (-1 -1) 586.088135
(1 7) (-1 6) (-1 5) (-1 4) (-1 3) (-1 2) (0 1) (-1 0) (-1 -1) 600.000000
(1 7) (1 6) (0 5) (0 4) (0 3) (0 2) (-1 1) (-1 0) (-1 -1) 600.000000
(-1 7) (1 6) (0 5) (0 4) (0 3) (0 2) (-1 1) (-1 0) (-1 -1) 539.817261
(1 7) (-1 6) (0 5) (0 4) (0 3) (0 2) (-1 1) (-1 0) (-1 -1) 600.000000
(1 7) (1 6) (-1 5) (0 4) (0 3) (0 2) (-1 1) (-1 0) (-1 -1) 600.000000
(-1 7) (1 6) (-1 5) (0 4) (0 3) (0 2) (-1 1) (-1 0) (-1 -1) 562.438538
(1 7) (-1 6) (-1 5) (0 4) (0 3) (0 2) (-1 1) (-1 0) (-1 -1) 600.000000
(1 7) (1 6) (0 5) (-1 4) (0 3) (0 2) (-1 1) (-1 0) (-1 -1) 600.000000
(-1 7) (1 6) (0 5) (-1 4) (0 3) (0 2) (-1 1) (-1 0) (-1 -1) 540.174744
(1 7) (-1 6) (0 5) (-1 4) (0 3) (0 2) (-1 1) (-1 0) (-1 -1) 600.000000
(1 7) (1 6) (-1 5) (-1 4) (0 3) (0 2) (-1 1) (-1 0) (-1 -1) 600.000000
(-1 7) (1 6) (-1 5) (-1 4) (0 3) (0 2) (-1 1) (-1 0) (-1 -1) 562.816895
(1 7) (-1 6) (-1 5) (-1 4) (0 3) (0 2) (-1 1) (-1 0) (-1 -1) 600.000000
(1 7) (1 6) (0 5) (0 4) (-1 3) (0 2) (-1 1) (-1 0) (-1 -1) 600.000000
(-1 7) (1 6) (0 5) (0 4) (-1 3) (0 2) (-1 1) (-1 0) (-1 -1) 540.909790
(1 7) (-1 6) (0 5) (0 4) (-1 3) (0 2) (-1 1) (-1 0) (-1 -1) 600.000000
(1 7) (1 6) (-1 5) (0 4) (-1 3) (0 2) (-1 1) (-1 0) (-1 -1) 600.000000
(-1 7) (1 6) (-1 5) (0 4) (-1 3) (0 2) (-1 1) (-1 0) (-1 -1) 571.516052
(1 7) (-1 6) (-1 5) (0 4) (-1 3) (0 2) (-1 1) (-1 0) (-1 -1) 600.000000
(1 7) (1 6) (0 5) (-1 4) (-1 3) (0 2) (-1 1) (-1 0) (-1 -1) 600.000000
(-1 7) (1 6) (0 5) (-1 4) (-1 3) (0 2) (-1 1) (-1 0) (-1 -1) 544.635071
(1 7) (-1 6) (0 5) (-1 4) (-1 3) (0 2) (-1 1) (-1 0) (-1 -1) 600.000000
(1 7) (1 6) (-1 5) (-1 4) (-1 3) (0 2) (-1 1) (-1 0) (-1 -1) 600.000000
(-1 7) (1 6) (-1 5) (-1 4) (-1 3) (0 2) (-1 1) (-1 0) (-1 -1) 583.812195
(1 7) (-1 6) (-1 5) (-1 4) (-1 3) (0 2) (-1 1) (-1 0) (-1 -1) 600.000000
(1 7) (1 6) (0 5) (0 4) (0 3) (-1 2) (-1 1) (-1 0) (-1 -1) 600.000000
(-1 7) (1 6) (0 5) (0 4) (0 3) (-1 2) (-1 1) (-1 0) (-1 -1) 563.479370
(1 7) (-1 6) (0 5) (0 4) (0 3) (-1 2) (-1 1) (-1 0) (-1 -1) 600.000000
(1 7) (1 6) (-1 5) (0 4) (0 3) (-1 2) (-1 1) (-1 0) (-1 -1) 600.000000
(-1 7) (1 6) (-1 5) (0 4) (0 3) (-1 2) (-1 1) (-1 0) (-1 -1) 587.279907
(1 7) (-1 6) (-1 5) (0 4) (0 3) (-1 2) (-1 1) (-1 0) (-1 -1) 600.000000
(1 7) (1 6) (0 5) (-1 4) (0 3) (-1 2) (-1 1) (-1 0) (-1 -1) 600.000000
(-1 7) (1 6) (0 5) (-1 4) (0 3) (-1 2) (-1 1) (-1 0) (-1 -1) 570.338440
(1 7) (-1 6) (0 5) (-1 4) (0 3) (-1 2) (-1 1) (-1 0) (-1 -1) 600.000000
(1 7) (1 6) (-1 5) (-1 4) (0 3) (-1 2) (-1 1) (-1 0) (-1 -1) 600.000000
(-1 7) (1 6) (-1 5) (-1 4) (0 3) (-1 2) (-1 1) (-1 0) (-1 -1) 590.722290
(1 7) (-1 6) (-1 5) (-1 4) (0 3) (-1 2) (-1 1) (-1 0) (-1 -1) 600.000000
(1 7) (1 6) (0 5) (0 4) (-1 3) (-1 2) (-1 1) (-1 0) (-1 -1) 600.000000
(-1 7) (1 6) (0 5) (0 4) (-1 3) (-1 2) (-1 1) (-1 0) (-1 -1) 564.571899
(1 7) (-1 6) (0 5) (0 4) (-1 3) (-1 2) (-1 1) (-1 0) (-1 -1) 600.000000
(1 7) (1 6) (-1 5) (0 4) (-1 3) (-1 2) (-1 1) (-1 0) (-1 -1) 600.000000
(-1 7) (1 6) (-1 5) (0 4) (-1 3) (-1 2) (-1 1) (-1 0) (-1 -1) 589.876343
(1 7) (-1 6) (-1 5) (0 4) (-1 3) (-1 2) (-1 1) (-1 0) (-1 -1) 600.000000
(1 7) (1 6) (0 5) (-1 4) (-1 3) (-1 2) (-1 1) (-1 0) (-1 -1) 600.000000
(-1 7) (1 6) (0 5) (-1 4) (-1 3) (-1 2) (-1 1) (-1 0) (-1 -1) 586.449646
(1 7) (-1 6) (0 5) (-1 4) (-1 3) (-1 2) (-1 1) (-1 0) (-1 -1) 600.000000
