-0.825304
-0.891870
-0.935158
-0.931031
-0.956604
-1.072331
-0.554875
-0.496462
-0.667548
-0.584063
-0.183029
0.695143
-0.092038
0.862205
0.326398
0.836402
0.437575
0.967353
0.477461
1.117409
0.045425
0.748345
-0.398754
0.188771
0.370384
-0.124967
-0.015354
0.303760
-0.565414
-0.705047
-0.160408
-0.411748
-0.899599
0.922556
0.980255
1.112472
1.015697
1.092695
1.181914
0.699734
0.665429
0.844464
0.738436
0.382640
-0.442957
0.323108
-0.632794
-0.064862
-0.582192
-0.178797
-0.753616
-0.231534
-0.913563
0.190217
-0.521044
0.553975
0.032683
-0.195219
0.303466
0.194157
-0.108764
0.758583
0.829455
0.375974
0.581722
1.060094
-0.825304
-0.288172
-0.034296
-0.605181
-0.465825
-0.204961
-0.880390
-0.989116
-0.497292
-0.745991
-1.060246
-0.520552
-0.999722
-0.617224
-0.825305
-0.618637
-0.939321
-0.136551
-0.343218
-0.204555
-0.636763
0.089262
0.427211
-0.100955
0.910710
0.175362
0.716408
0.465520
0.671366
0.072974
0.983654
-0.228374
0.305898
0.922556
0.452481
0.268240
0.741738
0.636833
0.396247
0.978185
1.117741
0.669160
0.923602
1.162042
0.777934
1.159375
0.827787
1.034981
0.864583
1.134234
0.402454
0.593732
0.450114
0.857725
0.157925
-0.278167
0.335374
-0.799754
0.025958
-0.587995
-0.270372
-0.494954
0.094338
-0.842164
0.441282
-0.105286
-0.825304
-0.970906
-0.242677
-0.974702
-0.580559
-0.709013
-0.479097
-0.904966
-0.193005
-1.067720
-0.538206
-0.340400
-0.845163
0.267284
-0.646456
-0.045893
-0.337180
0.036842
-0.530661
0.376318
-0.871642
-0.133649
-0.486072
-0.630238
0.292621
-0.604143
-0.104695
-0.194923
-0.293283
-0.793449
0.135936
-0.929689
-0.583149
0.922556
1.139484
0.409974
1.107073
0.721160
0.886815
0.649455
0.996592
0.388167
1.173650
0.701757
0.486860
0.945053
-0.039137
0.767449
0.236988
0.521186
0.132151
0.715125
-0.171056
1.022866
0.341701
0.741484
0.847892
-0.059951
0.854258
0.368779
0.447097
0.541219
1.002985
0.106798
1.129845
0.808017
-0.825304
-1.068259
-0.484461
-1.027786
-0.717164
-0.907750
-0.433931
-0.756384
-0.298778
-0.979883
-0.327143
0.049122
-0.565401
0.609355
-0.279575
0.356365
0.025199
0.388246
-0.257994
0.728680
-0.635193
0.093803
-0.622181
-0.482813
0.197761
-0.611750
-0.230443
-0.167742
-0.530590
-0.919197
-0.093440
-0.907297
-0.828206
0.922556
1.205096
0.673302
1.137705
0.861245
1.076085
0.605872
0.880682
0.472854
1.058712
0.527947
0.155555
0.723882
-0.358221
0.471089
-0.119731
0.207749
-0.178003
0.410715
-0.501036
0.755056
0.074946
0.866392
0.656377
0.024637
0.820023
0.479802
0.386236
0.788160
1.121081
0.357777
1.070355
1.032560
-0.825304
-0.012558
-0.348399
-0.456140
-0.637933
-0.219716
-1.018415
-0.823902
-0.838688
-0.444952
-1.021334
-0.119803
-0.681686
-0.530627
-0.435690
-0.358278
-0.725206
0.225772
0.155478
0.007388
-0.156483
0.535345
0.819992
0.410651
1.172287
0.656319
1.078214
0.901829
0.866398
0.436934
1.127674
0.224091
0.445597
0.922556
0.219215
0.543423
0.617483
0.784127
0.428408
1.110657
0.971074
0.944043
0.600695
1.166024
0.356445
0.880780
0.788198
0.664327
0.609414
0.940615
0.004355
0.049211
0.248776
0.359531
-0.354444
-0.611728
-0.257916
-1.051480
-0.482765
-0.906963
-0.774806
-0.622194
-0.212427
-0.926461
-0.035743
-0.191696
-0.825304
-0.848763
-0.108455
-0.912190
-0.507918
-0.581036
-0.541756
-0.973726
-0.178340
-1.068984
-0.681362
-0.499267
-0.969196
0.017535
-0.803356
-0.285443
-0.564733
-0.111862
-0.619089
0.160278
-0.940379
-0.198881
-0.337697
-0.617225
0.397538
-0.516800
0.032386
-0.126836
-0.094110
-0.650745
0.316061
-0.861602
-0.384652
0.922556
1.039930
0.296520
1.054389
0.659759
0.752329
0.705017
1.053254
0.383269
1.190881
0.815938
0.676678
1.066725
0.182526
0.942818
0.433120
0.701532
0.307521
0.830442
0.014378
1.114561
0.430442
0.587935
0.863752
-0.175731
0.774061
0.218223
0.391922
0.327678
0.872266
-0.096519
1.066705
0.610330
-0.825304
-1.029418
-0.741633
-1.006317
-0.856209
-1.045122
-0.470037
-0.602398
-0.492205
-0.785757
-0.198663
0.442877
-0.287015
0.824663
0.084207
0.670583
0.306171
0.741968
0.147747
0.989905
-0.263941
0.447536
-0.581032
-0.165049
0.239726
-0.425919
-0.185627
0.022235
-0.631627
-0.878764
-0.205241
-0.711506
-0.940007
0.922556
1.143504
0.940204
1.093758
1.002104
1.180945
0.628584
0.755428
0.651835
0.902300
0.406456
-0.198943
0.490840
-0.568650
0.154291
-0.419101
-0.044923
-0.514014
0.069406
-0.779689
0.460088
-0.233969
0.779287
0.336386
-0.038459
0.586241
0.399328
0.155369
0.866173
1.040607
0.450198
0.833107
1.134318
-0.000747
-0.659131
-0.406255
-0.357123
-0.220620
-0.620102
0.359582
0.280319
0.149859
-0.081072
0.679417
0.777934
0.527650
1.200883
0.702150
1.066501
0.997969
0.753385
0.374239
1.048657
0.247287
0.312780
-0.874842
-0.083343
-0.533109
-0.526048
-0.766925
-0.360312
-1.054288
-0.848396
-0.933981
-0.439517
-0.997911
0.169329
0.788127
0.636599
0.517779
0.430877
0.811395
-0.204900
-0.082144
0.054801
0.279820
-0.499783
-0.520552
-0.297410
-1.048338
-0.447135
-0.850275
-0.783000
-0.514721
-0.111581
-0.852056
0.005043
-0.065725
0.972368
0.314378
0.665818
0.692476
0.881868
0.549102
1.152441
0.943065
1.062797
0.615140
1.127645
-0.000747
-0.737933
-0.257471
-0.400123
-0.140098
-0.574697
0.406731
0.199358
0.276254
-0.221836
0.647441
0.571067
0.377919
1.150663
0.510087
0.928407
0.882528
0.565959
0.130875
0.931419
0.020009
0.089998
-0.996413
-0.328446
-0.622918
-0.729130
-0.883494
-0.556973
-1.073528
-0.950298
-0.932986
-0.639426
-0.998514
0.169329
0.876976
0.487457
0.566256
0.350162
0.780264
-0.253377
-0.000332
-0.085160
0.406890
-0.454449
-0.306666
-0.146144
-0.961307
-0.249529
-0.686222
-0.644156
-0.317115
0.119578
-0.714807
0.215475
0.146239
1.072268
0.527617
0.752288
0.857092
0.983315
0.715032
1.201425
1.054184
1.091255
0.779864
1.148817
-0.000747
-0.762708
0.168288
-0.413531
0.090321
-0.343189
0.451053
-0.044723
0.536370
-0.529506
0.436146
-0.059028
-0.078233
0.796405
-0.077454
0.397264
0.414637
-0.009999
-0.504366
0.476846
-0.557184
-0.476295
-1.053228
-0.859663
-0.659339
-1.049434
-0.934127
-0.901008
-0.864364
-0.995770
-0.707348
-0.967511
-0.777400
0.169329
0.948767
0.046105
0.603790
0.106143
0.568884
-0.274334
0.234816
-0.394648
0.674909
-0.219388
0.292664
0.284312
-0.540330
0.304180
-0.134036
-0.156429
0.239087
0.674809
-0.227906
0.713334
0.647954
1.202942
0.960826
0.834185
1.144864
1.102363
1.010514
1.077882
1.153272
0.936857
1.083017
0.986377
-0.457133
-0.916018
0.144775
-0.746055
-0.176641
-0.451496
-0.077001
-0.613109
0.250060
-0.930944
-0.210061
-0.425166
-0.664582
0.317671
-0.589767
-0.058176
-0.200289
-0.195124
-0.727428
0.219958
-0.914251
-0.477707
-0.800542
-0.906104
-0.146318
-0.927921
-0.515198
-0.616176
-0.486364
-0.936366
-0.154768
-1.070312
-0.597227
0.598719
1.000971
0.078712
0.861450
0.357785
0.623147
0.244837
0.794933
-0.047605
1.082805
0.417891
0.682214
0.885604
-0.089707
0.841696
0.320608
0.452314
0.444150
0.945776
0.016738
1.118068
0.706942
0.907188
1.091108
0.316783
1.074290
0.662341
0.804427
0.652189
1.018752
0.350848
1.182914
0.750512
-0.457133
-0.712150
-0.878694
-0.639322
-0.727538
-0.940874
-0.152236
-0.093549
-0.402819
-0.254768
0.255655
0.863822
0.286207
1.100800
0.622391
1.053493
0.790898
0.983164
0.589970
1.167343
0.289755
0.693622
-0.492437
0.244619
0.034779
-0.134118
-0.255516
0.150318
-0.775787
-0.651918
-0.512308
-0.269929
-0.954465
0.598719
0.929448
0.973779
0.818546
0.841537
1.085657
0.334020
0.264751
0.580877
0.464136
-0.056853
-0.752987
-0.109523
-0.922123
-0.467123
-0.913433
-0.609321
-0.887915
-0.411159
-1.061573
-0.085423
-0.526701
0.743657
-0.006736
0.189868
0.398712
0.503067
0.091506
0.986280
0.898849
0.740186
0.525262
1.146233
-0.457133
-1.023706
-0.297333
-0.806023
-0.415651
-0.800021
-0.006314
-0.375692
0.075545
-0.734722
0.096756
0.172330
-0.228188
0.819064
-0.037753
0.526468
0.341142
0.356178
-0.206982
0.741488
-0.460074
-0.039827
-0.932233
-0.554783
-0.247363
-0.817806
-0.638393
-0.483634
-0.894006
-1.068735
-0.563162
-0.921085
-1.008904
0.598719
1.157882
0.494061
0.944723
0.575350
0.906598
0.181325
0.566586
0.134716
0.930554
0.085454
0.073772
0.453884
-0.694254
0.279661
-0.335802
-0.143677
-0.133492
0.472115
-0.585922
0.716814
0.288584
1.103721
0.798871
0.451452
1.021097
0.841653
0.712724
1.027123
1.197756
0.722084
1.123017
1.098530
-0.457133
-0.294953
0.451441
-0.414368
-0.006272
0.076852
-0.376899
-0.806149
0.095582
-0.798607
-0.736176
-0.932533
-1.023939
-0.557276
-1.068944
-0.819359
-0.922743
-0.638670
-0.893097
-0.485068
-1.007815
-0.562217
0.077072
-0.691754
0.456215
-0.332664
0.282710
-0.140949
0.475074
-0.130383
0.719412
-0.583142
0.291265
0.598719
0.491951
-0.247575
0.574234
0.181211
0.133404
0.567810
0.944679
0.086806
0.905545
0.931822
1.103704
1.157749
0.801041
1.197741
1.022402
1.124208
0.841638
1.025912
0.714119
1.097219
0.720774
0.169338
0.817154
-0.230422
0.523793
-0.040517
0.338750
-0.209951
0.353413
-0.462735
0.739263
-0.042488
-0.457133
-0.776371
0.284219
-0.673969
-0.098877
-0.286308
-0.141201
-0.696432
0.255071
-0.950544
-0.364471
-0.640369
-0.816754
0.064543
-0.788589
-0.311635
-0.434289
-0.387716
-0.868221
-0.014042
-1.031676
-0.576010
-0.600867
-0.937280
-0.008606
-0.856152
-0.335268
-0.571872
-0.221802
-0.754223
0.090623
-1.018996
-0.350799
0.598719
0.894749
-0.060398
0.791540
0.282510
0.477287
0.319367
0.868076
-0.065604
1.077249
0.577704
0.873111
1.020968
0.191030
1.018426
0.574779
0.691520
0.626342
1.061456
0.262490
1.190664
0.796166
0.745960
1.096430
0.198157
0.977695
0.509035
0.734263
0.430894
0.878692
0.132242
1.110708
0.546080
-0.898436
-0.922715
-0.914718
-0.993545
-0.985117
-1.073388
-0.643001
-0.653487
-0.699459
-0.713085
-0.364531
0.486860
-0.302563
0.644155
0.094423
0.599108
0.189030
0.845489
0.328438
0.949112
-0.148903
0.695311
-0.287397
0.120014
0.554754
-0.098056
0.144464
0.381854
-0.422664
-0.675349
0.040600
-0.482302
-0.828209
1.087691
1.038026
1.087520
1.144300
1.167347
1.188329
0.880588
0.872929
0.940638
0.896313
0.607684
-0.340400
0.525273
-0.471202
0.097648
-0.446526
0.022987
-0.686475
-0.140979
-0.841234
0.321369
-0.484009
0.488774
0.087158
-0.289675
0.306779
0.107752
-0.133132
0.606638
0.807649
0.197727
0.637254
0.937521
-0.898436
-0.197481
-0.711404
-0.593673
-0.874750
-0.525661
-1.057149
-0.752507
-1.024312
-0.405206
-0.896495
0.220554
-0.492016
-0.228217
-0.156619
-0.008791
-0.435490
0.571362
0.417459
0.363554
0.044298
0.795653
0.628210
0.568743
1.150815
0.634938
0.932350
0.946026
0.537237
0.230695
0.890815
0.207223
0.098275
1.087691
0.432627
0.869163
0.819339
1.054065
0.742598
1.201602
0.985324
1.141880
0.657919
1.096283
-0.011620
0.748281
0.401057
0.398527
0.209637
0.654935
-0.408344
-0.213748
-0.195873
0.212152
-0.663427
-0.465349
-0.374981
-1.033592
-0.460210
-0.833132
-0.842093
-0.397023
-0.017857
-0.741195
0.027650
0.100599
-0.898436
-1.012138
-0.425166
-1.044269
-0.716328
-0.841310
-0.606764
-0.912780
-0.383200
-1.048332
-0.576245
-0.098663
-0.781674
0.327872
-0.494871
0.119343
-0.276653
0.319221
-0.287886
0.577696
-0.726180
0.148234
-0.446339
-0.422963
0.445915
-0.471238
-0.000494
0.012708
-0.339928
-0.808482
0.154034
-0.858573
-0.675967
1.087691
1.144305
0.688507
1.198079
0.952975
1.055784
0.829719
1.083394
0.634991
1.160670
0.784960
0.307384
0.924770
-0.140324
0.648453
0.087855
0.441159
-0.069277
0.489251
-0.347070
0.849681
0.104900
0.598871
0.606859
-0.216411
0.644161
0.206986
0.217152
0.486485
0.923257
0.037677
0.959308
0.844544
-0.898436
-0.615797
-1.043541
-0.823008
-1.063632
-0.976037
-0.803372
-0.585968
-0.962744
-0.467508
-0.447482
0.644156
-0.183243
0.495519
0.247380
0.609703
0.176934
0.944818
0.595663
0.918219
0.159380
0.932977
0.110437
0.481458
0.832304
0.320331
0.508672
0.748053
-0.106709
-0.293659
0.307383
-0.084172
-0.564836
1.087691
0.791190
1.143498
1.013381
1.197642
1.106206
1.029225
0.814940
1.140729
0.692565
0.705171
-0.471632
0.428365
-0.294335
-0.023425
-0.426871
0.063985
-0.841528
-0.443794
-0.803443
0.045549
-0.809183
0.097088
-0.333625
-0.586001
-0.131620
-0.274769
-0.548798
0.315361
0.461936
-0.052240
0.264176
0.708825
-0.898436
-0.709170
-0.192467
-0.870030
-0.590392
-0.520560
-0.757890
-1.056243
-0.411516
-1.024751
-0.898778
-0.447747
-1.030773
-0.166127
-0.816876
-0.340331
-0.722980
-0.001342
-0.470891
0.151434
-0.856234
0.013066
-0.065414
-0.421077
0.689330
-0.278259
0.322700
0.150897
0.165475
-0.426256
0.581290
-0.679907
-0.196429
1.087691
0.934723
0.445266
1.084654
0.824087
0.779665
0.960927
1.191752
0.641851
1.179498
1.045018
0.626247
1.120694
0.372638
0.926897
0.538594
0.846792
0.234760
0.639097
0.101889
0.952534
0.203663
0.261359
0.566987
-0.495474
0.440054
-0.154225
0.041288
0.042874
0.642489
-0.420580
0.847377
0.439490
-0.898436
-0.428458
-1.009514
-0.721621
-1.044047
-0.843910
-0.908598
-0.600128
-1.050883
-0.389698
-0.572090
0.600807
-0.210456
0.291410
0.211256
0.476522
0.039973
0.905313
0.643708
0.791803
0.216594
0.960793
0.342530
0.604779
0.989767
0.496065
0.714407
0.893404
0.136848
-0.070066
0.522588
0.101799
-0.334055
1.087691
0.632623
1.105058
0.931027
1.182073
1.002062
1.114444
0.835746
1.191738
0.620278
0.827829
-0.414941
0.466810
-0.082704
0.026806
-0.274664
0.216613
-0.786938
-0.470088
-0.658966
0.008937
-0.863268
-0.157412
-0.450907
-0.780434
-0.352134
-0.513777
-0.745033
0.069558
0.245919
-0.287067
0.097428
0.498702
-0.000759
-0.605810
0.521554
-0.331482
0.275184
-0.054383
0.335564
-0.254016
0.643181
-0.629586
0.087872
-0.628527
-0.468601
0.193295
-0.609292
-0.235546
-0.175095
-0.543778
-0.925820
-0.105626
-0.899513
-0.841085
-0.808135
-1.066804
-0.437838
-1.024751
-0.680846
-0.909623
-0.436243
-0.778338
-0.251637
-0.982349
-0.388868
0.239555
0.803598
-0.358985
0.563265
-0.074045
0.254181
-0.111172
0.520918
-0.478721
0.874453
0.164540
0.845702
0.722976
0.008509
0.835780
0.461185
0.418907
0.731172
1.101467
0.294731
1.091727
0.983430
0.909276
1.189545
0.620801
1.124852
0.817408
0.999601
0.592708
0.924019
0.453771
1.144755
0.534222
-0.000759
-0.769105
0.176335
-0.416647
0.088198
-0.353310
0.415873
-0.065751
0.543152
-0.513748
0.373718
-0.129585
-0.120733
0.681722
-0.148965
0.298027
0.312362
-0.082817
-0.537470
0.381705
-0.581001
-0.512092
-1.052191
-0.863529
-0.630914
-1.050926
-0.934091
-0.898321
-0.879144
-0.998198
-0.686668
-0.957171
-0.787605
0.239555
0.984549
0.004345
0.661195
0.122588
0.561509
-0.213100
0.328974
-0.374179
0.773882
-0.148376
0.351924
0.376551
-0.538430
0.390886
-0.104924
-0.094128
0.273309
0.759984
-0.229594
0.811204
0.698465
1.155182
1.052343
0.775628
1.184492
1.017301
1.024566
0.975045
1.158014
0.821458
1.143779
0.937284
-0.000759
-0.095696
0.785570
-0.057300
0.422487
0.396865
0.076754
-0.414517
0.523470
-0.515853
-0.359451
-1.060716
-0.765168
-0.587083
-0.999330
-0.898059
-0.800601
-0.942910
-1.038685
-0.737352
-0.954207
-0.875232
-0.044041
-0.842002
0.100954
-0.484270
0.030801
-0.433511
0.411107
-0.094939
0.514124
-0.561209
0.392448
0.239555
0.283194
-0.653685
0.274939
-0.224126
-0.215829
0.177864
0.668311
-0.322671
0.732392
0.624440
1.188619
0.997698
0.806990
1.175195
1.080016
1.008536
1.055256
1.140244
0.900702
1.114757
0.974348
0.242053
0.940214
0.142581
0.634353
0.195999
0.612913
-0.186729
0.260533
-0.270350
0.706335
-0.200764
0.000072
-0.772519
0.132975
-0.418045
0.064083
-0.370577
0.423010
-0.039065
0.512230
-0.490221
0.407002
-0.011620
-0.071798
0.838355
-0.054233
0.447425
0.426598
0.054641
-0.464601
0.542638
-0.531286
-0.419440
-1.066170
-0.836393
-0.650836
-1.032838
-0.949204
-0.867410
-0.921371
-1.004485
-0.762715
-0.938676
-0.806034
0.228209
0.982090
0.117823
0.651442
0.180806
0.624333
-0.229767
0.250729
-0.315745
0.708531
-0.247358
0.220554
0.251604
-0.621259
0.240366
-0.216949
-0.233411
0.181623
0.624480
-0.281911
0.685883
0.601314
1.197233
0.936381
0.783082
1.136166
1.049621
0.966199
1.101652
1.165092
0.914327
1.097409
1.033043
0.000072
-0.656540
-0.368200
-0.355525
-0.207151
-0.614715
0.367521
0.228095
0.180199
-0.135499
0.624258
0.728083
0.429777
1.186918
0.620331
1.036391
0.923945
0.729139
0.308931
1.042756
0.157293
0.273400
-0.914766
-0.156435
-0.514263
-0.593309
-0.784451
-0.400598
-1.060766
-0.857602
-0.937689
-0.513254
-1.001661
0.228209
0.862467
0.631256
0.584834
0.458493
0.840610
-0.154814
-0.035580
0.060453
0.334030
-0.467553
-0.503205
-0.278972
-1.039019
-0.430181
-0.841377
-0.774296
-0.473194
-0.081440
-0.817940
0.035570
-0.020489
1.015631
0.352723
0.680313
0.733187
0.903269
0.584991
1.163754
1.012775
1.017384
0.668194
1.159807
-0.000351
-0.817039
-0.147418
-0.445020
-0.094253
-0.566194
0.448315
0.115192
0.373496
-0.345947
0.594418
0.356445
0.217842
1.051394
0.302081
0.757463
0.723260
0.366426
-0.098838
0.797739
-0.194767
-0.133197
-1.052717
-0.538538
-0.621311
-0.884178
-0.912889
-0.707329
-1.044441
-1.015322
-0.855771
-0.789392
-0.976022
0.207835
0.915952
0.334753
0.607826
0.275590
0.719139
-0.223797
0.122792
-0.187267
0.538622
-0.339988
-0.119803
0.039560
-0.853802
-0.049695
-0.527139
-0.470103
-0.146546
0.307936
-0.581808
0.408508
0.310859
1.172355
0.692946
0.828731
0.979095
1.082980
0.847792
1.191939
1.107636
1.073174
0.904666
1.121652
0.003323
-0.836455
-0.305188
-0.453518
-0.178311
-0.672263
0.472885
0.249552
0.305477
-0.233088
0.767657
0.653413
0.457789
1.327225
0.596885
1.067557
1.030434
0.636603
0.156723
1.057059
0.039295
0.090111
-1.150914
-0.363825
-0.756036
-0.828985
-1.034719
-0.654185
-1.239992
-1.084835
-1.097014
-0.703546
-1.149285
0.121200
0.949532
0.530944
0.579476
0.344454
0.836678
-0.348128
-0.063762
-0.136801
0.410217
-0.583743
-0.398869
-0.230617
-1.120139
-0.345570
-0.825341
-0.787784
-0.381132
0.099236
-0.828004
0.194014
0.157977
1.231618
0.582234
0.872083
0.976591
1.138515
0.819805
1.384836
1.175031
1.269772
0.859470
1.280655
0.003323
-0.809098
0.403016
-0.441756
0.202999
-0.240581
0.505828
-0.164387
0.720549
-0.689082
0.358839
-0.392306
-0.303134
0.627342
-0.378926
0.127201
0.184700
-0.332188
-0.852088
0.235830
-0.858902
-0.809802
-1.107717
-1.161094
-0.738220
-1.239194
-1.003565
-1.100209
-0.804407
-1.041992
-0.644605
-1.157256
-0.684796
0.121200
0.987508
-0.215266
0.591545
-0.061713
0.443378
-0.338175
0.328323
-0.599770
0.809982
-0.148979
0.607520
0.485463
-0.371656
0.579596
0.127649
0.054529
0.546898
0.994902
0.018106
0.991305
0.943295
1.317703
1.245632
0.932954
1.387266
1.218047
1.257807
1.047530
1.233133
0.895375
1.267037
0.927356
-1.070255
-1.025955
-1.083899
-1.137375
-1.178758
-1.233469
-0.820700
-0.734220
-0.896627
-0.762045
-0.435841
0.684945
-0.278885
0.809275
0.218907
0.808153
0.291129
1.060379
0.494390
1.203545
-0.037270
0.870269
-0.340575
0.233797
0.567027
-0.062390
0.118194
0.452926
-0.518548
-0.744656
-0.019200
-0.459161
-0.941760
1.161570
1.117283
1.275639
1.210791
1.301404
1.381374
0.935510
0.885921
1.055638
0.922723
0.601845
-0.434703
0.492507
-0.589705
0.030275
-0.555652
-0.060943
-0.824026
-0.233429
-0.971991
0.284819
-0.628417
0.460489
0.003822
-0.441216
0.240490
0.005439
-0.270658
0.687191
0.853884
0.199451
0.642317
1.112298
-1.070255
-0.414231
-0.303072
-0.806096
-0.747309
-0.428220
-1.152190
-1.165820
-0.796597
-0.866829
-1.235901
-0.398869
-1.059992
-0.590375
-0.791791
-0.537793
-0.958051
0.062930
-0.187253
-0.048957
-0.585379
0.327945
0.513236
0.052870
1.154580
0.284944
0.902616
0.684145
0.721138
0.046994
1.139593
-0.228056
0.226740
1.161570
0.540416
0.516734
0.921108
0.897415
0.598743
1.230770
1.290062
0.951041
1.022151
1.387135
0.653413
1.254681
0.819253
1.028286
0.792644
1.193533
0.187306
0.446674
0.281241
0.824682
-0.084695
-0.388811
0.175423
-1.052734
-0.122295
-0.786962
-0.514401
-0.540399
0.077450
-0.960291
0.398051
-0.037666
-1.070255
-1.197000
-0.732460
-1.232169
-0.980278
-1.121371
-0.695198
-0.950568
-0.589462
-1.125380
-0.511202
0.158752
-0.668334
0.643772
-0.276684
0.432701
-0.014181
0.577249
-0.139015
0.892421
-0.627154
0.286055
-0.589802
-0.401980
0.392506
-0.545950
-0.110443
-0.008641
-0.532142
-0.971363
-0.009063
-0.931158
-0.919080
1.161570
1.372299
0.909472
1.348599
1.103236
1.289197
0.841060
1.067086
0.713163
1.218712
0.698728
0.066651
0.844320
-0.388180
0.493014
-0.174010
0.263353
-0.363508
0.297164
-0.649803
0.766004
-0.136508
0.821136
0.527536
-0.206110
0.729897
0.331362
0.184031
0.787366
1.187079
0.249412
1.096870
1.158179
-1.070255
-0.814235
-0.226190
-1.028316
-0.708825
-0.642889
-0.895509
-1.226695
-0.467002
-1.165863
-1.068911
-0.582766
-1.188065
-0.286362
-0.966087
-0.490245
-0.871859
-0.100855
-0.570775
0.050362
-0.962364
-0.053220
-0.048904
-0.467531
0.762610
-0.281405
0.386255
0.168324
0.191043
-0.470353
0.672333
-0.744111
-0.240514
1.161570
1.005115
0.403947
1.154998
0.847252
0.765561
1.022865
1.337787
0.653615
1.330244
1.152556
0.792883
1.352320
0.407101
1.160976
0.645903
1.012044
0.305126
0.819154
0.099303
1.196868
0.284539
0.294876
0.720715
-0.569578
0.542193
-0.150921
0.083396
0.002667
0.702213
-0.498652
0.985660
0.413696
-1.070255
-1.114613
-0.483169
-1.195380
-0.843405
-0.937039
-0.718401
-1.114632
-0.451544
-1.226173
-0.714170
-0.268084
-0.972276
0.314490
-0.672843
0.024052
-0.380309
0.185167
-0.479877
0.531262
-0.909916
0.012503
-0.477583
-0.579561
0.461321
-0.574807
-0.010471
-0.071287
-0.296732
-0.864156
0.225232
-0.986152
-0.687647
1.161570
1.309018
0.610227
1.314765
0.957545
1.101933
0.871569
1.190276
0.610041
1.368073
0.882318
0.391936
1.071946
-0.066161
0.790422
0.174483
0.580690
-0.049375
0.631305
-0.332491
1.066245
0.153434
0.731645
0.786237
-0.249657
0.821472
0.257096
0.297129
0.557050
1.104399
0.025917
1.209696
0.930818
-0.000712
-0.832292
0.465558
-0.454220
0.245405
-0.216735
0.465334
-0.186248
0.747104
-0.690534
0.298552
-0.424782
-0.334140
0.555799
-0.414823
0.070764
0.119684
-0.359087
-0.844908
0.181818
-0.853895
-0.795411
-1.140467
-1.131118
-0.742296
-1.241615
-1.031023
-1.102185
-0.807278
-1.072110
-0.632703
-1.147628
-0.682687
0.123313
0.943182
-0.238724
0.576849
-0.079802
0.389791
-0.339150
0.370471
-0.580456
0.868924
-0.115998
0.678208
0.561838
-0.336940
0.667675
0.184693
0.113495
0.615152
1.084215
0.067457
1.093121
1.025780
1.217695
1.331503
0.860537
1.376083
1.124731
1.235305
0.956219
1.165925
0.795965
1.313290
0.849755
-0.000712
-0.282902
-0.851327
-0.158188
-0.467502
-0.671485
0.217992
0.475553
-0.261024
0.339388
0.733294
1.249002
0.879419
1.306449
1.149401
1.383000
1.236928
1.200881
1.005473
1.314272
0.847702
0.898386
-0.352219
0.623662
-0.188156
0.146904
-0.293016
0.250729
-0.788901
-0.348800
-0.746993
0.188544
-0.805241
0.123313
0.510030
0.969937
0.342662
0.591328
0.854459
-0.052931
-0.349466
0.428972
-0.161082
-0.562794
-1.167974
-0.761357
-1.097995
-1.056862
-1.239631
-1.092339
-1.096979
-0.869432
-1.140863
-0.692308
-0.742526
0.608289
-0.413473
0.414905
0.105433
0.550118
-0.005569
1.031003
0.599984
0.982726
0.040920
1.048745
-0.000572
-0.889115
-0.050782
-0.481495
-0.029062
-0.547684
0.488825
0.059190
0.493846
-0.454469
0.626057
0.303746
0.170621
1.171637
0.256077
0.796888
0.774060
0.323444
-0.216784
0.826311
-0.324612
-0.235369
-1.234918
-0.704310
-0.809451
-1.084611
-1.113603
-0.885906
-1.180166
-1.159901
-1.026934
-0.968363
-1.058555
0.164998
1.053054
0.309230
0.659205
0.253761
0.783433
-0.352411
0.061136
-0.289464
0.580151
-0.483132
-0.062590
0.010493
-0.935459
-0.036959
-0.542466
-0.551128
-0.064770
0.432555
-0.578429
0.502541
0.466910
1.356126
0.861848
0.915289
1.170985
1.229281
1.019395
1.368016
1.286585
1.204887
1.070577
1.256693
-0.000572
-0.783522
-0.392678
-0.424617
-0.213449
-0.689333
0.441314
0.247953
0.244627
-0.186030
0.739440
0.796919
0.519869
1.368022
0.712641
1.171658
1.089975
0.762572
0.303781
1.140363
0.163408
0.238942
-1.084590
-0.216748
-0.665100
-0.704279
-0.953619
-0.519417
-1.234915
-1.023143
-1.102701
-0.609903
-1.148997
0.164998
0.910115
0.648000
0.581847
0.439991
0.899579
-0.273669
-0.124519
-0.010083
0.324961
-0.618998
-0.542497
-0.337609
-1.180177
-0.485429
-0.935481
-0.891427
-0.512124
-0.062625
-0.915361
0.048735
0.019157
1.170969
0.432522
0.818361
0.861822
1.070819
0.719491
1.356118
1.121048
1.229121
0.761174
1.290314
-0.000572
-0.303845
0.855827
-0.165373
0.461591
0.318520
0.199353
-0.447662
0.719892
-0.660267
-0.269660
-1.146170
-0.826104
-0.357153
-1.078779
-0.822151
-0.722562
-1.023642
-1.240433
-0.631390
-1.141340
-1.099127
-0.417006
-1.129806
-0.246173
-0.840361
-0.367387
-0.810076
0.075565
-0.395790
0.174684
-0.835772
0.145312
0.164998
0.560871
-0.718121
0.392137
-0.302364
-0.090788
-0.076592
0.610285
-0.593421
0.878865
0.400443
1.226551
0.962661
0.559926
1.172399
0.960743
0.859347
1.119772
1.380610
0.815015
1.299937
1.241871
0.669922
1.334164
0.430069
1.084603
0.595311
1.018580
0.162218
0.650231
0.028371
1.068969
0.108493
-0.852069
-1.053762
-0.109393
-1.031428
-0.535617
-0.679358
-0.522344
-1.021706
-0.140479
-1.218693
-0.662663
-0.580578
-1.028559
0.086741
-0.873860
-0.271966
-0.551302
-0.197436
-0.793854
0.171938
-1.114488
-0.370053
-0.525586
-0.871494
0.339127
-0.766021
-0.106932
-0.324376
-0.198255
-0.859665
0.273979
-1.122512
-0.513069
1.044606
1.139502
0.230544
1.182031
0.688919
0.789730
0.748150
1.241262
0.327277
1.378971
0.916105
0.790194
1.248946
0.167781
1.094988
0.514546
0.804620
0.365101
0.945543
0.026666
1.264409
0.495694
0.714731
0.982917
-0.108111
0.910157
0.326237
0.498802
0.433753
1.001124
-0.021698
1.206768
0.705433
-0.852069
-0.039745
-0.201988
-0.490528
-0.571755
-0.150106
-1.066862
-0.979982
-0.764041
-0.577533
-1.209559
-0.376547
-0.944624
-0.846142
-0.718058
-0.662346
-1.046662
0.029683
-0.023596
-0.238781
-0.348768
0.433406
0.882331
0.341328
1.315472
0.660661
1.180111
0.944916
0.969673
0.450223
1.274571
0.166269
0.534873
1.044606
0.162124
0.442024
0.652915
0.804215
0.348805
1.277265
1.125965
1.014325
0.691510
1.357569
0.590043
1.046938
0.966243
0.885928
0.823671
1.138709
0.207668
0.270976
0.430743
0.552866
-0.174265
-0.699865
-0.089345
-1.111996
-0.430419
-0.984067
-0.700258
-0.847710
-0.298710
-1.160513
0.019514
-0.405191
-0.852069
-1.231714
-0.657677
-1.130290
-0.837608
-1.117736
-0.428865
-0.712111
-0.367366
-0.980498
-0.240125
0.228266
-0.460560
0.800495
-0.129908
0.555150
0.194300
0.551689
-0.133370
0.917202
-0.540793
0.182686
-0.856504
-0.467649
0.091947
-0.726049
-0.437809
-0.256370
-0.830274
-1.143909
-0.329305
-0.986793
-1.125876
1.044606
1.387156
0.791122
1.316060
0.977505
1.240577
0.614120
0.952675
0.491746
1.214089
0.465406
0.021541
0.715709
-0.632356
0.389308
-0.335640
0.041913
-0.344274
0.383275
-0.756467
0.794411
0.016733
0.970318
0.693853
0.073002
0.900609
0.564640
0.407378
0.956525
1.261342
0.502359
1.186025
1.210325
-0.852069
-0.164360
-1.081198
-0.551427
-1.050194
-0.724254
-1.001149
-0.507009
-1.215378
-0.143889
-0.617703
0.849728
-0.064635
0.274209
0.420103
0.605766
0.113219
1.149990
0.964328
0.891866
0.523231
1.274382
0.641877
0.977011
1.083590
0.861416
0.933816
1.169002
0.336485
0.256875
0.613987
0.461036
-0.113145
1.044606
0.400088
1.291672
0.781360
1.264384
0.976201
1.148821
0.665796
1.368210
0.338135
0.729634
-0.655743
0.185625
-0.020134
-0.261498
-0.369878
0.078272
-0.943304
-0.830088
-0.642855
-0.396982
-1.146055
-0.437794
-0.863829
-0.989166
-0.706187
-0.775532
-1.083272
-0.092732
-0.025823
-0.413536
-0.275391
0.370171
-0.852069
-0.244716
-0.001349
-0.614258
-0.464565
-0.162900
-0.941826
-1.090178
-0.518386
-0.829691
-1.193438
-0.705740
-1.161716
-0.830301
-1.030665
-0.863710
-1.165391
-0.273374
-0.437166
-0.394450
-0.740943
0.056912
0.606369
-0.091997
1.120076
0.274933
0.925156
0.581599
0.850101
0.195268
1.193677
-0.196989
0.415030
1.044606
0.369581
0.215684
0.758663
0.680975
0.329604
1.171517
1.249206
0.770039
0.935796
1.376231
0.861039
1.263625
0.964413
1.127312
0.976925
1.255383
0.463680
0.641343
0.542601
0.904143
0.180890
-0.370538
0.335796
-0.880960
-0.020872
-0.679557
-0.322527
-0.656233
-0.005068
-0.997370
0.404604
-0.265997
0.001796
-0.748427
0.531848
-0.405900
0.279782
-0.132876
0.415821
-0.262221
0.734854
-0.713219
0.168969
-0.655743
-0.476646
0.302212
-0.614587
-0.194362
-0.101944
-0.580611
-1.017292
-0.067326
-0.982897
-0.946668
-1.017824
-1.218025
-0.582582
-1.213759
-0.878113
-1.091278
-0.634473
-0.959845
-0.421087
-1.139285
-0.557307
0.230485
0.958141
-0.386267
0.642067
-0.084308
0.327685
-0.192204
0.514114
-0.565795
0.965652
0.085365
0.849728
0.732109
-0.138951
0.855459
0.384587
0.342460
0.714635
1.185506
0.196231
1.196128
1.054064
1.126771
1.349771
0.771447
1.340295
1.011598
1.174792
0.757650
1.128346
0.619878
1.332474
0.693897
0.001796
-0.766551
-0.440174
-0.416541
-0.240091
-0.706142
0.430273
0.255493
0.212696
-0.171014
0.720446
0.683937
0.478842
1.316930
0.629291
1.069973
1.000393
0.697218
0.215007
1.123004
0.110958
0.142160
-1.066211
-0.279969
-0.669701
-0.728547
-0.959692
-0.569365
-1.233394
-0.993261
-1.102514
-0.606176
-1.141792
0.230485
1.011547
0.628170
0.670970
0.463615
0.946691
-0.238021
-0.015332
-0.031756
0.432761
-0.535738
-0.552114
-0.248065
-1.192880
-0.434139
-0.965577
-0.862423
-0.564229
-0.046023
-0.951073
0.124099
-0.022075
1.227049
0.473036
0.809919
0.920079
1.066261
0.698932
1.363397
1.204057
1.190124
0.849164
1.344347
0.001796
-0.321428
-0.827780
-0.177610
-0.448846
-0.670899
0.196501
0.458676
-0.273363
0.303919
0.697928
1.255648
0.847831
1.289377
1.111398
1.371284
1.189786
1.247413
0.948851
1.343739
0.798928
0.893086
-0.437791
0.535953
-0.224718
0.047700
-0.378786
0.155283
-0.856359
-0.412432
-0.812116
0.123856
-0.848881
0.230485
0.581284
1.049270
0.431083
0.691386
0.924303
0.003121
-0.242479
0.473651
-0.058068
-0.530850
-1.136842
-0.677938
-1.143647
-1.004824
-1.241047
-1.101867
-1.069803
-0.845298
-1.140735
-0.623369
-0.740042
0.633695
-0.389545
0.377964
0.130156
0.515045
-0.035460
1.040759
0.655869
0.928294
0.110700
1.078243
-0.001712
-0.315855
0.852137
-0.171883
0.460230
0.309623
0.186035
-0.451657
0.695905
-0.665650
-0.273182
-1.141996
-0.828240
-0.353126
-1.076017
-0.817778
-0.728413
-1.011050
-1.240204
-0.618918
-1.142927
-1.097057
-0.429827
-1.136128
-0.249271
-0.850616
-0.376091
-0.817506
0.060246
-0.409809
0.170230
-0.845281
0.128687
0.189367
0.575760
-0.698730
0.412490
-0.277570
-0.070997
-0.058832
0.632544
-0.579719
0.896184
0.398061
1.224795
0.979421
0.546102
1.177191
0.957329
0.856124
1.114313
1.377812
0.803027
1.307036
1.227630
0.677851
1.335307
0.414331
1.089513
0.591084
1.010154
0.165680
0.661420
0.024871
1.085189
0.119468
0.020830
-0.468198
-0.740663
-0.246434
-0.392502
-0.699680
0.287335
0.431984
-0.137305
0.171320
0.743319
1.228854
0.777372
1.313857
1.071993
1.376105
1.192683
1.198633
0.894521
1.327783
0.678927
0.814027
-0.614136
0.424005
-0.292983
-0.107255
-0.492306
0.058834
-1.007373
-0.598352
-0.898939
-0.077266
-0.978813
0.230251
0.645927
0.985931
0.471622
0.650870
0.935242
-0.039801
-0.225422
0.391477
-0.005255
-0.551392
-1.039540
-0.646777
-1.210876
-0.932219
-1.220066
-1.098554
-0.965685
-0.693087
-1.132958
-0.537725
-0.567078
0.752906
-0.224758
0.510095
0.285831
0.669692
0.156112
1.105357
0.722613
1.024249
0.205241
1.124034
0.020830
-0.456970
0.789129
-0.238785
0.438347
0.188840
0.277275
-0.395881
0.739375
-0.698410
-0.150474
-1.044757
-0.744578
-0.175679
-0.976160
-0.672112
-0.571156
-0.900934
-1.223455
-0.458028
-1.136653
-1.099542
-0.637897
-1.207206
-0.366791
-1.004153
-0.568068
-0.931657
-0.159791
-0.594656
-0.033796
-0.967053
-0.078713
0.230251
0.711426
-0.602523
0.499911
-0.205388
0.056901
-0.073895
0.635125
-0.563811
0.943937
0.334900
1.139135
0.948041
0.349547
1.116627
0.805669
0.698312
1.026521
1.333472
0.639228
1.307155
1.177971
0.840646
1.368802
0.491506
1.195745
0.713336
1.065921
0.358019
0.839976
0.172312
1.201021
0.308412
-0.649009
-1.049412
-0.749693
-0.923287
-0.759891
-1.053765
-0.236369
-0.353036
-0.339268
-0.613872
0.118018
0.647821
-0.003317
1.124372
0.346907
0.953408
0.643762
0.860933
0.281442
1.174901
-0.081955
0.470650
-0.813511
-0.127785
-0.042189
-0.517558
-0.463102
-0.132071
-0.926621
-1.015740
-0.543910
-0.686994
-1.128449
0.753847
1.137944
0.943222
1.018644
0.882129
1.180870
0.385147
0.532135
0.486133
0.794975
0.096562
-0.405725
0.238992
-0.890667
-0.090535
-0.706386
-0.381028
-0.625360
-0.041687
-0.953252
0.325267
-0.243772
0.952806
0.332909
0.213756
0.674308
0.631339
0.299219
1.124161
1.129218
0.772569
0.844277
1.303708
-0.649009
-0.822006
0.154209
-0.798896
-0.268596
-0.407705
-0.314387
-0.894484
0.128840
-1.072504
-0.540012
-0.743965
-0.995919
-0.000390
-0.945735
-0.402842
-0.578673
-0.405683
-0.907993
-0.023993
-1.118267
-0.533837
-0.508069
-0.918436
0.167016
-0.779157
-0.184577
-0.441448
-0.157614
-0.719842
0.219464
-1.014071
-0.349952
0.753847
1.010992
0.001758
0.918806
0.408930
0.559684
0.493181
0.997374
0.081823
1.191628
0.730727
0.868594
1.098641
0.216958
1.051416
0.577527
0.757338
0.553537
1.088730
0.206168
1.280151
0.749012
0.748018
1.143117
0.068949
1.023475
0.442139
0.699787
0.402121
0.949264
0.031304
1.230926
0.583226
-0.951430
-0.997164
-0.220062
-1.054669
-0.638123
-0.706613
-0.673349
-1.052162
-0.319844
-1.149126
-0.743164
-0.405725
-0.987225
0.091627
-0.754381
-0.170288
-0.524274
0.011454
-0.546120
0.298350
-0.918777
-0.109178
-0.425099
-0.603276
0.457794
-0.568588
0.017695
-0.113044
-0.148857
-0.787850
0.350937
-0.935229
-0.501280
1.072518
1.091322
0.426889
1.153555
0.785889
0.875525
0.828199
1.234760
0.486290
1.309428
0.962336
0.647821
1.209021
0.150046
0.999220
0.426433
0.784658
0.231502
0.784798
-0.050964
1.131750
0.336153
0.556534
0.802296
-0.284835
0.697888
0.147043
0.270414
0.340041
0.881299
-0.124571
1.054526
0.682976
-0.951430
-0.987518
-0.996894
-1.052310
-1.054523
-1.149128
-0.637967
-0.673498
-0.706235
-0.743505
-0.319900
0.556144
-0.285111
0.802200
0.146682
0.697542
0.270137
0.880938
0.339525
1.054249
-0.125065
0.682513
-0.406161
0.091067
0.426580
-0.170835
0.011051
0.297843
-0.546337
-0.754728
-0.109346
-0.524781
-0.918945
1.072518
1.209273
1.091081
1.234896
1.153350
1.309355
0.785749
0.828404
0.875201
0.962700
0.486293
-0.424563
0.458173
-0.603300
0.018189
-0.568417
-0.112890
-0.787498
-0.148226
-0.935102
0.351520
-0.500680
0.648230
0.150677
-0.219773
0.426982
0.231879
-0.050429
0.784967
0.999549
0.336264
0.785168
1.131822
0.001087
-0.701271
0.489166
-0.379490
0.263816
-0.123725
0.387333
-0.230913
0.687180
-0.651256
0.171818
-0.591205
-0.426737
0.405713
-0.557294
-0.100388
-0.066128
-0.466168
-0.933515
0.064144
-0.897686
-0.831864
-0.967684
-1.118035
-0.581493
-1.132170
-0.868353
-1.018660
-0.625927
-0.910248
-0.474546
-1.056188
-0.525327
0.236331
0.947191
-0.262610
0.623483
-0.016736
0.380160
-0.186800
0.460288
-0.491075
0.883280
0.018866
0.704469
0.614170
-0.188551
0.679690
0.279213
0.209510
0.640045
1.022476
0.160081
1.045720
0.970986
1.164970
1.241803
0.730097
1.302536
1.009490
1.121288
0.850047
1.143093
0.638571
1.263816
0.781099
0.001087
-0.820615
0.029195
-0.444078
0.014882
-0.478040
0.462202
0.012344
0.510366
-0.460776
0.506901
0.136203
0.037207
1.015039
0.059034
0.623047
0.570374
0.192636
-0.371378
0.712901
-0.442455
-0.340650
-1.147654
-0.796543
-0.699023
-1.052838
-1.037254
-0.872778
-1.067381
-1.072220
-0.918792
-0.934611
-0.960570
0.236331
1.042162
0.220026
0.689928
0.241206
0.728561
-0.252921
0.201491
-0.280025
0.678079
-0.328103
0.064175
0.135976
-0.799202
0.088135
-0.398556
-0.405916
0.039064
0.517749
-0.457023
0.572257
0.528608
1.299279
0.892501
0.854785
1.150190
1.133576
1.005262
1.252500
1.267179
1.045198
1.085562
1.187725
-0.878462
-0.974496
-0.191333
-1.011117
-0.586554
-0.677288
-0.604862
-1.015694
-0.257255
-1.147005
-0.714456
-0.486021
-0.997926
0.028247
-0.827677
-0.256609
-0.573562
-0.021495
-0.610111
0.264527
-0.995973
-0.130170
-0.387414
-0.630972
0.484624
-0.555773
0.052610
-0.089181
-0.157077
-0.768458
0.335901
-0.962706
-0.495826
1.117191
1.145513
0.446305
1.224567
0.846158
0.919036
0.842859
1.218143
0.511430
1.315871
0.932071
0.624000
1.134725
0.116063
0.928109
0.400519
0.708540
0.233017
0.778493
-0.053341
1.089689
0.360984
0.561542
0.816576
-0.239178
0.730343
0.162918
0.324662
0.319192
0.892065
-0.134256
1.065050
0.668215
-0.878462
-0.169164
-0.910866
-0.567025
-0.968377
-0.623613
-1.052219
-0.634030
-1.142195
-0.259973
-0.771523
0.515049
-0.276516
-0.038733
0.126364
0.254160
-0.191054
0.827451
0.708805
0.592397
0.307619
1.036324
0.657516
0.811867
1.209062
0.791330
0.975096
1.098577
0.456772
0.261688
0.788487
0.369871
-0.003714
1.117191
0.413607
1.065597
0.805341
1.174188
0.853556
1.258959
0.890112
1.305671
0.518695
1.002617
-0.371163
0.527521
0.186489
0.084620
-0.112185
0.394999
-0.714313
-0.557442
-0.432241
-0.086331
-0.945648
-0.487847
-0.631976
-1.046305
-0.607374
-0.861246
-1.001800
-0.284983
-0.040179
-0.637815
-0.128275
0.216434
-0.878462
-0.981969
-0.991111
-1.006989
-1.020056
-1.147482
-0.595173
-0.596616
-0.695826
-0.696372
-0.256157
0.582589
-0.223940
0.818477
0.182828
0.745015
0.336051
0.910200
0.347674
1.072437
-0.107430
0.692882
-0.464858
0.059830
0.461270
-0.229544
-0.001942
0.289821
-0.602334
-0.806827
-0.123526
-0.546191
-0.988145
1.117191
1.119942
1.159392
1.210044
1.232078
1.315244
0.854257
0.834697
0.935690
0.916604
0.510777
-0.408743
0.469542
-0.633364
0.032904
-0.567971
-0.098787
-0.788163
-0.183072
-0.972312
0.311777
-0.524496
0.604491
0.084336
-0.207259
0.372791
0.212209
-0.079623
0.767333
0.910085
0.352887
0.686328
1.081592
-0.878462
-1.132737
-0.487078
-1.098900
-0.751486
-0.957622
-0.518702
-0.851277
-0.329363
-1.066292
-0.452586
-0.081519
-0.694493
0.481220
-0.431342
0.216317
-0.135261
0.346048
-0.346959
0.667292
-0.749857
0.100868
-0.614345
-0.543550
0.322088
-0.628985
-0.158169
-0.130354
-0.504916
-0.976993
0.004925
-0.996243
-0.870993
1.117191
1.280511
0.727610
1.297627
0.998399
1.159389
0.766673
1.065901
0.592965
1.231401
0.697854
0.224421
0.891883
-0.308416
0.584574
-0.064963
0.336801
-0.144270
0.491268
-0.494757
0.861234
0.113977
0.799199
0.691681
-0.065958
0.806858
0.396827
0.361261
0.672862
1.079900
0.217976
1.089967
0.986510
-0.878462
-0.209904
-0.221538
-0.596605
-0.595316
-0.256056
-1.005549
-1.021450
-0.693449
-0.698833
-1.147493
-0.412129
-0.993511
-0.633650
-0.791291
-0.569854
-0.973781
0.029776
-0.187249
-0.100255
-0.529112
0.307893
0.601237
0.079189
1.117495
0.368244
0.907079
0.682693
0.765404
0.208955
1.080167
-0.083923
0.351462
1.117191
0.463744
0.467148
0.855596
0.833401
0.510732
1.208704
1.233262
0.914103
0.938381
1.315078
0.585901
1.161579
0.818653
0.913057
0.747270
1.073534
0.185966
0.352228
0.337782
0.696836
-0.103132
-0.461358
0.064931
-0.979329
-0.225128
-0.803378
-0.541732
-0.600979
0.001291
-0.986778
0.293941
-0.122343
-0.878462
-0.798973
-1.103515
-0.907821
-1.083806
-1.111590
-0.695151
-0.537485
-0.874480
-0.527499
-0.286921
0.747512
-0.102506
0.765193
0.349075
0.818670
0.382602
1.039363
0.586258
1.111308
0.123551
0.905098
-0.224649
0.352720
0.631123
0.065483
0.219982
0.543026
-0.460978
-0.568489
0.002307
-0.270771
-0.855092
1.117191
0.977524
1.258250
1.118120
1.285580
1.274255
0.946181
0.778721
1.090830
0.767549
0.550111
-0.570056
0.353404
-0.600830
-0.117251
-0.633679
-0.142852
-0.936076
-0.412494
-1.016377
0.095056
-0.780863
0.367751
-0.187701
-0.384058
0.078631
-0.011851
-0.353400
0.600883
0.696295
0.214046
0.455756
0.953934
-0.000624
-0.759154
-0.353433
-0.411189
-0.196056
-0.651398
0.411890
0.214538
0.239873
-0.209067
0.667019
0.585901
0.397039
1.209682
0.519094
0.942372
0.896759
0.581906
0.140232
1.009758
0.023268
0.093839
-1.011993
-0.315959
-0.666055
-0.718682
-0.908801
-0.568347
-1.144287
-0.960471
-1.014346
-0.622780
-1.078722
0.237113
1.005741
0.539270
0.672628
0.420176
0.892013
-0.234500
0.025703
-0.075715
0.464921
-0.480846
-0.412129
-0.156515
-1.085381
-0.311630
-0.829171
-0.732842
-0.447957
0.068094
-0.852038
0.214023
0.070647
1.185220
0.537950
0.768906
0.926018
1.017494
0.717853
1.296111
1.185739
1.105317
0.861111
1.279076
-0.000624
-0.800378
0.286708
-0.435127
0.149438
-0.299193
0.443612
-0.133144
0.621614
-0.615794
0.331929
-0.301669
-0.245394
0.599258
-0.304218
0.155473
0.192402
-0.247630
-0.706992
0.261932
-0.730426
-0.675993
-1.090023
-1.004682
-0.651531
-1.143251
-0.958401
-1.002919
-0.840692
-1.037026
-0.626751
-1.064021
-0.755275
0.237113
1.027188
-0.145579
0.684235
0.046489
0.505744
-0.240118
0.391640
-0.486748
0.873952
-0.088958
0.523571
0.497452
-0.427097
0.550916
0.052212
0.038851
0.416518
0.915302
-0.104526
0.961255
0.816529
1.215550
1.178401
0.820311
1.295597
1.072125
1.088892
0.951811
1.213761
0.806045
1.273397
0.905189
-0.000624
-0.720428
0.452868
-0.391872
0.239363
-0.155385
0.404221
-0.226445
0.672287
-0.673305
0.190372
-0.537520
-0.417791
0.358996
-0.522116
-0.103611
-0.046853
-0.471092
-0.889597
0.023459
-0.885346
-0.830673
-0.982857
-1.105542
-0.555008
-1.135145
-0.832287
-1.011741
-0.622543
-0.937615
-0.420979
-1.076114
-0.563593
0.237113
0.937423
-0.318364
0.635655
-0.050414
0.350542
-0.189226
0.488542
-0.533743
0.925503
0.061087
0.755953
0.665595
-0.163348
0.765608
0.320716
0.285996
0.631210
1.076684
0.142619
1.116183
0.949313
1.088603
1.267690
0.747526
1.275216
0.977027
1.104380
0.770139
1.096478
0.622466
1.273122
0.698161
0.010395
-0.457307
-0.669427
-0.241867
-0.356665
-0.650520
0.286852
0.387670
-0.083628
0.147071
0.695232
1.141723
0.716428
1.260420
0.996755
1.300031
1.131872
1.112875
0.809599
1.255749
0.608678
0.732554
-0.635881
0.354221
-0.301594
-0.155085
-0.510804
0.004850
-0.965815
-0.603126
-0.862294
-0.119026
-0.923001
0.223047
0.631937
0.914601
0.462714
0.603190
0.879558
-0.046469
-0.191052
0.339919
0.032258
-0.512025
-0.931673
-0.576065
-1.129969
-0.836508
-1.121861
-1.016702
-0.876038
-0.574554
-1.045502
-0.427742
-0.473570
0.750363
-0.129965
0.528778
0.334976
0.690202
0.220638
1.054765
0.721674
0.999497
0.260794
1.063201
0.010395
-0.646930
-0.472868
-0.344490
-0.254763
-0.655532
0.387344
0.289167
0.139485
-0.074809
0.691814
0.881574
0.534419
1.307822
0.756408
1.184893
1.053034
0.872527
0.444043
1.176911
0.262693
0.386570
-0.918596
-0.061089
-0.510987
-0.556838
-0.784389
-0.354701
-1.112336
-0.850731
-0.999731
-0.458077
-1.037525
0.223047
0.839080
0.730647
0.574797
0.502061
0.891244
-0.159791
-0.089923
0.114676
0.259713
-0.527009
-0.648475
-0.389203
-1.136569
-0.573929
-0.983097
-0.913201
-0.617905
-0.215128
-0.946046
-0.090835
-0.134550
1.009149
0.251165
0.714464
0.681016
0.932812
0.550956
1.231648
0.976388
1.098002
0.586521
1.212181
-1.156077
-1.217294
-1.020406
-1.287999
-1.181840
-1.292360
-0.837556
-0.918257
-0.819933
-1.024785
-0.538186
0.394091
-0.540642
0.702773
-0.080718
0.592213
0.093607
0.824975
0.152257
1.037540
-0.385264
0.595652
-0.530871
-0.105661
0.484405
-0.347493
-0.025432
0.218668
-0.602207
-0.952881
-0.062332
-0.774556
-1.041742
1.221474
1.264104
1.137360
1.334172
1.276592
1.374313
0.923215
1.019011
0.936326
1.111872
0.653131
-0.257636
0.671191
-0.578146
0.221188
-0.457219
0.051297
-0.694736
-0.010607
-0.932641
0.519472
-0.454132
0.615877
0.238036
-0.391194
0.458086
0.121597
-0.092745
0.706342
1.016395
0.179699
0.867261
1.123632
-1.156077
-1.111163
-0.454008
-1.230561
-0.878425
-0.910960
-0.866756
-1.254226
-0.529426
-1.309593
-0.928213
-0.426369
-1.145099
0.056090
-0.861351
-0.200393
-0.632069
0.073525
-0.570353
0.356984
-1.022091
-0.041306
-0.390900
-0.604036
0.580391
-0.545029
0.102552
-0.020664
-0.167583
-0.820956
0.375112
-1.001850
-0.599330
1.221474
1.221291
0.562224
1.322015
0.965330
1.029713
0.969871
1.303347
0.633593
1.377842
1.025931
0.527045
1.207275
0.084603
0.934325
0.323909
0.745866
0.039527
0.653334
-0.222801
1.086212
0.142279
0.526075
0.717947
-0.445479
0.673260
0.043618
0.157310
0.307669
0.934637
-0.238036
1.101243
0.737496
-1.156077
-1.093645
-0.438915
-1.221081
-0.870256
-0.891573
-0.876598
-1.263198
-0.529200
-1.307764
-0.948410
-0.451681
-1.163431
0.022299
-0.884737
-0.232380
-0.662850
0.050139
-0.579913
0.327141
-1.028891
-0.049481
-0.365805
-0.601601
0.598136
-0.529256
0.125737
-0.008082
-0.135355
-0.796189
0.404960
-0.989906
-0.569482
1.221474
1.205399
0.544326
1.313414
0.955644
1.010204
0.979474
1.310759
0.635930
1.379000
1.044084
0.548391
1.221062
0.117345
0.954046
0.352349
0.772730
0.059248
0.667765
-0.194134
1.097164
0.153231
0.500356
0.718339
-0.463665
0.659553
0.019857
0.147036
0.275993
0.913872
-0.267846
1.090969
0.708812
-1.156077
-0.628361
-0.330308
-0.972017
-0.804426
-0.579530
-1.146009
-1.294955
-0.745809
-1.084709
-1.283680
-0.562455
-1.230147
-0.554685
-0.978060
-0.604814
-1.039811
-0.057406
-0.423118
-0.060401
-0.846231
0.138669
0.284441
-0.210347
1.045022
0.040100
0.719500
0.481900
0.496074
-0.188751
0.959159
-0.492132
0.004585
1.221474
0.753101
0.457965
1.068632
0.903614
0.671942
1.217446
1.374440
0.863609
1.195843
1.328131
0.688951
1.318160
0.636667
1.078919
0.714441
1.117632
0.194096
0.558574
0.173699
0.959554
0.007420
-0.156428
0.349106
-0.948762
0.101424
-0.605115
-0.346212
-0.390466
0.322917
-0.887594
0.633317
0.108566
-1.156077
-1.250457
-0.925897
-1.305947
-1.133043
-1.260638
-0.811080
-0.970413
-0.746257
-1.105609
-0.565582
0.266819
-0.637013
0.655324
-0.202153
0.492774
0.010572
0.712044
0.012643
0.962300
-0.518047
0.467381
-0.582363
-0.241399
0.443738
-0.458690
-0.077879
0.111834
-0.600617
-0.997073
-0.052558
-0.884245
-1.031967
1.221474
1.295674
1.050926
1.360458
1.229814
1.352877
0.897799
1.066705
0.857958
1.182335
0.686526
-0.126091
0.759318
-0.524500
0.340217
-0.358466
0.135572
-0.573204
0.126634
-0.849544
0.643637
-0.328301
0.671563
0.360815
-0.342603
0.554220
0.178032
0.001800
0.718106
1.062855
0.180549
0.956374
1.124482
0.003626
-0.919907
0.339904
-0.495888
0.185917
-0.334865
0.502587
-0.156691
0.730312
-0.691433
0.362166
-0.356041
-0.274594
0.675952
-0.343861
0.172736
0.229414
-0.300183
-0.829571
0.274047
-0.837777
-0.792700
-1.265097
-1.159314
-0.839174
-1.312082
-1.140197
-1.164904
-0.983978
-1.183903
-0.802340
-1.206704
-0.850231
0.100320
0.984084
-0.198626
0.586875
-0.056701
0.450077
-0.401509
0.261873
-0.604282
0.783203
-0.251817
0.489083
0.403014
-0.550519
0.482799
-0.033249
-0.085163
0.442144
0.939994
-0.134481
0.949857
0.923596
1.312718
1.259811
0.925034
1.387833
1.206653
1.261421
1.076261
1.237389
0.910983
1.267700
0.953477
0.003626
-0.953967
-0.044445
-0.521139
-0.022091
-0.590613
0.534312
0.046103
0.542253
-0.492968
0.604435
0.180510
0.101325
1.081038
0.152528
0.682745
0.682638
0.194539
-0.348494
0.725824
-0.418251
-0.371443
-1.311263
-0.823376
-0.877142
-1.155664
-1.191858
-0.986695
-1.267234
-1.231040
-1.092635
-1.031548
-1.139479
0.100320
1.019645
0.180018
0.606120
0.146750
0.687326
-0.420754
0.058989
-0.406741
0.603694
-0.505183
-0.041078
0.028133
-0.989362
-0.007006
-0.557670
-0.554966
-0.053495
0.481768
-0.603465
0.553911
0.513633
1.387473
0.934083
0.983655
1.256417
1.283245
1.107207
1.314753
1.285659
1.161487
1.125120
1.201201
-0.000850
-0.947073
0.135742
-0.517004
0.072543
-0.472232
0.515433
-0.060304
0.627585
-0.614893
0.486515
-0.128212
-0.110576
0.861254
-0.132793
0.396719
0.429604
-0.079978
-0.633624
0.488687
-0.666785
-0.610497
-1.308740
-1.041163
-0.847427
-1.274896
-1.182242
-1.101143
-1.143339
-1.220837
-0.957782
-1.151256
-1.006370
0.139588
1.050625
-0.003393
0.644139
0.073709
0.604620
-0.383600
0.201563
-0.494564
0.751309
-0.355331
0.233839
0.251129
-0.788009
0.262463
-0.303840
-0.316340
0.186972
0.737966
-0.378355
0.797248
0.709869
1.363861
1.129745
0.953246
1.349529
1.245936
1.178187
1.194670
1.306467
1.037567
1.258577
1.097225
-0.000850
-0.069716
0.958619
-0.038651
0.517880
0.513208
0.050715
-0.517866
0.605870
-0.595098
-0.497376
-1.315383
-0.951771
-0.835821
-1.226975
-1.173141
-1.037706
-1.190277
-1.257370
-0.983004
-1.131436
-1.083444
-0.061223
-1.001095
0.042489
-0.579367
-0.010139
-0.564829
0.472462
-0.078269
0.563902
-0.618383
0.479631
0.139588
0.201154
-0.853179
0.184409
-0.386193
-0.376447
0.090219
0.644118
-0.477023
0.722693
0.638421
1.382407
1.063289
0.934218
1.323601
1.253748
1.153261
1.253416
1.302004
1.068056
1.215276
1.157840
0.160690
1.063070
0.094560
0.662294
0.134117
0.664067
-0.365379
0.187276
-0.432097
0.724856
-0.374284
-0.000903
-0.849962
-0.413057
-0.460783
-0.224754
-0.736535
0.467439
0.236587
0.261477
-0.238235
0.743326
0.688951
0.438064
1.320101
0.608931
1.084883
1.011437
0.664084
0.188132
1.078936
0.054778
0.113615
-1.171663
-0.341329
-0.756814
-0.818825
-1.047941
-0.645977
-1.317476
-1.109742
-1.189178
-0.704815
-1.219564
0.133253
0.959878
0.548671
0.591598
0.369055
0.870961
-0.345378
-0.122835
-0.121662
0.346211
-0.653360
-0.562455
-0.350186
-1.247383
-0.495219
-0.985875
-0.930571
-0.534155
-0.047346
-0.970565
0.064192
0.030946
1.237984
0.476553
0.865948
0.927900
1.132624
0.766618
1.376976
1.182024
1.238389
0.799252
1.316346
-0.000903
-0.584857
0.761116
-0.317731
0.410704
0.101763
0.327270
-0.401288
0.776487
-0.771435
-0.077914
-1.002310
-0.740575
-0.059578
-0.953590
-0.574690
-0.473008
-0.896307
-1.272087
-0.414170
-1.195894
-1.149601
-0.804064
-1.309883
-0.521773
-1.148262
-0.718437
-1.069053
-0.329719
-0.761126
-0.191873
-1.102488
-0.228747
0.133253
0.719137
-0.640758
0.461310
-0.283819
0.039776
-0.215091
0.530038
-0.686106
0.903707
0.182120
1.093213
0.846130
0.200468
1.033406
0.700135
0.577417
0.996944
1.320613
0.548118
1.283420
1.216529
0.918053
1.376819
0.605624
1.231738
0.820594
1.129360
0.464603
0.875747
0.310977
1.210101
0.369815
-0.001723
-0.627085
-0.708775
-0.340663
-0.384519
-0.775857
0.343274
0.393587
-0.035939
0.059206
0.781360
1.048403
0.729632
1.388000
0.957046
1.298634
1.204555
0.986675
0.638561
1.236321
0.491610
0.523905
-0.856637
0.131505
-0.559296
-0.394885
-0.769462
-0.252805
-1.181323
-0.808330
-1.097322
-0.288483
-1.127508
0.130486
0.751955
0.786975
0.477573
0.496526
0.888502
-0.236468
-0.255420
0.130891
0.086322
-0.675420
-0.961108
-0.602441
-1.316706
-0.851364
-1.251631
-1.129780
-0.923038
-0.522892
-1.180544
-0.356271
-0.417507
0.985776
0.006098
0.658759
0.536798
0.890016
0.383855
1.284678
0.931461
1.181697
0.428069
1.225910
-0.000795
-0.601848
0.747963
-0.326366
0.404147
0.084359
0.334821
-0.395231
0.778336
-0.773890
-0.061216
-0.983512
-0.727494
-0.032438
-0.938735
-0.549828
-0.452344
-0.878558
-1.264134
-0.388147
-1.190333
-1.141356
-0.825998
-1.313102
-0.536571
-1.162162
-0.739485
-1.081000
-0.358369
-0.782236
-0.217415
-1.113411
-0.254584
0.135532
0.733542
-0.625535
0.470339
-0.275746
0.057898
-0.219909
0.526176
-0.685266
0.906588
0.170228
1.075202
0.836715
0.170858
1.019872
0.674363
0.555816
0.981242
1.313130
0.524670
1.279005
1.211151
0.937637
1.378586
0.621466
1.242637
0.836175
1.137626
0.489890
0.896352
0.331962
1.219438
0.396159
-0.001396
-0.753959
-0.202083
-0.409097
-0.111959
-0.553134
0.408105
0.120024
0.316429
-0.306766
0.563323
0.337555
0.223177
0.991842
0.296720
0.719464
0.694295
0.327000
-0.095745
0.726598
-0.175374
-0.143070
-1.052855
-0.514468
-0.716987
-0.854183
-0.959640
-0.715711
-1.084559
-0.979573
-0.962759
-0.741238
-0.984005
0.042223
0.793196
0.266663
0.445751
0.165729
0.604944
-0.365180
-0.071242
-0.264725
0.363266
-0.514332
-0.262376
-0.164001
-0.947572
-0.230754
-0.660029
-0.647324
-0.254055
0.175220
-0.664673
0.243723
0.218865
1.091305
0.586141
0.755476
0.907827
0.996584
0.771504
1.113221
1.019885
0.998941
0.796361
1.023627
-0.001396
-0.684357
0.377476
-0.372374
0.200790
-0.180723
0.377349
-0.195329
0.612527
-0.612080
0.195798
-0.491835
-0.359520
0.361631
-0.468483
-0.070466
-0.008155
-0.439256
-0.838091
0.024149
-0.818504
-0.795008
-0.959864
-1.045954
-0.650831
-1.087294
-0.873203
-0.981622
-0.680453
-0.890409
-0.549411
-1.004360
-0.570209
0.042223
0.737386
-0.319804
0.420482
-0.151665
0.241091
-0.329377
0.244065
-0.571390
0.651324
-0.140880
0.564275
0.420530
-0.287066
0.532973
0.150025
0.077055
0.509672
0.892620
0.052198
0.869260
0.844402
1.003258
1.085072
0.698652
1.115107
0.913591
1.014302
0.738673
0.942030
0.602214
1.036099
0.634518
0.011654
-0.534869
0.576073
-0.290345
0.314055
0.023789
0.312518
-0.292521
0.654974
-0.635943
0.007876
-0.779059
-0.552163
-0.002841
-0.727743
-0.425237
-0.320432
-0.707128
-1.014277
-0.308432
-0.962231
-0.936822
-0.744811
-1.092146
-0.500256
-0.996627
-0.674125
-0.922232
-0.377921
-0.697964
-0.264043
-0.947093
-0.283696
0.065290
0.593963
-0.526673
0.356785
-0.249699
0.038850
-0.236145
0.370339
-0.593691
0.700309
0.067768
0.816778
0.619007
0.047521
0.773437
0.467755
0.371843
0.753552
1.044917
0.357707
1.004383
0.973999
0.788513
1.120636
0.565804
1.031780
0.732951
0.972126
0.425203
0.740716
0.325027
0.989925
0.328466
0.011654
-0.754586
-0.179534
-0.402072
-0.098040
-0.546363
0.423606
0.123024
0.337733
-0.311146
0.569690
0.293342
0.215665
0.970251
0.275473
0.683852
0.684689
0.276871
-0.141826
0.693133
-0.196147
-0.186806
-1.057746
-0.547416
-0.721990
-0.868707
-0.964601
-0.734401
-1.079975
-0.988806
-0.959317
-0.756322
-0.982548
0.065290
0.814971
0.238952
0.476394
0.164655
0.608483
-0.355754
-0.044014
-0.279256
0.385874
-0.501865
-0.246434
-0.146618
-0.931752
-0.215640
-0.638244
-0.624504
-0.233697
0.184867
-0.648696
0.249897
0.235401
1.087253
0.589096
0.771067
0.903826
1.001140
0.780442
1.108938
1.029477
1.005350
0.803089
1.025698
-0.932278
-0.834169
-0.272199
-0.958509
-0.652737
-0.647063
-0.756985
-1.057265
-0.425521
-1.071681
-0.859827
-0.485480
-1.016069
-0.161004
-0.818351
-0.349875
-0.680988
-0.073852
-0.547175
0.108550
-0.891477
-0.101931
-0.230880
-0.518878
0.510893
-0.407244
0.151086
-0.006654
-0.011926
-0.576678
0.412496
-0.782430
-0.358195
0.979066
0.874586
0.349018
1.003190
0.718754
0.706449
0.805889
1.090324
0.495968
1.102841
0.894858
0.548953
1.048536
0.213757
0.864554
0.406897
0.728433
0.149778
0.612993
-0.042258
0.942378
0.179851
0.276539
0.583711
-0.464825
0.465564
-0.101899
0.068639
0.056753
0.612877
-0.367559
0.831166
0.411987
-0.932278
-0.492415
-0.256935
-0.773337
-0.644476
-0.436235
-0.941537
-1.063684
-0.622975
-0.887099
-1.062930
-0.506148
-1.029050
-0.500634
-0.830883
-0.549378
-0.890979
-0.100649
-0.383029
-0.099376
-0.710186
0.065108
0.247520
-0.198715
0.842461
0.024785
0.589893
0.369930
0.432572
-0.132536
0.804959
-0.400760
0.038399
0.979066
0.555467
0.328509
0.830483
0.707655
0.510363
0.978595
1.101424
0.668370
0.930439
1.089255
0.570539
1.063800
0.565154
0.884498
0.614633
0.940477
0.169721
0.439586
0.177950
0.753737
-0.008790
-0.193518
0.241710
-0.802233
0.021408
-0.540795
-0.326578
-0.375672
0.195885
-0.760632
0.451733
0.031658
-0.932278
-1.045115
-0.760757
-1.072984
-0.920168
-1.046450
-0.636762
-0.797756
-0.589809
-0.916286
-0.451973
0.171084
-0.540160
0.537894
-0.200329
0.383109
-0.001308
0.525574
-0.048785
0.761218
-0.463708
0.318796
-0.524848
-0.255628
0.321181
-0.422391
-0.110224
0.037847
-0.546296
-0.854625
-0.095516
-0.754216
-0.880197
0.979066
1.078053
0.807800
1.105390
0.967045
1.080354
0.703689
0.842034
0.651817
0.950524
0.518455
-0.131973
0.581255
-0.475031
0.243018
-0.329976
0.058079
-0.483142
0.097149
-0.717215
0.511301
-0.259390
0.590697
0.311480
-0.242681
0.480677
0.188345
0.031637
0.610789
0.903121
0.170441
0.798889
0.932968
-0.932278
-0.278416
-0.452943
-0.656101
-0.750554
-0.422251
-1.054007
-0.964462
-0.850113
-0.656994
-1.074848
-0.246434
-0.845679
-0.524417
-0.591047
-0.418561
-0.791911
0.136504
-0.030040
-0.016098
-0.374731
0.395960
0.540160
0.196774
1.042601
0.393631
0.856431
0.715554
0.611300
0.141655
0.942059
-0.055137
0.179532
0.979066
0.354805
0.499733
0.721886
0.800205
0.493245
1.087193
1.008874
0.885396
0.715853
1.105564
0.293342
0.885089
0.589375
0.628401
0.477723
0.841296
-0.086375
0.074128
0.078769
0.427456
-0.351608
-0.477296
-0.144714
-1.010049
-0.336630
-0.810780
-0.667798
-0.545299
-0.066292
-0.891661
0.121296
-0.101313
-0.838284
-0.415775
-1.058161
-0.680367
-1.029374
-0.852720
-0.860889
-0.510366
-1.048142
-0.301187
-0.502833
0.700068
-0.100639
0.320392
0.324409
0.552269
0.126874
0.969149
0.741288
0.814686
0.328521
1.016333
0.256319
0.669654
0.792727
0.496071
0.564454
0.831354
-0.014410
-0.087886
0.296775
0.143542
-0.405360
0.887544
0.481723
1.090685
0.741042
1.067904
0.904944
0.902105
0.572063
1.076268
0.375979
0.552832
-0.641076
0.169491
-0.278697
-0.257755
-0.497777
-0.065755
-0.925043
-0.677475
-0.776984
-0.250842
-0.971458
-0.206284
-0.603962
-0.748687
-0.438502
-0.522503
-0.792883
0.057339
0.149067
-0.248621
-0.070575
0.458391
-0.838284
-1.076056
-0.474430
-1.038060
-0.712463
-0.895173
-0.501146
-0.829462
-0.325493
-1.025323
-0.458856
-0.131973
-0.691438
0.396564
-0.446989
0.142747
-0.172004
0.212594
-0.379930
0.524353
-0.736307
-0.026126
-0.658301
-0.570047
0.162099
-0.671937
-0.268542
-0.244564
-0.543135
-0.945762
-0.105760
-0.957605
-0.828921
0.887544
1.107722
0.524796
1.071904
0.757102
0.935099
0.568063
0.885039
0.386524
1.062829
0.525328
0.171084
0.747796
-0.345281
0.496707
-0.094862
0.232392
-0.164170
0.428026
-0.481572
0.772906
0.085094
0.724161
0.627555
-0.083603
0.731543
0.346667
0.314050
0.606532
0.991408
0.180688
1.001862
0.868500
-0.838284
-0.920796
-0.953476
-0.953590
-0.971721
-1.089465
-0.586979
-0.568241
-0.696387
-0.656844
-0.259681
0.548834
-0.207578
0.741545
0.184686
0.698348
0.308286
0.829426
0.320709
0.996098
-0.094604
0.600955
-0.447912
0.056152
0.301393
-0.214479
-0.079295
0.203805
-0.613154
-0.746242
-0.221504
-0.500577
-0.932930
0.887544
0.962131
0.986443
1.001037
1.006943
1.117166
0.638930
0.633125
0.743533
0.718484
0.332187
-0.488284
0.282319
-0.679812
-0.111468
-0.632169
-0.229493
-0.790074
-0.270063
-0.952349
0.156804
-0.559363
0.499869
-0.010726
-0.242202
0.253976
0.139449
-0.154771
0.671848
0.784189
0.288296
0.549294
0.976108
0.031245
-0.511398
-0.559364
-0.263468
-0.285816
-0.622057
0.321201
0.343549
0.001670
0.049352
0.673079
0.833687
0.603551
1.121621
0.771668
1.052045
0.996028
0.780989
0.488944
0.995867
0.378563
0.392111
-0.729377
0.069763
-0.499855
-0.358119
-0.668313
-0.248313
-0.988558
-0.672146
-0.927191
-0.258135
-0.928269
0.048185
0.576316
0.609393
0.337977
0.355320
0.683973
-0.248943
-0.266286
0.063242
0.020842
-0.605288
-0.794174
-0.540217
-1.091552
-0.731905
-1.022543
-0.955143
-0.734784
-0.444899
-0.957690
-0.330395
-0.341457
0.766849
-0.027892
0.562257
0.397673
0.717714
0.300778
1.020440
0.726915
0.972187
0.314235
0.977367
0.027710
-0.792007
-0.406976
-0.417640
-0.205257
-0.696506
0.468842
0.259539
0.249197
-0.200713
0.745244
0.613684
0.452291
1.278055
0.576185
1.023802
0.986110
0.569136
0.129827
0.990732
0.041462
0.032818
-1.125752
-0.370925
-0.791175
-0.810587
-1.037433
-0.671570
-1.269531
-1.042684
-1.161173
-0.671419
-1.166775
0.006861
0.848118
0.437942
0.462062
0.240076
0.742508
-0.424468
-0.223133
-0.209183
0.241437
-0.698786
-0.583656
-0.418312
-1.220035
-0.542261
-0.984801
-0.946389
-0.536194
-0.092184
-0.950224
-0.002881
0.003592
1.193760
0.413322
0.840113
0.868044
1.100724
0.721855
1.337737
1.105056
1.222925
0.726476
1.227547
0.027710
-0.602472
0.702061
-0.311059
0.394949
0.057497
0.365256
-0.343372
0.778238
-0.730547
-0.008150
-0.934671
-0.654642
-0.042381
-0.863619
-0.531387
-0.402427
-0.860898
-1.195659
-0.406031
-1.120281
-1.114679
-0.863328
-1.274620
-0.608856
-1.159531
-0.799222
-1.087425
-0.422665
-0.794577
-0.308147
-1.093027
-0.301675
0.006861
0.639624
-0.656061
0.349225
-0.351345
-0.021652
-0.325797
0.386694
-0.730300
0.778546
0.044594
0.996815
0.708858
0.082343
0.923104
0.576942
0.449231
0.918771
1.264933
0.450770
1.183183
1.178562
0.898904
1.340476
0.647629
1.211944
0.831407
1.138590
0.453955
0.832645
0.343489
1.143211
0.329871
-0.819118
-0.751302
-1.248401
-0.855065
-1.123755
-1.160814
-0.656566
-0.380674
-0.956796
-0.371046
-0.160695
0.996446
0.115725
0.897069
0.594505
1.024763
0.574925
1.248613
0.818643
1.274650
0.368263
1.052399
-0.230826
0.530951
0.428794
0.162427
0.107140
0.554109
-0.579595
-0.532919
-0.238764
-0.128219
-0.919590
0.857149
0.798570
1.310690
0.896069
1.173226
1.217782
0.687736
0.410579
0.995531
0.404187
0.196134
-0.937480
-0.077395
-0.839511
-0.549246
-0.961739
-0.529418
-1.182990
-0.770497
-1.205498
-0.325399
-1.001480
0.272200
-0.486213
-0.394057
-0.127908
-0.071557
-0.516747
0.632804
0.579497
0.280603
0.165383
0.978977
-0.819118
-1.000568
-1.129493
-0.991218
-1.059402
-1.231488
-0.519652
-0.448120
-0.745118
-0.585449
-0.086587
0.817466
-0.008356
1.025020
0.437545
0.995901
0.577082
1.081131
0.529239
1.274515
0.086318
0.768158
-0.581179
0.160440
0.178657
-0.232784
-0.217844
0.193330
-0.840531
-0.856035
-0.457991
-0.489482
-1.134781
0.857149
1.054707
1.182505
1.034689
1.103853
1.291655
0.549116
0.479952
0.776227
0.626075
0.120674
-0.769319
0.041512
-0.961993
-0.393886
-0.936979
-0.531440
-1.027630
-0.484537
-1.207520
-0.048772
-0.724853
0.634432
-0.125988
-0.141074
0.274188
0.258981
-0.157760
0.898089
0.914155
0.500872
0.535151
1.200731
-0.819118
-1.141852
-0.158472
-1.066091
-0.529068
-0.762642
-0.441109
-0.982236
-0.089153
-1.229041
-0.568125
-0.556990
-0.983464
0.190393
-0.833687
-0.203086
-0.461991
-0.195495
-0.824753
0.220797
-1.122753
-0.445249
-0.786797
-0.957756
0.029154
-0.944145
-0.410033
-0.536129
-0.509666
-1.043777
-0.072624
-1.212209
-0.748705
0.857149
1.195772
0.195761
1.111032
0.558634
0.793520
0.472772
1.025170
0.123120
1.289160
0.608261
0.609559
1.037119
-0.154943
0.891176
0.244029
0.507183
0.236249
0.882290
-0.185329
1.188082
0.488223
0.834904
1.020699
0.004054
1.003717
0.453741
0.581994
0.554887
1.098465
0.110798
1.279680
0.792570
-0.819118
-0.376140
-1.246415
-0.652028
-1.122680
-0.948538
-0.861179
-0.381821
-1.163876
-0.157426
-0.380202
0.996815
0.113604
0.513339
0.592921
0.817290
0.354195
1.248954
1.024585
1.053254
0.576970
1.274398
0.299024
0.896371
0.803454
0.644834
0.596657
0.979144
-0.092309
-0.042987
0.192757
0.297989
-0.490055
0.857149
0.414579
1.310951
0.688254
1.173367
0.996235
0.895550
0.410437
1.217379
0.188285
0.413113
-0.934671
-0.075409
-0.463692
-0.546651
-0.760277
-0.311509
-1.180395
-0.963090
-0.992335
-0.531333
-1.207414
-0.260179
-0.844887
-0.769477
-0.598057
-0.557246
-0.932054
0.131237
0.077789
-0.157186
-0.255973
0.535734
-0.482605
-0.991769
0.182044
-0.797926
-0.162662
-0.467495
-0.093812
-0.729076
0.289443
-1.071747
-0.320596
-0.730314
-0.864551
0.155915
-0.868406
-0.310862
-0.419462
-0.476625
-1.035778
0.003199
-1.176850
-0.773135
-0.916274
-1.173813
-0.284637
-1.133146
-0.653102
-0.849302
-0.558270
-1.034625
-0.234275
-1.250300
-0.646047
0.528067
1.055120
-0.150375
0.849928
0.201154
0.512678
0.131743
0.777010
-0.254623
1.130994
0.360043
0.762851
0.908782
-0.115274
0.902199
0.345271
0.454478
0.507569
1.078596
0.034614
1.232039
0.811263
0.976822
1.230134
0.326315
1.194396
0.705253
0.898617
0.610535
1.099679
0.275752
1.319392
0.696527
-0.482605
-1.028082
-0.815887
-0.817578
-0.702739
-1.064616
-0.074160
-0.188999
-0.271535
-0.516556
0.284925
0.719246
0.144181
1.222309
0.467283
1.050762
0.788944
0.861710
0.278521
1.209719
-0.033178
0.389483
-0.970765
-0.188933
-0.320399
-0.627624
-0.698773
-0.294063
-1.154255
-1.082070
-0.864277
-0.716074
-1.264134
0.528067
1.078128
0.872986
0.866343
0.751358
1.126476
0.111638
0.228182
0.313581
0.559178
-0.247328
-0.663935
-0.105321
-1.161463
-0.419972
-0.989544
-0.737031
-0.804824
-0.237249
-1.141623
0.068121
-0.347171
1.009360
0.225557
0.349323
0.657561
0.735314
0.325155
1.207771
1.129740
0.907382
0.748914
1.328158
