0.000000000000000000e+00,-1.570796370506286621e+00,0.000000000000000000e+00,-1.570796370506286621e+00,0.000000000000000000e+00,0.000000000000000000e+00
-2.336018562316894531e+00,-1.889034509658813477e+00,-1.168547153472900391e+00,-1.469666957855224609e+00,2.879993915557861328e+00,-5.537798404693603516e-01
-2.292824268341064453e+00,-1.951037764549255371e+00,-1.119135379791259766e+00,-1.304474472999572754e+00,2.868798255920410156e+00,-3.955900669097900391e-01
-2.208630084991455078e+00,-1.970659852027893066e+00,-1.181915521621704102e+00,-9.705173969268798828e-01,2.830836057662963867e+00,-1.331050395965576172e-01
-2.216622591018676758e+00,-1.924461483955383301e+00,-1.261689424514770508e+00,-8.593455553054809570e-01,2.812146425247192383e+00,-5.136418342590332031e-02
-2.270548820495605469e+00,-1.945087432861328125e+00,-1.256902933120727539e+00,-8.157392144203186035e-01,2.984377622604370117e+00,-2.284510135650634766e-01
-2.229559183120727539e+00,-1.834121227264404297e+00,-1.406017780303955078e+00,-6.705169677734375000e-01,2.767403125762939453e+00,9.220933914184570312e-02
-2.240118026733398438e+00,-1.826918005943298340e+00,-1.286961793899536133e+00,-1.022403717041015625e+00,2.762455940246582031e+00,5.160903930664062500e-02
-2.246736764907836914e+00,-1.823047161102294922e+00,-1.112909793853759766e+00,-1.414449810981750488e+00,2.735604524612426758e+00,-2.516434192657470703e-01
-2.248972892761230469e+00,-1.793295502662658691e+00,-1.250541567802429199e+00,-1.302127361297607422e+00,2.692331552505493164e+00,-5.270171165466308594e-02
-2.301634788513183594e+00,-1.719706416130065918e+00,-1.445831179618835449e+00,-1.044358968734741211e+00,2.813812732696533203e+00,-1.292080879211425781e-01
-2.311203956604003906e+00,-1.727761030197143555e+00,-1.395626783370971680e+00,-1.353981375694274902e+00,2.830026865005493164e+00,-3.388841152191162109e-01
-2.228498697280883789e+00,-1.658272266387939453e+00,-1.356964707374572754e+00,-1.306837439537048340e+00,2.559858560562133789e+00,-6.681728363037109375e-02
-2.329696655273437500e+00,-1.642961502075195312e+00,-1.618860602378845215e+00,-1.086035847663879395e+00,2.828669548034667969e+00,-1.758043766021728516e-01
-2.327121257781982422e+00,-1.573210597038269043e+00,-1.626470327377319336e+00,-9.963626861572265625e-01,2.791683673858642578e+00,-4.172182083129882812e-02
-2.329051733016967773e+00,-1.523651123046875000e+00,-1.692305564880371094e+00,-8.948056697845458984e-01,2.771594762802124023e+00,4.938697814941406250e-02
-2.399012565612792969e+00,-1.524586677551269531e+00,-1.717628479003906250e+00,-1.129127144813537598e+00,2.889302253723144531e+00,-2.421591281890869141e-01
-2.415733337402343750e+00,-1.539467692375183105e+00,-1.486196756362915039e+00,-1.723519325256347656e+00,2.826873064041137695e+00,-6.872894763946533203e-01
-2.335824251174926758e+00,-1.378962039947509766e+00,-1.665113210678100586e+00,-1.311005353927612305e+00,2.556567192077636719e+00,-3.227612972259521484e-01
-2.371146202087402344e+00,-1.491556167602539062e+00,-1.393391847610473633e+00,-1.822216033935546875e+00,2.536073446273803711e+00,-7.636959552764892578e-01
-2.307437181472778320e+00,-1.377119541168212891e+00,-1.527680635452270508e+00,-1.545507550239562988e+00,2.504202127456665039e+00,-3.236153125762939453e-01
-2.312653541564941406e+00,-1.447604060173034668e+00,-1.416070103645324707e+00,-1.796599030494689941e+00,2.517079830169677734e+00,-4.733254909515380859e-01
-2.348380804061889648e+00,-1.481760740280151367e+00,-1.357138395309448242e+00,-2.023408412933349609e+00,2.632679939270019531e+00,-7.109634876251220703e-01
-2.343710184097290039e+00,-1.336774349212646484e+00,-1.442004203796386719e+00,-1.758504271507263184e+00,2.617941617965698242e+00,-4.371099472045898438e-01
-2.402790784835815430e+00,-1.371016740798950195e+00,-1.397387981414794922e+00,-2.012507438659667969e+00,2.658123493194580078e+00,-6.677207946777343750e-01
-2.318944454193115234e+00,-1.211986660957336426e+00,-1.566838026046752930e+00,-1.588824510574340820e+00,2.591015100479125977e+00,-2.398602962493896484e-01
-2.317486524581909180e+00,-1.405137777328491211e+00,-1.223797440528869629e+00,-2.141942977905273438e+00,2.542874574661254883e+00,-5.140860080718994141e-01
-2.265477657318115234e+00,-1.413187026977539062e+00,-1.273366332054138184e+00,-2.175440311431884766e+00,2.465827941894531250e+00,-6.561377048492431641e-01
-2.197360754013061523e+00,-1.264401078224182129e+00,-1.303254127502441406e+00,-1.971557497978210449e+00,2.377669095993041992e+00,-4.216825962066650391e-01
-2.126271724700927734e+00,-1.263103008270263672e+00,-1.161384463310241699e+00,-2.061835289001464844e+00,2.226378679275512695e+00,-3.120307922363281250e-01
-1.968847870826721191e+00,-1.318387389183044434e+00,-1.151621103286743164e+00,-2.082879066467285156e+00,2.136830091476440430e+00,-3.326447010040283203e-01
-2.073099613189697266e+00,-1.236545085906982422e+00,-1.337802410125732422e+00,-1.989843368530273438e+00,2.259846210479736328e+00,-6.182475090026855469e-01
-2.039619445800781250e+00,-1.323576450347900391e+00,-1.296781063079833984e+00,-2.083097934722900391e+00,2.318659067153930664e+00,-6.180391311645507812e-01
-1.985423684120178223e+00,-1.300732493400573730e+00,-1.262140035629272461e+00,-2.019482612609863281e+00,2.301278114318847656e+00,-6.372084617614746094e-01
-1.888242483139038086e+00,-1.419832229614257812e+00,-1.154097080230712891e+00,-2.094168186187744141e+00,2.258964776992797852e+00,-6.571094989776611328e-01
-1.999607682228088379e+00,-1.369898676872253418e+00,-1.195693135261535645e+00,-2.182283639907836914e+00,2.367027044296264648e+00,-7.947602272033691406e-01
-1.952978014945983887e+00,-1.329617619514465332e+00,-1.288552522659301758e+00,-2.137903213500976562e+00,2.376327753067016602e+00,-4.942390918731689453e-01
-1.827449440956115723e+00,-1.349732637405395508e+00,-1.175558328628540039e+00,-2.094616889953613281e+00,2.270103454589843750e+00,-3.995225429534912109e-01
-1.870774745941162109e+00,-1.170802474021911621e+00,-1.473292469978332520e+00,-1.820280790328979492e+00,2.354435920715332031e+00,-4.386570453643798828e-01
-1.821204781532287598e+00,-1.155466556549072266e+00,-1.420407295227050781e+00,-1.840395212173461914e+00,2.322141170501708984e+00,-3.248250484466552734e-01
