0.000000000000000000e+00,-1.570796370506286621e+00,0.000000000000000000e+00,-1.570796370506286621e+00,0.000000000000000000e+00,0.000000000000000000e+00
-1.949335098266601562e+00,-1.845894455909729004e+00,-5.926753878593444824e-01,-2.004426956176757812e+00,2.214267015457153320e+00,-5.936131477355957031e-01
-1.908906340599060059e+00,-2.039282560348510742e+00,-3.044479787349700928e-01,-2.070496082305908203e+00,2.202944755554199219e+00,-5.453026294708251953e-01
-1.867238044738769531e+00,-1.944101572036743164e+00,-5.676591396331787109e-01,-1.873808860778808594e+00,2.190130710601806641e+00,-4.963819980621337891e-01
-1.899793863296508789e+00,-2.167532205581665039e+00,-1.545351743698120117e-01,-2.268524646759033203e+00,2.281922578811645508e+00,-6.603090763092041016e-01
-1.973901152610778809e+00,-2.047034263610839844e+00,-4.578258991241455078e-01,-2.193137645721435547e+00,2.484211921691894531e+00,-7.485315799713134766e-01
-2.047523975372314453e+00,-1.915344238281250000e+00,-7.534755468368530273e-01,-2.082074165344238281e+00,2.609382152557373047e+00,-9.482738971710205078e-01
-1.990314602851867676e+00,-1.841879129409790039e+00,-7.453489899635314941e-01,-1.972070455551147461e+00,2.362010002136230469e+00,-7.692174911499023438e-01
-1.936883687973022461e+00,-1.753851890563964844e+00,-8.855202794075012207e-01,-1.823003768920898438e+00,2.381340980529785156e+00,-4.715104103088378906e-01
-1.966632008552551270e+00,-1.704255104064941406e+00,-9.092134237289428711e-01,-1.838789701461791992e+00,2.364923715591430664e+00,-2.843182086944580078e-01
-1.944264411926269531e+00,-1.595399856567382812e+00,-1.082338571548461914e+00,-1.526323437690734863e+00,2.425754785537719727e+00,4.406976699829101562e-02
-1.836633920669555664e+00,-1.596624851226806641e+00,-1.010968089103698730e+00,-1.662441015243530273e+00,2.217735290527343750e+00,-2.561497688293457031e-02
-1.748099684715270996e+00,-1.516022682189941406e+00,-1.096406698226928711e+00,-1.524413466453552246e+00,2.107538700103759766e+00,2.074532508850097656e-01
-1.770245671272277832e+00,-1.620740890502929688e+00,-8.945484161376953125e-01,-1.843347787857055664e+00,2.092637300491333008e+00,1.291623115539550781e-01
-1.794996380805969238e+00,-1.788252234458923340e+00,-7.046115398406982422e-01,-2.154924631118774414e+00,2.125685214996337891e+00,1.155805587768554688e-02
-1.768695354461669922e+00,-1.610441684722900391e+00,-9.328719973564147949e-01,-1.883262634277343750e+00,2.156274795532226562e+00,1.632914543151855469e-01
-1.898251295089721680e+00,-1.534214973449707031e+00,-1.141470670700073242e+00,-1.873128294944763184e+00,2.325628280639648438e+00,-1.406795978546142578e-01
-1.929296374320983887e+00,-1.516889691352844238e+00,-1.231609940528869629e+00,-1.870737433433532715e+00,2.419415473937988281e+00,-1.486747264862060547e-01
-1.844441413879394531e+00,-1.563577651977539062e+00,-1.028467416763305664e+00,-2.024119377136230469e+00,2.352483510971069336e+00,-2.580082416534423828e-01
-1.823966979980468750e+00,-1.739614725112915039e+00,-7.258121967315673828e-01,-2.383626937866210938e+00,2.249717712402343750e+00,-3.835980892181396484e-01
-1.863499283790588379e+00,-1.713198900222778320e+00,-8.495810627937316895e-01,-2.399466753005981445e+00,2.359829664230346680e+00,-5.744044780731201172e-01
-1.864309191703796387e+00,-1.517456889152526855e+00,-1.061320424079895020e+00,-2.125553131103515625e+00,2.439539194107055664e+00,-4.311358928680419922e-01
-1.868376851081848145e+00,-1.528259754180908203e+00,-1.129064083099365234e+00,-2.173753261566162109e+00,2.507809400558471680e+00,-5.966389179229736328e-01
-1.853319525718688965e+00,-1.445240259170532227e+00,-1.206425547599792480e+00,-2.085235834121704102e+00,2.423185110092163086e+00,-6.021292209625244141e-01
-1.829285025596618652e+00,-1.383550405502319336e+00,-1.276247978210449219e+00,-2.004138946533203125e+00,2.422420501708984375e+00,-5.052132606506347656e-01
-1.694924950599670410e+00,-1.260809302330017090e+00,-1.294459462165832520e+00,-1.905052542686462402e+00,2.191006183624267578e+00,-2.186839580535888672e-01
-1.577165961265563965e+00,-1.228395700454711914e+00,-1.380831003189086914e+00,-1.657046675682067871e+00,2.208069086074829102e+00,1.090478897094726562e-02
-1.587513804435729980e+00,-1.187265157699584961e+00,-1.450031280517578125e+00,-1.587684869766235352e+00,2.227780818939208984e+00,-1.779565811157226562e-01
-1.543598771095275879e+00,-1.093527793884277344e+00,-1.496288537979125977e+00,-1.603608131408691406e+00,2.151680231094360352e+00,-5.789279937744140625e-02
-1.283602952957153320e+00,-1.153834700584411621e+00,-1.339592695236206055e+00,-1.761044383049011230e+00,1.883634686470031738e+00,1.339697837829589844e-01
-1.160657286643981934e+00,-1.208882570266723633e+00,-1.218825340270996094e+00,-1.866673588752746582e+00,1.795306444168090820e+00,2.934460639953613281e-01
-1.061218976974487305e+00,-1.073144435882568359e+00,-1.341034889221191406e+00,-1.787922620773315430e+00,1.737191557884216309e+00,4.412083625793457031e-01
-1.043361425399780273e+00,-1.047928094863891602e+00,-1.409095406532287598e+00,-1.675777435302734375e+00,1.757164120674133301e+00,4.908633232116699219e-01
-9.682888984680175781e-01,-1.116845846176147461e+00,-1.339185833930969238e+00,-1.711007356643676758e+00,1.710775375366210938e+00,6.003794670104980469e-01
-1.023899078369140625e+00,-1.056362867355346680e+00,-1.394329071044921875e+00,-1.633146643638610840e+00,1.827178239822387695e+00,6.976895332336425781e-01
-1.036218881607055664e+00,-9.835231900215148926e-01,-1.515081048011779785e+00,-1.532747268676757812e+00,1.867698907852172852e+00,5.981240272521972656e-01
-9.362504482269287109e-01,-9.676201939582824707e-01,-1.585883855819702148e+00,-1.419770240783691406e+00,1.801615357398986816e+00,8.766827583312988281e-01
-1.008242368698120117e+00,-9.932243227958679199e-01,-1.614761590957641602e+00,-1.286117911338806152e+00,1.904845952987670898e+00,9.903450012207031250e-01
-6.611487865447998047e-01,-1.074790239334106445e+00,-1.499128699302673340e+00,-1.416211128234863281e+00,1.483901262283325195e+00,1.359735488891601562e+00
-6.327435970306396484e-01,-1.127078890800476074e+00,-1.369657158851623535e+00,-1.499829888343811035e+00,1.471419930458068848e+00,1.510000228881835938e+00
