0.000000000000000000e+00,-1.570796370506286621e+00,0.000000000000000000e+00,-1.570796370506286621e+00,0.000000000000000000e+00,0.000000000000000000e+00
-2.023178577423095703e+00,-1.708138942718505859e+00,-7.002684473991394043e-01,-2.358795166015625000e+00,2.365897655487060547e+00,-1.163614153861999512e+00
-1.972252845764160156e+00,-1.911385059356689453e+00,-4.425039589405059814e-01,-2.361318111419677734e+00,2.367365837097167969e+00,-1.090852975845336914e+00
-1.923503160476684570e+00,-1.811396837234497070e+00,-6.822019815444946289e-01,-2.171807765960693359e+00,2.366288661956787109e+00,-1.021175146102905273e+00
-1.971774816513061523e+00,-1.783336997032165527e+00,-7.821164727210998535e-01,-2.214858531951904297e+00,2.471939325332641602e+00,-1.033067941665649414e+00
-2.038392543792724609e+00,-1.933181524276733398e+00,-6.026211380958557129e-01,-2.563846588134765625e+00,2.504009008407592773e+00,-1.469481348991394043e+00
-2.017523288726806641e+00,-1.843697309494018555e+00,-8.399400711059570312e-01,-2.451651334762573242e+00,2.553125143051147461e+00,-1.591093063354492188e+00
-1.950873136520385742e+00,-1.980679273605346680e+00,-5.438119769096374512e-01,-2.625403642654418945e+00,2.363807678222656250e+00,-1.478076338768005371e+00
-1.935621619224548340e+00,-1.881412267684936523e+00,-6.601081490516662598e-01,-2.527312755584716797e+00,2.322402238845825195e+00,-1.262022495269775391e+00
-1.941409111022949219e+00,-1.806170463562011719e+00,-7.470906972885131836e-01,-2.480340003967285156e+00,2.342173337936401367e+00,-1.201827883720397949e+00
-1.857153654098510742e+00,-1.788211107254028320e+00,-7.203190326690673828e-01,-2.425876617431640625e+00,2.242763519287109375e+00,-1.196749210357666016e+00
-1.785079240798950195e+00,-1.787381052970886230e+00,-7.321428060531616211e-01,-2.439595937728881836e+00,2.191274404525756836e+00,-9.950237274169921875e-01
-1.831573009490966797e+00,-1.679052114486694336e+00,-8.627374768257141113e-01,-2.351992130279541016e+00,2.303515911102294922e+00,-1.054737329483032227e+00
-1.848254799842834473e+00,-1.541639208793640137e+00,-1.098266720771789551e+00,-2.183224678039550781e+00,2.404620885848999023e+00,-9.547221660614013672e-01
-1.760933399200439453e+00,-1.590275287628173828e+00,-9.891186952590942383e-01,-2.275926113128662109e+00,2.219131946563720703e+00,-8.201994895935058594e-01
-1.838101744651794434e+00,-1.455561161041259766e+00,-1.171987533569335938e+00,-2.136194944381713867e+00,2.326946496963500977e+00,-9.714629650115966797e-01
-1.865171670913696289e+00,-1.396795153617858887e+00,-1.284463763236999512e+00,-2.119890213012695312e+00,2.430244207382202148e+00,-8.177330493927001953e-01
-1.756977558135986328e+00,-1.365259289741516113e+00,-1.228954792022705078e+00,-2.047821998596191406e+00,2.318906545639038086e+00,-6.838936805725097656e-01
-1.795191407203674316e+00,-1.367364406585693359e+00,-1.264260292053222656e+00,-2.120926618576049805e+00,2.422741651535034180e+00,-6.229200363159179688e-01
-1.708049297332763672e+00,-1.421880245208740234e+00,-1.198765039443969727e+00,-2.122033119201660156e+00,2.452213048934936523e+00,-4.823436737060546875e-01
-1.620181322097778320e+00,-1.493602275848388672e+00,-1.078536987304687500e+00,-2.195140838623046875e+00,2.383262157440185547e+00,-3.350460529327392578e-01
-1.408319115638732910e+00,-1.341951131820678711e+00,-1.172457695007324219e+00,-1.835144519805908203e+00,2.193611145019531250e+00,2.490687370300292969e-01
-1.312946200370788574e+00,-1.275326967239379883e+00,-1.369499444961547852e+00,-1.471179008483886719e+00,2.174839973449707031e+00,4.392533302307128906e-01
-1.278641700744628906e+00,-1.297672033309936523e+00,-1.290932297706604004e+00,-1.594021320343017578e+00,2.132537841796875000e+00,3.966994285583496094e-01
-1.234488964080810547e+00,-1.233337759971618652e+00,-1.285267829895019531e+00,-1.664148569107055664e+00,2.065912246704101562e+00,5.611319541931152344e-01
-1.127067089080810547e+00,-1.190527200698852539e+00,-1.448897361755371094e+00,-1.341203689575195312e+00,1.985399246215820312e+00,7.143311500549316406e-01
-1.156309485435485840e+00,-1.217722773551940918e+00,-1.382403492927551270e+00,-1.532664775848388672e+00,2.032273292541503906e+00,7.771334648132324219e-01
-1.310019731521606445e+00,-1.342120289802551270e+00,-1.222189664840698242e+00,-1.750029921531677246e+00,2.254373311996459961e+00,7.390332221984863281e-01
-1.282232761383056641e+00,-1.242337465286254883e+00,-1.388916969299316406e+00,-1.406514763832092285e+00,2.234602451324462891e+00,1.074301242828369141e+00
-1.369809150695800781e+00,-1.215196847915649414e+00,-1.469529151916503906e+00,-1.520446300506591797e+00,2.350545644760131836e+00,1.125854969024658203e+00
-1.284512400627136230e+00,-1.191598534584045410e+00,-1.451341748237609863e+00,-1.545436263084411621e+00,2.228802204132080078e+00,1.428941249847412109e+00
-1.324217915534973145e+00,-1.109105467796325684e+00,-1.550067663192749023e+00,-1.337860226631164551e+00,2.277525186538696289e+00,1.665000438690185547e+00
-1.189599394798278809e+00,-1.082799911499023438e+00,-1.536060810089111328e+00,-1.511077165603637695e+00,2.161946058273315430e+00,1.701185703277587891e+00
-1.127530574798583984e+00,-1.015710353851318359e+00,-1.618567347526550293e+00,-1.258693575859069824e+00,2.091562747955322266e+00,1.878219127655029297e+00
-1.023267507553100586e+00,-9.614518880844116211e-01,-1.692665696144104004e+00,-1.240649819374084473e+00,2.013358354568481445e+00,1.974573612213134766e+00
-8.967986106872558594e-01,-9.761499166488647461e-01,-1.625665187835693359e+00,-1.175432920455932617e+00,1.887725234031677246e+00,1.957573413848876953e+00
-7.363762855529785156e-01,-9.699928760528564453e-01,-1.604842662811279297e+00,-1.229207038879394531e+00,1.687081694602966309e+00,2.271224021911621094e+00
-9.382662773132324219e-01,-1.009649753570556641e+00,-1.710677981376647949e+00,-1.040418148040771484e+00,1.914787530899047852e+00,2.240220546722412109e+00
-8.919835090637207031e-01,-1.018724203109741211e+00,-1.695862531661987305e+00,-8.938419818878173828e-01,1.786817908287048340e+00,2.418843269348144531e+00
-6.922290325164794922e-01,-9.286775588989257812e-01,-1.751119136810302734e+00,-9.510339498519897461e-01,1.592328548431396484e+00,2.617926597595214844e+00
