0.000000000000000000e+00,-1.570796370506286621e+00,0.000000000000000000e+00,-1.570796370506286621e+00,0.000000000000000000e+00,0.000000000000000000e+00
-2.124715805053710938e+00,-1.575143933296203613e+00,-1.251014947891235352e+00,-1.359694004058837891e+00,2.416549205780029297e+00,-4.916727542877197266e-01
-2.088250637054443359e+00,-1.640500903129577637e+00,-1.190404057502746582e+00,-1.320386290550231934e+00,2.397676944732666016e+00,-4.451107978820800781e-01
-2.014576196670532227e+00,-1.653670072555541992e+00,-1.264922261238098145e+00,-1.168955922126770020e+00,2.356471776962280273e+00,-3.568356037139892578e-01
-2.000234365463256836e+00,-1.710224986076354980e+00,-1.068247914314270020e+00,-1.456826329231262207e+00,2.376995801925659180e+00,-4.641044139862060547e-01
-1.967202901840209961e+00,-1.792420148849487305e+00,-8.046434521675109863e-01,-1.765644192695617676e+00,2.292574882507324219e+00,-5.237293243408203125e-01
-1.963569164276123047e+00,-1.729428172111511230e+00,-8.917821049690246582e-01,-1.706387162208557129e+00,2.276986837387084961e+00,-4.701225757598876953e-01
-2.020601987838745117e+00,-1.819628477096557617e+00,-6.869755387306213379e-01,-1.992199897766113281e+00,2.271977901458740234e+00,-3.718509674072265625e-01
-1.985344290733337402e+00,-1.779911041259765625e+00,-7.528477311134338379e-01,-1.912888407707214355e+00,2.297202587127685547e+00,-3.013560771942138672e-01
-1.969758629798889160e+00,-1.611434578895568848e+00,-1.015057921409606934e+00,-1.716472983360290527e+00,2.194554805755615234e+00,-4.325726032257080078e-01
-1.958963513374328613e+00,-1.554852604866027832e+00,-1.080974340438842773e+00,-1.674090504646301270e+00,2.175513744354248047e+00,-3.752441406250000000e-01
-1.964294791221618652e+00,-1.592299342155456543e+00,-9.993291497230529785e-01,-1.740749478340148926e+00,2.252460479736328125e+00,-1.266705989837646484e-01
-1.990683674812316895e+00,-1.604623317718505859e+00,-1.053251385688781738e+00,-1.743004202842712402e+00,2.326719284057617188e+00,8.013772964477539062e-02
-1.982232689857482910e+00,-1.387656450271606445e+00,-1.395808815956115723e+00,-1.414463520050048828e+00,2.276211738586425781e+00,8.407258987426757812e-02
-2.074097156524658203e+00,-1.502578496932983398e+00,-1.167109966278076172e+00,-1.763504028320312500e+00,2.472022533416748047e+00,-2.198469638824462891e-01
-2.026106834411621094e+00,-1.464957475662231445e+00,-1.198351144790649414e+00,-1.817501902580261230e+00,2.298279762268066406e+00,-2.816994190216064453e-01
-1.960105419158935547e+00,-1.587486743927001953e+00,-9.619029760360717773e-01,-2.080307483673095703e+00,2.233562469482421875e+00,-3.483307361602783203e-01
-2.074172496795654297e+00,-1.539601802825927734e+00,-1.075972914695739746e+00,-2.114528417587280273e+00,2.402478694915771484e+00,-5.645723342895507812e-01
-2.065310001373291016e+00,-1.596113443374633789e+00,-1.030960559844970703e+00,-2.236827373504638672e+00,2.393675804138183594e+00,-5.327532291412353516e-01
-2.073657512664794922e+00,-1.558717250823974609e+00,-1.057511448860168457e+00,-2.248799324035644531e+00,2.443069934844970703e+00,-5.717911720275878906e-01
-2.022909641265869141e+00,-1.544164299964904785e+00,-1.038992643356323242e+00,-2.183396816253662109e+00,2.424252033233642578e+00,-1.782984733581542969e-01
-1.930680036544799805e+00,-1.504742383956909180e+00,-1.102418184280395508e+00,-2.123317480087280273e+00,2.320921897888183594e+00,-1.671590805053710938e-01
-1.903401494026184082e+00,-1.281207442283630371e+00,-1.303809881210327148e+00,-1.766193866729736328e+00,2.333467960357666016e+00,1.189780235290527344e-01
-2.014621496200561523e+00,-1.300182342529296875e+00,-1.343396663665771484e+00,-1.958724498748779297e+00,2.447768926620483398e+00,-2.307529449462890625e-01
-1.968309998512268066e+00,-1.344040632247924805e+00,-1.199638128280639648e+00,-2.118922710418701172e+00,2.357522964477539062e+00,-3.029205799102783203e-01
-1.931100845336914062e+00,-1.271863579750061035e+00,-1.356746435165405273e+00,-1.971408486366271973e+00,2.360189914703369141e+00,-4.897117614746093750e-02
-1.894027233123779297e+00,-1.213325619697570801e+00,-1.412563323974609375e+00,-1.898361086845397949e+00,2.348673820495605469e+00,5.831766128540039062e-02
-1.885360121726989746e+00,-1.193066716194152832e+00,-1.427346825599670410e+00,-1.910999059677124023e+00,2.398528575897216797e+00,-1.437647342681884766e-01
-1.870313405990600586e+00,-1.243250250816345215e+00,-1.412994027137756348e+00,-1.983294963836669922e+00,2.443638801574707031e+00,-2.503192424774169922e-01
-1.908429503440856934e+00,-1.164443254470825195e+00,-1.471028685569763184e+00,-1.970198273658752441e+00,2.467470407485961914e+00,-1.137716770172119141e-01
-1.637993454933166504e+00,-1.108096599578857422e+00,-1.533504605293273926e+00,-1.605352282524108887e+00,2.294017791748046875e+00,2.996439933776855469e-01
-1.758836984634399414e+00,-1.104576587677001953e+00,-1.578481197357177734e+00,-1.544376850128173828e+00,2.486380577087402344e+00,4.540095329284667969e-01
-1.610588788986206055e+00,-1.219496488571166992e+00,-1.417721748352050781e+00,-1.588657736778259277e+00,2.379762172698974609e+00,5.626683235168457031e-01
-1.524405837059020996e+00,-1.213490486145019531e+00,-1.339686989784240723e+00,-1.743081569671630859e+00,2.271823406219482422e+00,3.791747093200683594e-01
-1.460407495498657227e+00,-1.131077170372009277e+00,-1.554434895515441895e+00,-1.320998907089233398e+00,2.263889551162719727e+00,5.679640769958496094e-01
-1.110049486160278320e+00,-9.597870707511901855e-01,-1.614241838455200195e+00,-1.321570038795471191e+00,1.848646759986877441e+00,1.019670009613037109e+00
-1.084247112274169922e+00,-8.778156638145446777e-01,-1.628360986709594727e+00,-1.397696256637573242e+00,1.873185992240905762e+00,1.182337284088134766e+00
-1.102298259735107422e+00,-9.111530184745788574e-01,-1.573199152946472168e+00,-1.416036844253540039e+00,1.929386854171752930e+00,1.190255165100097656e+00
-8.207542896270751953e-01,-8.651097416877746582e-01,-1.637448906898498535e+00,-1.333201289176940918e+00,1.649002075195312500e+00,1.386563777923583984e+00
-7.573289871215820312e-01,-8.446850776672363281e-01,-1.730273127555847168e+00,-1.232966899871826172e+00,1.589422821998596191e+00,1.381092548370361328e+00
