0.000000000000000000e+00,-1.570796370506286621e+00,0.000000000000000000e+00,-1.570796370506286621e+00,0.000000000000000000e+00,0.000000000000000000e+00
-2.053443670272827148e+00,-1.384299874305725098e+00,-1.426679611206054688e+00,-1.406223773956298828e+00,2.449150323867797852e+00,-1.175230741500854492e+00
-2.017784595489501953e+00,-1.485322952270507812e+00,-1.349418044090270996e+00,-1.345672130584716797e+00,2.431626558303833008e+00,-1.127085924148559570e+00
-1.945336580276489258e+00,-1.490864753723144531e+00,-1.419823646545410156e+00,-1.201279282569885254e+00,2.392728805541992188e+00,-1.035328388214111328e+00
-2.053360939025878906e+00,-1.556392192840576172e+00,-1.319648504257202148e+00,-1.438639879226684570e+00,2.486689329147338867e+00,-1.369010806083679199e+00
-1.990748882293701172e+00,-1.613952755928039551e+00,-1.243042349815368652e+00,-1.584207177162170410e+00,2.518419265747070312e+00,-1.397806525230407715e+00
-1.981130242347717285e+00,-1.560367226600646973e+00,-1.314797163009643555e+00,-1.455212235450744629e+00,2.402928113937377930e+00,-1.340498924255371094e+00
-1.997951030731201172e+00,-1.542201995849609375e+00,-1.228615522384643555e+00,-1.632773280143737793e+00,2.336575746536254883e+00,-1.214886546134948730e+00
-1.975747585296630859e+00,-1.502005577087402344e+00,-1.275172948837280273e+00,-1.638544678688049316e+00,2.384329557418823242e+00,-1.056150197982788086e+00
-2.049973487854003906e+00,-1.593280315399169922e+00,-1.053293108940124512e+00,-2.038867950439453125e+00,2.466591835021972656e+00,-1.098733425140380859e+00
-2.063814640045166016e+00,-1.787556886672973633e+00,-8.141909837722778320e-01,-2.417494773864746094e+00,2.465239763259887695e+00,-1.463645935058593750e+00
-1.913585186004638672e+00,-1.585001349449157715e+00,-9.931668043136596680e-01,-2.048647880554199219e+00,2.308538436889648438e+00,-9.313845634460449219e-01
-1.750269174575805664e+00,-1.466595649719238281e+00,-1.104799389839172363e+00,-1.845792531967163086e+00,2.071627855300903320e+00,-7.771155834197998047e-01
-1.911335706710815430e+00,-1.625714778900146484e+00,-8.545297384262084961e-01,-2.231841564178466797e+00,2.227712154388427734e+00,-1.019932031631469727e+00
-1.897425413131713867e+00,-1.560710906982421875e+00,-9.340929388999938965e-01,-2.175928115844726562e+00,2.226585865020751953e+00,-9.521799087524414062e-01
-1.978577852249145508e+00,-1.333749175071716309e+00,-1.329349637031555176e+00,-1.872313141822814941e+00,2.390103578567504883e+00,-7.845714092254638672e-01
-1.991409659385681152e+00,-1.397016167640686035e+00,-1.274560332298278809e+00,-2.073680877685546875e+00,2.386932849884033203e+00,-8.078858852386474609e-01
-1.973686933517456055e+00,-1.335225820541381836e+00,-1.317651271820068359e+00,-2.020758628845214844e+00,2.392747640609741211e+00,-7.036221027374267578e-01
-1.856790542602539062e+00,-1.312025785446166992e+00,-1.363814830780029297e+00,-1.866830229759216309e+00,2.397005319595336914e+00,-5.767240524291992188e-01
-1.901146054267883301e+00,-1.284906625747680664e+00,-1.411633014678955078e+00,-1.932999372482299805e+00,2.430681228637695312e+00,-5.916330814361572266e-01
-1.892731547355651855e+00,-1.277973294258117676e+00,-1.435107588768005371e+00,-2.016638755798339844e+00,2.342881679534912109e+00,-6.089065074920654297e-01
-1.989126801490783691e+00,-1.222127676010131836e+00,-1.448289871215820312e+00,-2.064404487609863281e+00,2.519288063049316406e+00,-6.366519927978515625e-01
-1.727666854858398438e+00,-1.090242624282836914e+00,-1.517974615097045898e+00,-1.710901498794555664e+00,2.295797109603881836e+00,-6.248378753662109375e-02
-1.621692776679992676e+00,-1.065898180007934570e+00,-1.383408069610595703e+00,-1.795460939407348633e+00,2.160604953765869141e+00,8.141851425170898438e-02
-1.447571516036987305e+00,-1.010110616683959961e+00,-1.520953536033630371e+00,-1.593543410301208496e+00,2.076140642166137695e+00,3.739285469055175781e-01
-1.331860423088073730e+00,-1.005207896232604980e+00,-1.486183881759643555e+00,-1.675365447998046875e+00,1.968634009361267090e+00,3.669953346252441406e-01
-1.215399503707885742e+00,-1.051370620727539062e+00,-1.395651102066040039e+00,-1.732501029968261719e+00,1.873469710350036621e+00,2.987542152404785156e-01
-1.059498548507690430e+00,-8.994424343109130859e-01,-1.603007078170776367e+00,-1.530584096908569336e+00,1.764757394790649414e+00,4.876327514648437500e-01
-9.209318161010742188e-01,-8.407417535781860352e-01,-1.701779961585998535e+00,-1.320588350296020508e+00,1.676582098007202148e+00,8.432955741882324219e-01
-7.131855487823486328e-01,-7.067729234695434570e-01,-1.857904672622680664e+00,-1.222621440887451172e+00,1.513240933418273926e+00,1.041230678558349609e+00
-1.258436679840087891e+00,-9.554376006126403809e-01,-1.714464187622070312e+00,-1.274227619171142578e+00,2.115817070007324219e+00,7.021059989929199219e-01
-8.602969646453857422e-01,-9.553384184837341309e-01,-1.621388554573059082e+00,-1.287774801254272461e+00,1.670100212097167969e+00,1.184533596038818359e+00
-8.919646739959716797e-01,-1.142745256423950195e+00,-1.436963558197021484e+00,-1.449476361274719238e+00,1.689073562622070312e+00,1.365149021148681641e+00
-8.925120830535888672e-01,-1.069487571716308594e+00,-1.507502436637878418e+00,-1.484896779060363770e+00,1.758204340934753418e+00,1.540599346160888672e+00
-7.125744819641113281e-01,-9.858761429786682129e-01,-1.517883658409118652e+00,-1.510296702384948730e+00,1.663491606712341309e+00,1.535435676574707031e+00
-3.735046386718750000e-01,-8.648082017898559570e-01,-1.630927801132202148e+00,-1.373374462127685547e+00,1.283654928207397461e+00,1.698538780212402344e+00
-2.754571437835693359e-01,-1.060740113258361816e+00,-1.400874018669128418e+00,-1.627536296844482422e+00,1.135731101036071777e+00,1.826599597930908203e+00
-7.367014884948730469e-02,-1.003495454788208008e+00,-1.440156936645507812e+00,-1.713600754737854004e+00,9.854786992073059082e-01,2.149040699005126953e+00
-1.223671436309814453e-01,-9.780619144439697266e-01,-1.458081126213073730e+00,-1.614469051361083984e+00,1.128082036972045898e+00,1.999436378479003906e+00
-9.892106056213378906e-02,-9.926036000251770020e-01,-1.546134948730468750e+00,-1.506505846977233887e+00,9.645479321479797363e-01,1.974986553192138672e+00
