0.000000000000000000e+00,-1.570796370506286621e+00,0.000000000000000000e+00,-1.570796370506286621e+00,0.000000000000000000e+00,0.000000000000000000e+00
-2.104541778564453125e+00,-1.824912190437316895e+00,-9.258286952972412109e-01,-1.848365664482116699e+00,2.396255731582641602e+00,-1.265905857086181641e+00
-2.051318645477294922e+00,-1.960212111473083496e+00,-7.547987699508666992e-01,-1.827412843704223633e+00,2.388740777969360352e+00,-1.188520908355712891e+00
-2.004401683807373047e+00,-1.926428318023681641e+00,-8.883039951324462891e-01,-1.678989648818969727e+00,2.379676580429077148e+00,-1.121509790420532227e+00
-2.015614986419677734e+00,-1.913317799568176270e+00,-8.182227611541748047e-01,-1.755995512008666992e+00,2.445294380187988281e+00,-1.185484647750854492e+00
-1.997153520584106445e+00,-2.026254177093505859e+00,-5.362726449966430664e-01,-2.095335483551025391e+00,2.409171104431152344e+00,-1.260628342628479004e+00
-2.021689891815185547e+00,-2.104359388351440430e+00,-3.716410696506500244e-01,-2.362483501434326172e+00,2.496351480484008789e+00,-1.251329660415649414e+00
-2.041169166564941406e+00,-2.006781339645385742e+00,-4.650133550167083740e-01,-2.265492439270019531e+00,2.468886613845825195e+00,-9.390857219696044922e-01
-1.990133047103881836e+00,-1.825121283531188965e+00,-7.970964908599853516e-01,-1.957600951194763184e+00,2.428133249282836914e+00,-5.606665611267089844e-01
-1.965454101562500000e+00,-1.840204119682312012e+00,-7.058531045913696289e-01,-2.055178165435791016e+00,2.402098178863525391e+00,-6.577908992767333984e-01
-2.019244194030761719e+00,-2.065319299697875977e+00,-3.133527040481567383e-01,-2.506237983703613281e+00,2.420828819274902344e+00,-7.941935062408447266e-01
-2.022643566131591797e+00,-1.947520375251770020e+00,-6.693899035453796387e-01,-2.440443515777587891e+00,2.550840377807617188e+00,-9.413373470306396484e-01
-2.057117462158203125e+00,-1.773798584938049316e+00,-1.018484830856323242e+00,-2.180987358093261719e+00,2.619567871093750000e+00,-8.384535312652587891e-01
-2.068423509597778320e+00,-1.901452779769897461e+00,-7.439103126525878906e-01,-2.573344230651855469e+00,2.622935771942138672e+00,-1.152411699295043945e+00
-2.028797149658203125e+00,-1.700745820999145508e+00,-1.034987926483154297e+00,-2.152922391891479492e+00,2.580132722854614258e+00,-7.403910160064697266e-01
-1.978798151016235352e+00,-1.688022851943969727e+00,-9.110642671585083008e-01,-2.161206483840942383e+00,2.401575326919555664e+00,-6.054360866546630859e-01
-2.000612258911132812e+00,-1.642984271049499512e+00,-1.025591969490051270e+00,-2.147239685058593750e+00,2.398055553436279297e+00,-6.745316982269287109e-01
-1.978245854377746582e+00,-1.600358486175537109e+00,-9.734429121017456055e-01,-2.152004718780517578e+00,2.391817569732666016e+00,-6.776771545410156250e-01
-1.865064501762390137e+00,-1.657562613487243652e+00,-8.935284614562988281e-01,-2.196139335632324219e+00,2.345033884048461914e+00,-6.799559593200683594e-01
-1.938712239265441895e+00,-1.687174201011657715e+00,-8.191680312156677246e-01,-2.367788791656494141e+00,2.345514059066772461e+00,-6.023404598236083984e-01
-1.904561996459960938e+00,-1.783595919609069824e+00,-7.884145379066467285e-01,-2.515306234359741211e+00,2.381769180297851562e+00,-8.426227569580078125e-01
-1.843076944351196289e+00,-1.731036186218261719e+00,-8.264116048812866211e-01,-2.402820587158203125e+00,2.426334619522094727e+00,-7.665679454803466797e-01
-1.818907856941223145e+00,-1.670319676399230957e+00,-8.768566250801086426e-01,-2.328584432601928711e+00,2.421156167984008789e+00,-4.832365512847900391e-01
-1.845751404762268066e+00,-1.418569207191467285e+00,-1.179041147232055664e+00,-1.994493603706359863e+00,2.433395624160766602e+00,-2.838788032531738281e-01
-1.805764198303222656e+00,-1.323469161987304688e+00,-1.365220785140991211e+00,-1.756784558296203613e+00,2.468283176422119141e+00,-1.322789192199707031e-01
-1.732696056365966797e+00,-1.446324706077575684e+00,-1.161452889442443848e+00,-1.958698630332946777e+00,2.410792350769042969e+00,-3.247859477996826172e-01
-1.629244327545166016e+00,-1.442924737930297852e+00,-1.195940256118774414e+00,-1.770850777626037598e+00,2.381783485412597656e+00,-1.919553279876708984e-01
-1.550820350646972656e+00,-1.455817580223083496e+00,-1.202994823455810547e+00,-1.715424180030822754e+00,2.322487831115722656e+00,-4.475879669189453125e-02
-1.427147984504699707e+00,-1.396355628967285156e+00,-1.208763718605041504e+00,-1.622991442680358887e+00,2.171019554138183594e+00,3.138737678527832031e-01
-1.435435056686401367e+00,-1.471865177154541016e+00,-1.058593273162841797e+00,-1.839003205299377441e+00,2.171300888061523438e+00,1.564707756042480469e-01
-1.340910077095031738e+00,-1.298338770866394043e+00,-1.246375203132629395e+00,-1.636803150177001953e+00,2.064567327499389648e+00,5.637383460998535156e-01
-1.238181114196777344e+00,-1.303180694580078125e+00,-1.248639106750488281e+00,-1.575230121612548828e+00,1.966035485267639160e+00,7.041687965393066406e-01
-1.387764096260070801e+00,-1.274348974227905273e+00,-1.403205037117004395e+00,-1.369121670722961426e+00,2.213943481445312500e+00,6.910314559936523438e-01
-1.229792833328247070e+00,-1.204405546188354492e+00,-1.412424206733703613e+00,-1.411005735397338867e+00,2.005651473999023438e+00,8.276352882385253906e-01
-1.352524161338806152e+00,-1.143342018127441406e+00,-1.476221919059753418e+00,-1.441568732261657715e+00,2.175739765167236328e+00,9.075732231140136719e-01
-1.442141175270080566e+00,-1.203767299652099609e+00,-1.478449821472167969e+00,-1.422122478485107422e+00,2.318963527679443359e+00,1.058073520660400391e+00
-1.408632993698120117e+00,-1.246995687484741211e+00,-1.470328688621520996e+00,-1.400242090225219727e+00,2.292841672897338867e+00,1.254106521606445312e+00
-1.345038652420043945e+00,-1.299451112747192383e+00,-1.447956800460815430e+00,-1.327886939048767090e+00,2.214609146118164062e+00,1.453749656677246094e+00
-1.258911728858947754e+00,-1.200920104980468750e+00,-1.473959684371948242e+00,-1.391152024269104004e+00,2.109936714172363281e+00,1.645112514495849609e+00
-1.187291383743286133e+00,-1.177537083625793457e+00,-1.496991872787475586e+00,-1.343256354331970215e+00,2.040657281875610352e+00,1.744801998138427734e+00
