[[ 0.00000000e+00  0.00000000e+00  0.00000000e+00]
 [ 0.00000000e+00  0.00000000e+00  0.00000000e+00]
 [ 0.00000000e+00  0.00000000e+00  0.00000000e+00]
 [ 0.00000000e+00  0.00000000e+00  0.00000000e+00]
 [-1.59541039e-02  1.61736334e-07 -2.09463335e-06]
 [-1.60931104e-02  1.82787346e-07 -2.02698408e-06]
 [-1.60349438e-02  1.83466660e-06 -2.08183290e-06]
 [-1.60004710e-02  2.32797599e-07 -1.67495035e-06]
 [-1.59623190e-02 -1.23582456e-07 -1.38684837e-06]
 [-1.59648037e-02 -1.51518173e-07 -1.10210127e-06]
 [-1.60387714e-02 -1.17892523e-07 -6.60015276e-07]
 [-1.60693649e-02 -2.54223610e-07 -3.92294390e-07]
 [ 0.00000000e+00  0.00000000e+00  0.00000000e+00]
 [ 0.00000000e+00  0.00000000e+00  0.00000000e+00]
 [ 0.00000000e+00  0.00000000e+00  0.00000000e+00]
 [ 0.00000000e+00  0.00000000e+00  0.00000000e+00]
 [ 0.00000000e+00  0.00000000e+00  0.00000000e+00]
 [ 0.00000000e+00  0.00000000e+00  0.00000000e+00]
 [ 0.00000000e+00  0.00000000e+00  0.00000000e+00]
 [ 0.00000000e+00  0.00000000e+00  0.00000000e+00]]