<?xml version="1.0" encoding="utf-8"?>
<COLLADA xmlns="http://www.collada.org/2005/11/COLLADASchema" version="1.4.1" xmlns:xsi="http://www.w3.org/2001/XMLSchema-instance">
  <asset>
    <contributor>
      <author>Blender User</author>
      <authoring_tool>Blender 4.0.2 commit date:2023-12-05, commit time:07:41, hash:9be62e85b727</authoring_tool>
    </contributor>
    <created>2024-01-23T16:05:53</created>
    <modified>2024-01-23T16:05:53</modified>
    <unit name="meter" meter="1"/>
    <up_axis>Z_UP</up_axis>
  </asset>
  <library_images/>
  <library_geometries>
    <geometry id="robotiq_3f_gripper_simplified_c1-mesh" name="robotiq_3f_gripper_simplified_c1">
      <mesh>
        <source id="robotiq_3f_gripper_simplified_c1-mesh-positions">
          <float_array id="robotiq_3f_gripper_simplified_c1-mesh-positions-array" count="636">-41.667 15.5 -10 -77.5 15.5 77 -41.667 -15.5 -10 -77.5 -15.5 77 -65 -15.5 -33.333 -96.15572 -15.5 77 -65 15.5 -33.333 -96.15572 15.5 77 -77.5 15.5 102 -83.5 15.5 102 -77.5 -15.5 102 -83.5 -15.5 102 -65 -15.5 -10 -65 15.5 -10 86.85 31 77 81.09141 32.0625 74.09896 77.5 31 77 79.91361 32.0625 74.14453 78.73581 32.0625 74.1901 77.63412 33.125 71.38021 76.44727 33.125 71.47135 75.33653 34.1875 68.70703 73.02084 35.25 66.125 74.22579 35.25 65.94271 73.11505 36.3125 63.17839 75.43074 35.25 65.76042 74.32904 36.3125 62.95052 76.63568 35.25 65.57813 75.54304 36.3125 62.72266 77.84063 35.25 65.39584 76.75704 36.3125 62.49479 82.66042 35.25 64.66667 81.61302 36.3125 61.58333 87.48021 35.25 63.9375 86.46901 36.3125 60.67188 92.30001 35.25 63.20833 85.45782 37.375 57.40625 88.4 39.5 49.41667 84.44662 38.4375 54.14063 83.43542 39.5 50.87501 78.47084 39.5 52.33333 76.37605 41.625 46.16667 71.33908 41.625 47.98958 69.17189 43.75 42.1875 67.89454 43.75 42.73438 65.70926 45.875 37.02344 64.41382 45.875 37.66146 62.21043 48 32.04167 60.89689 48 32.77083 56.45392 52.25 21.71354 59.58335 48 33.5 50.62503 56.5 11.75 52.01096 56.5 10.65625 47.568 60.75 -0.4010398 53.3969 56.5 9.562503 48.99013 60.75 -1.67708 54.78283 56.5 8.468755 50.41226 60.75 -2.953119 56.16877 56.5 7.375006 51.8344 60.75 -4.229159 61.71251 56.5 3.000012 57.52293 60.75 -9.333319 67.25626 56.5 -1.374981 63.21146 60.75 -14.43748 72.80001 56.5 -5.749975 65 65 -33.3333 96.2 31 77 90.5138 32.0625 73.73438 85.80261 32.0625 73.91667 80.00782 33.125 71.19792 78.82097 33.125 71.28907 77.72833 34.1875 68.4336 76.53243 34.1875 68.57032 89.5026 33.125 70.46875 88.49141 34.1875 67.20313 81.41303 41.625 44.34376 84.5 43.75 35.62501 79.39063 43.75 37.81251 77.36824 45.875 31.28126 72.18647 45.875 33.83334 70.09168 48 27.66668 64.83751 48 30.58334 60.50314 52.25 18.97917 59.1534 52.25 19.89063 80.6 48 21.83335 75.34584 48 24.75001 65.90209 52.25 15.33334 71.30105 52.25 11.68752 41.6667 65 -10 63.11837 45.875 38.29948 64.06252 43.75 44.375 65.33986 43.75 43.82812 67.56134 41.625 49.35677 68.82058 41.625 48.90104 71.02397 39.5 54.52083 72.26512 39.5 54.15625 73.35775 38.4375 57.01172 74.58985 38.4375 56.69271 75.67344 37.375 59.59375 80.56563 37.375 58.5 68.54167 39.5 55.25 69.78282 39.5 54.88542 72.12566 38.4375 57.33073 74.4504 37.375 59.86719 72.00431 37.375 60.41406 70.89356 38.4375 57.64974 77.55801 32.0625 74.23568 84.75521 33.125 70.83334 83.70782 34.1875 67.75 73.22735 37.375 60.14062 78.92423 34.1875 68.29688 74.28126 43.75 40.00001 67.0047 45.875 36.38542 63.52397 48 31.3125 57.80366 52.25 20.80209 70.07983 41.625 48.44532 73.50626 39.5 53.79167 66.6172 43.75 43.28125 79.51824 38.4375 55.41667 86.85 -31 77 90.5138 -32.0625 73.73438 96.2 -31 77 92.8694 -32.0625 73.64323 91.87631 -33.125 70.28646 89.5026 -33.125 70.46875 85.80261 -32.0625 73.91667 84.75521 -33.125 70.83334 81.09141 -32.0625 74.09896 80.00782 -33.125 71.19792 77.5 -31 77 73.02084 -35.25 66.125 68.54167 -39.5 55.25 75.67344 -37.375 59.59375 76.75704 -36.3125 62.49479 77.84063 -35.25 65.39584 81.61302 -36.3125 61.58333 82.66042 -35.25 64.66667 86.46901 -36.3125 60.67188 87.48021 -35.25 63.9375 88.89701 -36.3125 60.21615 89.89011 -35.25 63.57292 92.30001 -35.25 63.20833 90.8832 -34.1875 66.92969 64.06252 -43.75 44.375 71.33908 -41.625 47.98958 73.50626 -39.5 53.79167 74.58985 -38.4375 56.69271 78.47084 -39.5 52.33333 79.51824 -38.4375 55.41667 83.43542 -39.5 50.87501 84.44662 -38.4375 54.14063 85.91771 -39.5 50.14584 86.91081 -38.4375 53.50261 88.4 -39.5 49.41667 87.90391 -37.375 56.85938 59.58335 -48 33.5 67.0047 -45.875 36.38542 69.17189 -43.75 42.1875 74.28126 -43.75 40.00001 76.37605 -41.625 46.16667 79.39063 -43.75 37.81251 81.41303 -41.625 44.34376 81.94532 -43.75 36.71876 83.93151 -41.625 43.4323 84.5 -43.75 35.62501 50.62503 -56.5 11.75 60.50314 -52.25 18.97917 64.83751 -48 30.58334 70.09168 -48 27.66668 72.18647 -45.875 33.83334 75.34584 -48 24.75001 77.36824 -45.875 31.28126 77.97292 -48 23.29168 79.95912 -45.875 30.00522 80.6 -48 21.83335 41.6667 -65 -10 51.8344 -60.75 -4.229159 54.00158 -58.625 1.572923 56.16877 -56.5 7.375006 59.61772 -58.625 -3.166653 61.71251 -56.5 3.000012 65.23387 -58.625 -7.906229 67.25626 -56.5 -1.374981 68.04193 -58.625 -10.27602 70.02813 -56.5 -3.562478 72.80001 -56.5 -5.749975 74.00053 -52.25 9.864602 65 -65 -33.3333 55.42814 -62.875 -15.49998 49.66721 -62.875 -10.03124 57.52293 -60.75 -9.333319 61.18907 -62.875 -20.96873 63.21146 -60.75 -14.43748 64.06954 -62.875 -23.7031 66.05574 -60.75 -16.98956 78.92423 -34.1875 68.29688 80.56563 -37.375 58.5 85.45782 -37.375 57.40625 65.90209 -52.25 15.33334 71.30105 -52.25 11.68752 88.49141 -34.1875 67.20313 83.70782 -34.1875 67.75 65 -65 -102 -65 -65 -102 -65 -65 -10 -65 65 -10 -65 65 -102 65 65 -102 83.5 26 102 77.5 26 102 83.5 -26 102 77.5 -26 102</float_array>
          <technique_common>
            <accessor source="#robotiq_3f_gripper_simplified_c1-mesh-positions-array" count="212" stride="3">
              <param name="X" type="float"/>
              <param name="Y" type="float"/>
              <param name="Z" type="float"/>
            </accessor>
          </technique_common>
        </source>
        <source id="robotiq_3f_gripper_simplified_c1-mesh-normals">
          <float_array id="robotiq_3f_gripper_simplified_c1-mesh-normals-array" count="1116">0.9246428 0 0.3808359 -0.9623672 0 -0.2717522 0 0 1 1 0 0 0 -1 0 -0.8921933 0 0.4516538 0 1 0 0 0.9390032 0.3439084 0.01388907 0.9332376 0.3589913 0.01388913 0.933237 0.3589928 0.01350325 0.9370174 0.3490217 0.02645146 0.9384239 0.344472 0.0268172 0.9366508 0.3492367 0.05146855 0.9389391 0.3402122 0.05146765 0.9389392 0.3402125 0.05147212 0.9389386 0.3402132 0.05147159 0.9389398 0.3402099 0.06223088 0.9413787 0.3315621 0.05079233 0.9405827 0.3357446 0.06144189 0.9429076 0.327338 0.05013287 0.9421627 0.3313854 0.06066864 0.9443771 0.3232201 0.04949057 0.9436807 0.3271353 0.05774635 0.9497425 0.3076601 0.04706633 0.9492095 0.3111047 0.05508142 0.9543827 0.2934619 0.0448563 0.95398 0.2964966 0.04485636 0.9539799 0.2964971 0.06211632 0.9586173 0.2778391 0.0836566 0.9549326 0.2847899 0.08365702 0.9549321 0.2847917 0.08365654 0.9549322 0.2847915 0.08749264 0.9505951 0.2978489 0.1055775 0.9506577 0.2917249 0.110444 0.9458718 0.3051702 0.1278535 0.9457664 0.2986294 0.1292853 0.9445092 0.3019735 0.1455897 0.9441508 0.295606 0.147176 0.9428888 0.298831 0.1624435 0.9423272 0.2926293 0.1641699 0.9410556 0.295741 0.1641702 0.9410554 0.2957414 0.1937125 0.9381825 0.2868611 0.2158663 0.9373268 0.2735327 0.2158663 0.9373261 0.2735353 0.2158672 0.9373259 0.2735353 0.2349439 0.9360772 0.2618414 0.2138814 0.9385113 0.2710191 0.2329294 0.937205 0.2595975 0.2119305 0.9396638 0.268547 0.2309479 0.9383037 0.2573892 0.210013 0.9407851 0.2661166 0.2233257 0.9424318 0.2488936 0.2026556 0.9449805 0.2567931 0.216162 0.9461691 0.240911 0.1957682 0.948756 0.2480663 0.2094188 0.9495633 0.2333955 0 0.9509336 0.3093953 0.0124582 0.9466639 0.3219822 0.01245921 0.9466636 0.3219829 0.01313883 0.9404976 0.3395465 0.02575153 0.9417597 0.3352994 0.02609884 0.9401269 0.339824 0.03836107 0.94124 0.3355528 0.03887546 0.9396021 0.3400542 0.05079591 0.9405829 0.3357437 0 0.9509339 0.3093941 0.02217054 0.9571662 0.2886889 0.04485535 0.9539802 0.2964961 0.04485636 0.9539798 0.296497 0.08365625 0.954932 0.2847919 0.09697544 0.9585376 0.2679578 0.1173934 0.9544814 0.2741975 0.1173932 0.9544812 0.2741979 0.1326271 0.9538841 0.2692867 0.1381068 0.9498922 0.2804131 0.1527612 0.9491761 0.2751887 0.1590901 0.944752 0.2865903 0.1862469 0.9429981 0.275802 0.1880625 0.9418459 0.2784942 0.2119315 0.9396629 0.2685493 0.127546 0.9574269 0.2589706 0.146892 0.953101 0.2646151 0.1468914 0.9531012 0.2646152 0.1527611 0.949176 0.2751889 0.1793023 0.9472852 0.2655211 0.1862464 0.9429975 0.2758044 0.2100127 0.9407849 0.266117 0.1468914 0.9531015 0.264614 0.1667881 0.9545564 0.2469897 0.1957689 0.9487556 0.2480672 0.2094193 0.9495632 0.2333952 0.2417225 0.9397556 0.2417225 0.2390689 0.9337323 0.2664399 0.239069 0.9337322 0.26644 0.2390688 0.933732 0.2664409 0.2390686 0.9337328 0.2664383 0.239068 0.9337326 0.2664396 0.1641709 0.9410548 0.2957428 0.1504529 0.9402369 0.305481 0.1322417 0.9418633 0.3088781 0.1322419 0.9418629 0.3088794 0.1143794 0.9418252 0.3160424 0.1130378 0.9432216 0.3123388 0.09391033 0.9428536 0.3196999 0.0927816 0.9442621 0.3158492 0.08274108 0.9439422 0.3195735 0.08173751 0.945334 0.315694 0.0714088 0.9449241 0.3194047 0.06803297 0.9501422 0.304305 0.05774742 0.9497431 0.3076581 0.1157476 0.9403778 0.3198315 0.09506845 0.9413934 0.3236361 0.0950669 0.9413936 0.3236364 0.09391248 0.9428538 0.319699 0.08376932 0.9424982 0.3235431 0.08274322 0.943944 0.3195673 0.07230281 0.9434956 0.3234013 0.07140904 0.9449251 0.3194018 0.06066733 0.9443792 0.3232144 0.07511377 0.9388712 0.3359745 0.09506881 0.9413937 0.3236354 0.0950669 0.9413933 0.3236371 0.08482044 0.9410005 0.3276031 0.027197 0.9348027 0.3541247 -4.40844e-6 0.9334262 0.3587697 0.01369786 0.9351677 0.3539403 0.0138936 0.933236 0.3589954 0.05146402 0.9389388 0.3402138 0.01245826 0.9466632 0.3219839 0.02325367 0.9527726 0.3027932 0.02444195 0.9476868 0.3182647 0.03425186 0.9534478 0.2996066 0.0359705 0.94853 0.3146382 0.02609878 0.9401256 0.3398277 0.01331758 0.9387939 0.3442219 0.0614385 0.942907 0.3273405 0.07230293 0.9434967 0.3233982 0.06223475 0.9413785 0.3315621 0.07321774 0.9420122 0.3274937 0.06304705 0.9397897 0.3358875 0.03940296 0.9378986 0.3446643 0.05013269 0.9421623 0.3313864 0.03836125 0.941241 0.3355503 0.04948943 0.9436805 0.3271362 0.03785955 0.9428141 0.3311622 0.04706555 0.9492093 0.3111053 0.1011027 0.954848 0.2793628 0.1055778 0.9506567 0.2917281 0.1224122 0.9504022 0.2859216 0.1278531 0.9457664 0.2986294 0.1440329 0.9453743 0.2924417 0.1455887 0.9441524 0.2956014 0.1607496 0.943559 0.2895792 0.1624431 0.9423274 0.2926285 0.1899102 0.9406613 0.2812304 0.1917957 0.9394394 0.2840215 0.110444 0.9458713 0.3051719 0.09277909 0.9442625 0.3158487 0.09167724 0.9456191 0.3120899 0.1117269 0.9445691 0.3087176 0.1130385 0.9432209 0.3123409 0.1307477 0.9432091 0.3053877 0.1322436 0.9418612 0.3088835 0.1292843 0.9445081 0.301977 0.1117244 0.9445705 0.308714 0.09167534 0.945619 0.3120906 0.08749258 0.9505951 0.297849 0.0779426 0.9504231 0.3010334 0.07446658 0.9548484 0.2876099 0.08173799 0.9453341 0.3156935 0.1224125 0.9504023 0.285921 0.1381068 0.9498921 0.2804134 0.1590892 0.9447529 0.286588 0.1440317 0.945374 0.2924433 0.1307468 0.9432092 0.3053877 0.1487972 0.9415853 0.3021202 0.1173937 0.9544812 0.2741976 0.1728309 0.9511179 0.2559379 0.1793019 0.9472854 0.2655209 0.2026557 0.9449802 0.2567939 0.1957683 0.9487556 0.2480678 0.1607508 0.9435581 0.2895813 0.1880616 0.9418459 0.2784944 0.1899099 0.9406614 0.2812301 0.213882 0.938511 0.2710195 0.07415419 0.940473 0.3316803 0.08376961 0.9424977 0.3235442 0.07321786 0.9420114 0.3274963 0.06803345 0.9501425 0.3043037 0.07794338 0.9504225 0.3010348 0.02645546 0.9384249 0.3444691 0.03887552 0.939604 0.3400486 0.0359705 0.9485299 0.3146383 0.02574902 0.9417595 0.3353 0.03785961 0.9428126 0.3311663 0.02444106 0.9476867 0.3182653 0.064947 0.9546684 0.2904998 0 -0.9509336 0.3093953 0.01128184 -0.9564872 0.2915564 -1.85402e-6 -0.9533807 0.3017702 0.01155596 -0.9542957 0.2986409 0.02325284 -0.9527722 0.3027947 0.01184195 -0.9519401 0.3060551 0.02444195 -0.9476867 0.3182651 0.01245921 -0.9466637 0.3219825 0.02574914 -0.9417598 0.3352993 -1.05646e-6 -0.9390034 0.3439081 0.02719587 -0.9348028 0.3541245 0 -0.9390032 0.3439084 0.01245921 -0.9466636 0.3219829 0.0124582 -0.9466639 0.3219822 0.07511442 -0.9388704 0.3359766 0.04948955 -0.9436808 0.3271351 0.04949152 -0.9436811 0.3271342 0.06066638 -0.9443779 0.3232185 0.04706519 -0.9492102 0.3111026 0.05774736 -0.949742 0.3076614 0.04485535 -0.9539805 0.2964953 0.05508303 -0.9543825 0.2934622 0.04382199 -0.9561228 0.2896704 0.04382371 -0.9561229 0.2896696 0.04382395 -0.9561217 0.2896739 0.04382199 -0.9561225 0.2896716 0.02269881 -0.9550487 0.2955786 0.1157484 -0.9403781 0.3198306 0.09167534 -0.9456196 0.3120887 0.09167557 -0.9456199 0.3120876 0.09167486 -0.9456199 0.3120881 0.07794237 -0.9504233 0.3010327 0.08749258 -0.9505947 0.2978505 0.07446652 -0.954849 0.2876079 0.08365738 -0.9549322 0.2847913 0.07283687 -0.9568471 0.2813156 0.08185684 -0.9568945 0.2786618 0.08185583 -0.9568944 0.2786626 0.06211692 -0.9586169 0.2778403 0.04382163 -0.9561226 0.2896709 0.150453 -0.9402369 0.3054808 0.1278537 -0.9457666 0.2986289 0.1278532 -0.9457665 0.2986289 0.1278533 -0.9457665 0.2986289 0.1055784 -0.9506567 0.2917279 0.1224127 -0.9504023 0.2859203 0.1011027 -0.9548482 0.2793621 0.1173934 -0.9544814 0.2741975 0.09899693 -0.9567512 0.2735449 0.1150286 -0.9563383 0.2686739 0.09697598 -0.958537 0.2679601 0.1937124 -0.9381827 0.2868604 0.1590903 -0.9447521 0.2865898 0.1590903 -0.944752 0.2865903 0.1381069 -0.9498921 0.2804136 0.1527609 -0.9491763 0.2751883 0.1326268 -0.9538841 0.2692868 0.1468919 -0.9531012 0.2646148 0.1300396 -0.9557075 0.2640323 0.1441154 -0.9548987 0.2596139 0.1275461 -0.957427 0.2589703 0.2390688 -0.9337324 0.2664397 0.2100131 -0.9407849 0.2661171 0.2100129 -0.9407854 0.2661158 0.2208039 -0.9395692 0.2616399 0.2026559 -0.9449802 0.2567937 0.2132979 -0.9437283 0.252747 0.1957689 -0.9487558 0.2480666 0.2062574 -0.9474835 0.244403 0.1924878 -0.9505035 0.243909 0.1924883 -0.9505034 0.243909 0.1924873 -0.9505036 0.243909 0.166789 -0.9545558 0.2469913 0.1441147 -0.9548991 0.2596126 0.2417227 -0.9397555 0.2417227 0.2486963 -0.932478 0.2619831 0.2494994 -0.9356817 0.2494993 0.2404966 -0.9370043 0.2533465 0.2233253 -0.9424318 0.2488939 0.2327849 -0.9411041 0.2452229 0.2161622 -0.9461692 0.2409107 0.225525 -0.9448266 0.2375738 0.2127395 -0.9479071 0.2370952 0.2308756 -0.9451948 0.2308753 0.2094182 -0.9495634 0.2333953 0.02217048 -0.9571667 0.2886874 0.04949057 -0.9436808 0.3271351 0.04949057 -0.9436801 0.3271373 0.0494908 -0.9436808 0.3271348 0.0916748 -0.9456197 0.3120886 0.08173888 -0.9453338 0.3156939 0.06803345 -0.9501423 0.3043045 0.07794255 -0.9504225 0.301035 0.06494694 -0.954669 0.2904981 0.07446759 -0.9548485 0.287609 0.06350213 -0.9567083 0.2840363 0.08185774 -0.9568939 0.2786637 0.1011024 -0.9548481 0.2793626 0.08365678 -0.9549322 0.2847914 0.1055778 -0.950657 0.2917274 0.0874924 -0.9505954 0.2978484 0.1104431 -0.9458715 0.3051713 0.1150279 -0.9563387 0.2686724 0.1150278 -0.9563383 0.2686739 0.1326264 -0.9538843 0.2692861 0.1173939 -0.9544808 0.2741987 0.1381068 -0.9498919 0.2804139 0.1224124 -0.9504024 0.2859205 0.1440312 -0.945374 0.2924433 0.1924868 -0.9505036 0.2439096 0.2100132 -0.9407849 0.2661171 0.210013 -0.9407851 0.2661166 0.1793025 -0.9472851 0.2655212 0.2026555 -0.9449803 0.2567937 0.1728306 -0.9511181 0.255938 0.1957687 -0.9487558 0.2480669 0.1697582 -0.9528829 0.2513886 0.07140928 -0.9449246 0.3194029 0.057747 -0.9497424 0.3076599 0.05383479 -0.9564709 0.2868193 0.06803345 -0.9501426 0.3043033 0.05508232 -0.9543829 0.293461 0.06494718 -0.9546689 0.2904979 0.04485428 -0.9539803 0.2964959 0.03345 -0.9556524 0.2925913 0.0342521 -0.9534471 0.299609 0.04706633 -0.9492096 0.3111046 0.03425198 -0.9534476 0.2996072 0.0359705 -0.9485294 0.3146399 0.02325367 -0.9527731 0.3027915 0.1527606 -0.9491765 0.2751877 0.1862467 -0.9429973 0.275805 0.1468922 -0.9531008 0.2646163 0.179302 -0.9472854 0.2655209 0.1441153 -0.9548992 0.2596119 0.1728299 -0.9511184 0.255937 0.2309474 -0.938304 0.2573885 0.2132984 -0.9437283 0.2527467 0.2029012 -0.9492242 0.2404261 0.2233254 -0.9424318 0.2488939 0.2062578 -0.9474833 0.2444042 0.2161607 -0.9461695 0.2409104 0.2186774 -0.9482164 0.2303605 0.2186784 -0.9482158 0.2303618 0.03785938 -0.9428139 0.3311624 0.03597062 -0.948529 0.314641 0.024441 -0.9476864 0.318266 0.8915562 0 0.4529104 0.891556 0 0.4529104 0 -0.9805807 0.1961161 0 -0.9805808 0.1961159 -1 0 0 0 0.9805807 0.1961161 0 0.9805807 0.196116 0 0.9805808 0.1961159 -0.9246415 0 0.3808387 -0.9246416 0 0.3808387 -0.9246416 0 0.3808386 -0.9246416 0 0.3808388 -0.9246418 0 0.3808382 -0.9246418 0 0.3808382 -0.9246415 0 0.3808387 0.9622663 0 -0.2721093 0.9622664 0 -0.2721094 0.9622665 0 -0.2721091 0.9622663 0 -0.2721094 0.9622665 0 -0.2721092 0.9622664 0 -0.2721093 0.9622664 0 -0.2721092 0.9622664 0 -0.2721094 0.9622663 0 -0.2721095 0.9622665 0 -0.2721086 0.9622665 0 -0.2721089 0 0 -1</float_array>
          <technique_common>
            <accessor source="#robotiq_3f_gripper_simplified_c1-mesh-normals-array" count="372" stride="3">
              <param name="X" type="float"/>
              <param name="Y" type="float"/>
              <param name="Z" type="float"/>
            </accessor>
          </technique_common>
        </source>
        <vertices id="robotiq_3f_gripper_simplified_c1-mesh-vertices">
          <input semantic="POSITION" source="#robotiq_3f_gripper_simplified_c1-mesh-positions"/>
        </vertices>
        <triangles count="420">
          <input semantic="VERTEX" source="#robotiq_3f_gripper_simplified_c1-mesh-vertices" offset="0"/>
          <input semantic="NORMAL" source="#robotiq_3f_gripper_simplified_c1-mesh-normals" offset="1"/>
          <p>0 0 1 0 2 0 2 0 1 0 3 0 4 1 5 1 6 1 6 1 5 1 7 1 8 2 9 2 10 2 10 2 9 2 11 2 10 3 3 3 8 3 8 3 3 3 1 3 10 4 11 4 3 4 3 4 11 4 5 4 3 4 5 4 12 4 12 4 5 4 4 4 12 4 2 4 3 4 9 5 7 5 11 5 11 5 7 5 5 5 8 6 1 6 9 6 9 6 1 6 7 6 7 6 1 6 13 6 7 6 13 6 6 6 1 6 0 6 13 6 14 7 15 7 16 7 16 8 15 8 17 8 16 9 17 9 18 9 18 10 17 10 19 10 18 11 19 11 20 11 20 12 19 12 21 12 20 13 21 13 22 13 22 14 21 14 23 14 22 15 23 15 24 15 24 16 23 16 25 16 24 17 25 17 26 17 26 18 25 18 27 18 26 19 27 19 28 19 28 20 27 20 29 20 28 21 29 21 30 21 30 22 29 22 31 22 30 23 31 23 32 23 32 24 31 24 33 24 32 25 33 25 34 25 34 26 33 26 35 26 34 27 35 27 36 27 36 28 35 28 37 28 36 29 37 29 38 29 38 30 37 30 39 30 38 31 39 31 40 31 40 32 39 32 41 32 40 33 41 33 42 33 42 34 41 34 43 34 42 35 43 35 44 35 44 36 43 36 45 36 44 37 45 37 46 37 46 38 45 38 47 38 46 39 47 39 48 39 48 40 47 40 49 40 48 41 49 41 50 41 50 42 49 42 51 42 51 43 49 43 52 43 51 44 52 44 53 44 53 45 52 45 54 45 53 46 54 46 55 46 55 47 54 47 56 47 55 48 56 48 57 48 57 49 56 49 58 49 57 50 58 50 59 50 59 51 58 51 60 51 59 52 60 52 61 52 61 53 60 53 62 53 61 54 62 54 63 54 63 55 62 55 64 55 63 56 64 56 65 56 66 57 67 57 14 57 14 58 67 58 68 58 14 59 68 59 15 59 15 60 68 60 69 60 15 61 69 61 70 61 70 62 69 62 71 62 70 63 71 63 72 63 72 64 71 64 25 64 72 65 25 65 23 65 67 66 66 66 73 66 73 67 66 67 35 67 73 68 35 68 74 68 74 68 35 68 33 68 74 69 33 69 31 69 39 70 37 70 75 70 75 71 37 71 76 71 75 72 76 72 77 72 77 73 76 73 78 73 77 74 78 74 79 74 79 75 78 75 80 75 79 76 80 76 81 76 81 77 80 77 82 77 81 78 82 78 83 78 83 79 82 79 56 79 83 80 56 80 54 80 76 81 84 81 78 81 78 82 84 82 85 82 78 83 85 83 80 83 80 84 85 84 86 84 80 85 86 85 82 85 82 86 86 86 58 86 82 87 58 87 56 87 85 88 84 88 87 88 87 89 84 89 64 89 87 90 64 90 62 90 63 91 65 91 61 91 61 92 65 92 88 92 61 93 88 93 59 93 59 94 88 94 57 94 51 95 53 95 88 95 88 96 53 96 55 96 88 97 55 97 57 97 48 98 50 98 89 98 89 99 50 99 90 99 89 100 90 100 91 100 91 101 90 101 92 101 91 102 92 102 93 102 93 103 92 103 94 103 93 104 94 104 95 104 95 105 94 105 96 105 95 106 96 106 97 106 97 107 96 107 98 107 97 108 98 108 99 108 99 109 98 109 32 109 99 110 32 110 34 110 90 111 100 111 92 111 92 112 100 112 101 112 92 113 101 113 94 113 94 114 101 114 102 114 94 115 102 115 96 115 96 116 102 116 103 116 96 117 103 117 98 117 98 118 103 118 30 118 98 119 30 119 32 119 22 120 104 120 100 120 100 121 104 121 105 121 100 122 105 122 101 122 101 123 105 123 102 123 22 124 16 124 20 124 20 125 16 125 106 125 20 126 106 126 18 126 18 127 106 127 16 127 104 128 22 128 24 128 68 129 67 129 107 129 107 130 67 130 73 130 107 131 73 131 108 131 108 132 73 132 74 132 108 133 74 133 31 133 19 134 17 134 70 134 70 135 17 135 15 135 30 136 103 136 28 136 28 137 103 137 109 137 28 138 109 138 26 138 26 139 109 139 104 139 26 140 104 140 24 140 72 141 23 141 21 141 25 142 71 142 27 142 27 143 71 143 110 143 27 144 110 144 29 144 29 145 110 145 108 145 29 146 108 146 31 146 39 147 75 147 41 147 41 148 75 148 111 148 41 149 111 149 43 149 43 150 111 150 112 150 43 151 112 151 45 151 45 152 112 152 113 152 45 153 113 153 47 153 47 154 113 154 114 154 47 155 114 155 49 155 49 156 114 156 52 156 42 157 115 157 116 157 116 158 115 158 95 158 116 159 95 159 97 159 95 160 115 160 93 160 93 161 115 161 117 161 93 162 117 162 91 162 91 163 117 163 89 163 117 164 115 164 44 164 44 165 115 165 42 165 42 166 116 166 40 166 40 167 116 167 118 167 40 168 118 168 38 168 38 169 118 169 36 169 118 170 116 170 97 170 77 171 79 171 111 171 111 172 79 172 112 172 113 173 112 173 81 173 81 174 112 174 79 174 117 175 44 175 46 175 48 176 89 176 46 176 46 38 89 38 117 38 75 177 77 177 111 177 85 178 87 178 86 178 86 179 87 179 60 179 86 180 60 180 58 180 62 181 60 181 87 181 113 182 81 182 83 182 113 183 83 183 114 183 114 184 83 184 54 184 114 185 54 185 52 185 104 186 109 186 105 186 105 187 109 187 102 187 109 188 103 188 102 188 36 189 118 189 99 189 99 190 118 190 97 190 70 191 72 191 19 191 19 192 72 192 21 192 107 193 108 193 110 193 107 194 110 194 69 194 69 195 110 195 71 195 107 196 69 196 68 196 36 197 99 197 34 197 119 198 120 198 121 198 121 199 120 199 122 199 121 200 122 200 123 200 123 201 122 201 120 201 123 202 120 202 124 202 124 203 120 203 125 203 124 204 125 204 126 204 126 205 125 205 127 205 126 206 127 206 128 206 128 207 127 207 129 207 128 208 129 208 130 208 129 209 127 209 119 209 119 210 127 210 125 210 119 211 125 211 120 211 131 212 132 212 130 212 130 213 132 213 133 213 130 214 133 214 134 214 134 215 133 215 135 215 134 216 135 216 136 216 136 217 135 217 137 217 136 218 137 218 138 218 138 219 137 219 139 219 138 220 139 220 140 220 140 221 139 221 141 221 140 222 141 222 142 222 142 223 141 223 123 223 142 224 123 224 124 224 143 225 144 225 131 225 131 226 144 226 145 226 131 227 145 227 146 227 146 228 145 228 147 228 146 229 147 229 148 229 148 230 147 230 149 230 148 231 149 231 150 231 150 232 149 232 151 232 150 233 151 233 152 233 152 234 151 234 153 234 152 235 153 235 154 235 154 236 153 236 141 236 154 237 141 237 139 237 155 238 156 238 143 238 143 239 156 239 157 239 143 240 157 240 144 240 144 241 157 241 158 241 144 242 158 242 159 242 159 243 158 243 160 243 159 244 160 244 161 244 161 245 160 245 162 245 161 246 162 246 163 246 163 247 162 247 164 247 163 248 164 248 153 248 165 249 166 249 155 249 155 250 166 250 167 250 155 251 167 251 156 251 156 251 167 251 168 251 156 252 168 252 169 252 169 253 168 253 170 253 169 254 170 254 171 254 171 255 170 255 172 255 171 256 172 256 173 256 173 257 172 257 174 257 173 258 174 258 164 258 175 259 176 259 165 259 165 260 176 260 177 260 165 261 177 261 178 261 178 262 177 262 179 262 178 263 179 263 180 263 180 264 179 264 181 264 180 265 181 265 182 265 182 266 181 266 183 266 182 267 183 267 184 267 184 268 183 268 185 268 184 269 185 269 186 269 186 270 185 270 174 270 186 271 174 271 172 271 187 272 188 272 175 272 175 273 188 273 189 273 175 274 189 274 176 274 176 275 189 275 188 275 176 276 188 276 190 276 190 277 188 277 191 277 190 278 191 278 192 278 192 279 191 279 193 279 192 280 193 280 194 280 194 281 193 281 187 281 194 282 187 282 185 282 141 283 121 283 123 283 128 284 130 284 195 284 195 285 130 285 134 285 195 286 134 286 136 286 131 287 146 287 132 287 132 288 146 288 148 288 132 289 148 289 196 289 196 290 148 290 150 290 196 291 150 291 197 291 197 292 150 292 152 292 197 293 152 293 154 293 153 235 151 235 163 235 163 294 151 294 149 294 163 295 149 295 161 295 161 296 149 296 147 296 161 297 147 297 159 297 159 298 147 298 145 298 159 299 145 299 144 299 164 300 162 300 173 300 173 301 162 301 160 301 173 302 160 302 171 302 171 303 160 303 158 303 171 304 158 304 169 304 169 305 158 305 157 305 169 306 157 306 156 306 194 307 185 307 183 307 165 308 178 308 166 308 166 309 178 309 180 309 166 310 180 310 198 310 198 311 180 311 182 311 198 312 182 312 199 312 199 313 182 313 184 313 199 314 184 314 186 314 132 315 196 315 133 315 133 316 196 316 135 316 154 317 139 317 137 317 196 318 197 318 135 318 135 319 197 319 137 319 197 320 154 320 137 320 138 321 140 321 200 321 200 322 140 322 142 322 200 323 142 323 124 323 136 324 138 324 201 324 201 325 138 325 200 325 201 326 200 326 126 326 126 327 200 327 124 327 168 328 167 328 198 328 198 329 167 329 166 329 170 330 168 330 199 330 199 331 168 331 198 331 172 332 170 332 186 332 186 333 170 333 199 333 176 334 190 334 177 334 177 335 190 335 179 335 194 336 183 336 181 336 190 337 192 337 179 337 179 338 192 338 181 338 192 339 194 339 181 339 188 340 187 340 191 340 191 341 187 341 193 341 128 342 195 342 201 342 201 343 195 343 136 343 128 344 201 344 126 344 202 4 187 4 203 4 203 4 187 4 175 4 203 4 175 4 204 4 205 6 88 6 206 6 206 6 88 6 65 6 206 6 65 6 207 6 208 2 209 2 210 2 210 2 209 2 211 2 210 345 121 345 208 345 208 346 121 346 66 346 211 347 129 347 210 347 210 348 129 348 119 348 210 348 119 348 121 348 211 349 209 349 129 349 129 349 209 349 16 349 209 350 208 350 16 350 16 351 208 351 14 351 14 352 208 352 66 352 2 2 175 2 0 2 0 2 175 2 88 2 0 2 88 2 205 2 12 2 204 2 2 2 2 2 204 2 175 2 205 2 13 2 0 2 88 353 175 353 51 353 51 354 175 354 165 354 51 355 165 355 50 355 50 355 165 355 155 355 50 356 155 356 90 356 90 353 155 353 143 353 90 357 143 357 100 357 100 358 143 358 131 358 100 359 131 359 22 359 22 356 131 356 130 356 22 356 130 356 16 356 16 353 130 353 129 353 65 360 64 360 187 360 187 361 64 361 185 361 185 362 64 362 84 362 185 362 84 362 174 362 174 363 84 363 76 363 174 364 76 364 164 364 164 365 76 365 37 365 164 366 37 366 153 366 153 367 37 367 35 367 153 368 35 368 141 368 141 369 35 369 66 369 141 370 66 370 121 370 187 3 202 3 65 3 65 3 202 3 207 3 202 371 203 371 207 371 207 371 203 371 206 371 6 349 203 349 4 349 4 349 203 349 204 349 4 349 204 349 12 349 13 349 205 349 6 349 6 349 205 349 206 349 6 349 206 349 203 349</p>
        </triangles>
      </mesh>
    </geometry>
    <geometry id="robotiq_3f_gripper_simplified_001-mesh" name="robotiq_3f_gripper_simplified.001">
      <mesh>
        <source id="robotiq_3f_gripper_simplified_001-mesh-positions">
          <float_array id="robotiq_3f_gripper_simplified_001-mesh-positions-array" count="636">-41.667 15.5 -10 -77.5 15.5 77 -41.667 -15.5 -10 -77.5 -15.5 77 -65 -15.5 -33.333 -96.15572 -15.5 77 -65 15.5 -33.333 -96.15572 15.5 77 -77.5 15.5 102 -83.5 15.5 102 -77.5 -15.5 102 -83.5 -15.5 102 -65 -15.5 -10 -65 15.5 -10 86.85 31 77 81.09141 32.0625 74.09896 77.5 31 77 79.91361 32.0625 74.14453 78.73581 32.0625 74.1901 77.63412 33.125 71.38021 76.44727 33.125 71.47135 75.33653 34.1875 68.70703 73.02084 35.25 66.125 74.22579 35.25 65.94271 73.11505 36.3125 63.17839 75.43074 35.25 65.76042 74.32904 36.3125 62.95052 76.63568 35.25 65.57813 75.54304 36.3125 62.72266 77.84063 35.25 65.39584 76.75704 36.3125 62.49479 82.66042 35.25 64.66667 81.61302 36.3125 61.58333 87.48021 35.25 63.9375 86.46901 36.3125 60.67188 92.30001 35.25 63.20833 85.45782 37.375 57.40625 88.4 39.5 49.41667 84.44662 38.4375 54.14063 83.43542 39.5 50.87501 78.47084 39.5 52.33333 76.37605 41.625 46.16667 71.33908 41.625 47.98958 69.17189 43.75 42.1875 67.89454 43.75 42.73438 65.70926 45.875 37.02344 64.41382 45.875 37.66146 62.21043 48 32.04167 60.89689 48 32.77083 56.45392 52.25 21.71354 59.58335 48 33.5 50.62503 56.5 11.75 52.01096 56.5 10.65625 47.568 60.75 -0.4010398 53.3969 56.5 9.562503 48.99013 60.75 -1.67708 54.78283 56.5 8.468755 50.41226 60.75 -2.953119 56.16877 56.5 7.375006 51.8344 60.75 -4.229159 61.71251 56.5 3.000012 57.52293 60.75 -9.333319 67.25626 56.5 -1.374981 63.21146 60.75 -14.43748 72.80001 56.5 -5.749975 65 65 -33.3333 96.2 31 77 90.5138 32.0625 73.73438 85.80261 32.0625 73.91667 80.00782 33.125 71.19792 78.82097 33.125 71.28907 77.72833 34.1875 68.4336 76.53243 34.1875 68.57032 89.5026 33.125 70.46875 88.49141 34.1875 67.20313 81.41303 41.625 44.34376 84.5 43.75 35.62501 79.39063 43.75 37.81251 77.36824 45.875 31.28126 72.18647 45.875 33.83334 70.09168 48 27.66668 64.83751 48 30.58334 60.50314 52.25 18.97917 59.1534 52.25 19.89063 80.6 48 21.83335 75.34584 48 24.75001 65.90209 52.25 15.33334 71.30105 52.25 11.68752 41.6667 65 -10 63.11837 45.875 38.29948 64.06252 43.75 44.375 65.33986 43.75 43.82812 67.56134 41.625 49.35677 68.82058 41.625 48.90104 71.02397 39.5 54.52083 72.26512 39.5 54.15625 73.35775 38.4375 57.01172 74.58985 38.4375 56.69271 75.67344 37.375 59.59375 80.56563 37.375 58.5 68.54167 39.5 55.25 69.78282 39.5 54.88542 72.12566 38.4375 57.33073 74.4504 37.375 59.86719 72.00431 37.375 60.41406 70.89356 38.4375 57.64974 77.55801 32.0625 74.23568 84.75521 33.125 70.83334 83.70782 34.1875 67.75 73.22735 37.375 60.14062 78.92423 34.1875 68.29688 74.28126 43.75 40.00001 67.0047 45.875 36.38542 63.52397 48 31.3125 57.80366 52.25 20.80209 70.07983 41.625 48.44532 73.50626 39.5 53.79167 66.6172 43.75 43.28125 79.51824 38.4375 55.41667 86.85 -31 77 90.5138 -32.0625 73.73438 96.2 -31 77 92.8694 -32.0625 73.64323 91.87631 -33.125 70.28646 89.5026 -33.125 70.46875 85.80261 -32.0625 73.91667 84.75521 -33.125 70.83334 81.09141 -32.0625 74.09896 80.00782 -33.125 71.19792 77.5 -31 77 73.02084 -35.25 66.125 68.54167 -39.5 55.25 75.67344 -37.375 59.59375 76.75704 -36.3125 62.49479 77.84063 -35.25 65.39584 81.61302 -36.3125 61.58333 82.66042 -35.25 64.66667 86.46901 -36.3125 60.67188 87.48021 -35.25 63.9375 88.89701 -36.3125 60.21615 89.89011 -35.25 63.57292 92.30001 -35.25 63.20833 90.8832 -34.1875 66.92969 64.06252 -43.75 44.375 71.33908 -41.625 47.98958 73.50626 -39.5 53.79167 74.58985 -38.4375 56.69271 78.47084 -39.5 52.33333 79.51824 -38.4375 55.41667 83.43542 -39.5 50.87501 84.44662 -38.4375 54.14063 85.91771 -39.5 50.14584 86.91081 -38.4375 53.50261 88.4 -39.5 49.41667 87.90391 -37.375 56.85938 59.58335 -48 33.5 67.0047 -45.875 36.38542 69.17189 -43.75 42.1875 74.28126 -43.75 40.00001 76.37605 -41.625 46.16667 79.39063 -43.75 37.81251 81.41303 -41.625 44.34376 81.94532 -43.75 36.71876 83.93151 -41.625 43.4323 84.5 -43.75 35.62501 50.62503 -56.5 11.75 60.50314 -52.25 18.97917 64.83751 -48 30.58334 70.09168 -48 27.66668 72.18647 -45.875 33.83334 75.34584 -48 24.75001 77.36824 -45.875 31.28126 77.97292 -48 23.29168 79.95912 -45.875 30.00522 80.6 -48 21.83335 41.6667 -65 -10 51.8344 -60.75 -4.229159 54.00158 -58.625 1.572923 56.16877 -56.5 7.375006 59.61772 -58.625 -3.166653 61.71251 -56.5 3.000012 65.23387 -58.625 -7.906229 67.25626 -56.5 -1.374981 68.04193 -58.625 -10.27602 70.02813 -56.5 -3.562478 72.80001 -56.5 -5.749975 74.00053 -52.25 9.864602 65 -65 -33.3333 55.42814 -62.875 -15.49998 49.66721 -62.875 -10.03124 57.52293 -60.75 -9.333319 61.18907 -62.875 -20.96873 63.21146 -60.75 -14.43748 64.06954 -62.875 -23.7031 66.05574 -60.75 -16.98956 78.92423 -34.1875 68.29688 80.56563 -37.375 58.5 85.45782 -37.375 57.40625 65.90209 -52.25 15.33334 71.30105 -52.25 11.68752 88.49141 -34.1875 67.20313 83.70782 -34.1875 67.75 65 -65 -102 -65 -65 -102 -65 -65 -10 -65 65 -10 -65 65 -102 65 65 -102 83.5 26 102 77.5 26 102 83.5 -26 102 77.5 -26 102</float_array>
          <technique_common>
            <accessor source="#robotiq_3f_gripper_simplified_001-mesh-positions-array" count="212" stride="3">
              <param name="X" type="float"/>
              <param name="Y" type="float"/>
              <param name="Z" type="float"/>
            </accessor>
          </technique_common>
        </source>
        <source id="robotiq_3f_gripper_simplified_001-mesh-normals">
          <float_array id="robotiq_3f_gripper_simplified_001-mesh-normals-array" count="1116">0.9246428 0 0.3808359 -0.9623672 0 -0.2717522 0 0 1 1 0 0 0 -1 0 -0.8921933 0 0.4516538 0 1 0 0 0.9390032 0.3439084 0.01388907 0.9332376 0.3589913 0.01388913 0.933237 0.3589928 0.01350325 0.9370174 0.3490217 0.02645146 0.9384239 0.344472 0.0268172 0.9366508 0.3492367 0.05146855 0.9389391 0.3402122 0.05146765 0.9389392 0.3402125 0.05147212 0.9389386 0.3402132 0.05147159 0.9389398 0.3402099 0.06223088 0.9413787 0.3315621 0.05079233 0.9405827 0.3357446 0.06144189 0.9429076 0.327338 0.05013287 0.9421627 0.3313854 0.06066864 0.9443771 0.3232201 0.04949057 0.9436807 0.3271353 0.05774635 0.9497425 0.3076601 0.04706633 0.9492095 0.3111047 0.05508142 0.9543827 0.2934619 0.0448563 0.95398 0.2964966 0.04485636 0.9539799 0.2964971 0.06211632 0.9586173 0.2778391 0.0836566 0.9549326 0.2847899 0.08365702 0.9549321 0.2847917 0.08365654 0.9549322 0.2847915 0.08749264 0.9505951 0.2978489 0.1055775 0.9506577 0.2917249 0.110444 0.9458718 0.3051702 0.1278535 0.9457664 0.2986294 0.1292853 0.9445092 0.3019735 0.1455897 0.9441508 0.295606 0.147176 0.9428888 0.298831 0.1624435 0.9423272 0.2926293 0.1641699 0.9410556 0.295741 0.1641702 0.9410554 0.2957414 0.1937125 0.9381825 0.2868611 0.2158663 0.9373268 0.2735327 0.2158663 0.9373261 0.2735353 0.2158672 0.9373259 0.2735353 0.2349439 0.9360772 0.2618414 0.2138814 0.9385113 0.2710191 0.2329294 0.937205 0.2595975 0.2119305 0.9396638 0.268547 0.2309479 0.9383037 0.2573892 0.210013 0.9407851 0.2661166 0.2233257 0.9424318 0.2488936 0.2026556 0.9449805 0.2567931 0.216162 0.9461691 0.240911 0.1957682 0.948756 0.2480663 0.2094188 0.9495633 0.2333955 0 0.9509336 0.3093953 0.0124582 0.9466639 0.3219822 0.01245921 0.9466636 0.3219829 0.01313883 0.9404976 0.3395465 0.02575153 0.9417597 0.3352994 0.02609884 0.9401269 0.339824 0.03836107 0.94124 0.3355528 0.03887546 0.9396021 0.3400542 0.05079591 0.9405829 0.3357437 0 0.9509339 0.3093941 0.02217054 0.9571662 0.2886889 0.04485535 0.9539802 0.2964961 0.04485636 0.9539798 0.296497 0.08365625 0.954932 0.2847919 0.09697544 0.9585376 0.2679578 0.1173934 0.9544814 0.2741975 0.1173932 0.9544812 0.2741979 0.1326271 0.9538841 0.2692867 0.1381068 0.9498922 0.2804131 0.1527612 0.9491761 0.2751887 0.1590901 0.944752 0.2865903 0.1862469 0.9429981 0.275802 0.1880625 0.9418459 0.2784942 0.2119315 0.9396629 0.2685493 0.127546 0.9574269 0.2589706 0.146892 0.953101 0.2646151 0.1468914 0.9531012 0.2646152 0.1527611 0.949176 0.2751889 0.1793023 0.9472852 0.2655211 0.1862464 0.9429975 0.2758044 0.2100127 0.9407849 0.266117 0.1468914 0.9531015 0.264614 0.1667881 0.9545564 0.2469897 0.1957689 0.9487556 0.2480672 0.2094193 0.9495632 0.2333952 0.2417225 0.9397556 0.2417225 0.2390689 0.9337323 0.2664399 0.239069 0.9337322 0.26644 0.2390688 0.933732 0.2664409 0.2390686 0.9337328 0.2664383 0.239068 0.9337326 0.2664396 0.1641709 0.9410548 0.2957428 0.1504529 0.9402369 0.305481 0.1322417 0.9418633 0.3088781 0.1322419 0.9418629 0.3088794 0.1143794 0.9418252 0.3160424 0.1130378 0.9432216 0.3123388 0.09391033 0.9428536 0.3196999 0.0927816 0.9442621 0.3158492 0.08274108 0.9439422 0.3195735 0.08173751 0.945334 0.315694 0.0714088 0.9449241 0.3194047 0.06803297 0.9501422 0.304305 0.05774742 0.9497431 0.3076581 0.1157476 0.9403778 0.3198315 0.09506845 0.9413934 0.3236361 0.0950669 0.9413936 0.3236364 0.09391248 0.9428538 0.319699 0.08376932 0.9424982 0.3235431 0.08274322 0.943944 0.3195673 0.07230281 0.9434956 0.3234013 0.07140904 0.9449251 0.3194018 0.06066733 0.9443792 0.3232144 0.07511377 0.9388712 0.3359745 0.09506881 0.9413937 0.3236354 0.0950669 0.9413933 0.3236371 0.08482044 0.9410005 0.3276031 0.027197 0.9348027 0.3541247 -4.40844e-6 0.9334262 0.3587697 0.01369786 0.9351677 0.3539403 0.0138936 0.933236 0.3589954 0.05146402 0.9389388 0.3402138 0.01245826 0.9466632 0.3219839 0.02325367 0.9527726 0.3027932 0.02444195 0.9476868 0.3182647 0.03425186 0.9534478 0.2996066 0.0359705 0.94853 0.3146382 0.02609878 0.9401256 0.3398277 0.01331758 0.9387939 0.3442219 0.0614385 0.942907 0.3273405 0.07230293 0.9434967 0.3233982 0.06223475 0.9413785 0.3315621 0.07321774 0.9420122 0.3274937 0.06304705 0.9397897 0.3358875 0.03940296 0.9378986 0.3446643 0.05013269 0.9421623 0.3313864 0.03836125 0.941241 0.3355503 0.04948943 0.9436805 0.3271362 0.03785955 0.9428141 0.3311622 0.04706555 0.9492093 0.3111053 0.1011027 0.954848 0.2793628 0.1055778 0.9506567 0.2917281 0.1224122 0.9504022 0.2859216 0.1278531 0.9457664 0.2986294 0.1440329 0.9453743 0.2924417 0.1455887 0.9441524 0.2956014 0.1607496 0.943559 0.2895792 0.1624431 0.9423274 0.2926285 0.1899102 0.9406613 0.2812304 0.1917957 0.9394394 0.2840215 0.110444 0.9458713 0.3051719 0.09277909 0.9442625 0.3158487 0.09167724 0.9456191 0.3120899 0.1117269 0.9445691 0.3087176 0.1130385 0.9432209 0.3123409 0.1307477 0.9432091 0.3053877 0.1322436 0.9418612 0.3088835 0.1292843 0.9445081 0.301977 0.1117244 0.9445705 0.308714 0.09167534 0.945619 0.3120906 0.08749258 0.9505951 0.297849 0.0779426 0.9504231 0.3010334 0.07446658 0.9548484 0.2876099 0.08173799 0.9453341 0.3156935 0.1224125 0.9504023 0.285921 0.1381068 0.9498921 0.2804134 0.1590892 0.9447529 0.286588 0.1440317 0.945374 0.2924433 0.1307468 0.9432092 0.3053877 0.1487972 0.9415853 0.3021202 0.1173937 0.9544812 0.2741976 0.1728309 0.9511179 0.2559379 0.1793019 0.9472854 0.2655209 0.2026557 0.9449802 0.2567939 0.1957683 0.9487556 0.2480678 0.1607508 0.9435581 0.2895813 0.1880616 0.9418459 0.2784944 0.1899099 0.9406614 0.2812301 0.213882 0.938511 0.2710195 0.07415419 0.940473 0.3316803 0.08376961 0.9424977 0.3235442 0.07321786 0.9420114 0.3274963 0.06803345 0.9501425 0.3043037 0.07794338 0.9504225 0.3010348 0.02645546 0.9384249 0.3444691 0.03887552 0.939604 0.3400486 0.0359705 0.9485299 0.3146383 0.02574902 0.9417595 0.3353 0.03785961 0.9428126 0.3311663 0.02444106 0.9476867 0.3182653 0.064947 0.9546684 0.2904998 0 -0.9509336 0.3093953 0.01128184 -0.9564872 0.2915564 -1.85402e-6 -0.9533807 0.3017702 0.01155596 -0.9542957 0.2986409 0.02325284 -0.9527722 0.3027947 0.01184195 -0.9519401 0.3060551 0.02444195 -0.9476867 0.3182651 0.01245921 -0.9466637 0.3219825 0.02574914 -0.9417598 0.3352993 -1.05646e-6 -0.9390034 0.3439081 0.02719587 -0.9348028 0.3541245 0 -0.9390032 0.3439084 0.01245921 -0.9466636 0.3219829 0.0124582 -0.9466639 0.3219822 0.07511442 -0.9388704 0.3359766 0.04948955 -0.9436808 0.3271351 0.04949152 -0.9436811 0.3271342 0.06066638 -0.9443779 0.3232185 0.04706519 -0.9492102 0.3111026 0.05774736 -0.949742 0.3076614 0.04485535 -0.9539805 0.2964953 0.05508303 -0.9543825 0.2934622 0.04382199 -0.9561228 0.2896704 0.04382371 -0.9561229 0.2896696 0.04382395 -0.9561217 0.2896739 0.04382199 -0.9561225 0.2896716 0.02269881 -0.9550487 0.2955786 0.1157484 -0.9403781 0.3198306 0.09167534 -0.9456196 0.3120887 0.09167557 -0.9456199 0.3120876 0.09167486 -0.9456199 0.3120881 0.07794237 -0.9504233 0.3010327 0.08749258 -0.9505947 0.2978505 0.07446652 -0.954849 0.2876079 0.08365738 -0.9549322 0.2847913 0.07283687 -0.9568471 0.2813156 0.08185684 -0.9568945 0.2786618 0.08185583 -0.9568944 0.2786626 0.06211692 -0.9586169 0.2778403 0.04382163 -0.9561226 0.2896709 0.150453 -0.9402369 0.3054808 0.1278537 -0.9457666 0.2986289 0.1278532 -0.9457665 0.2986289 0.1278533 -0.9457665 0.2986289 0.1055784 -0.9506567 0.2917279 0.1224127 -0.9504023 0.2859203 0.1011027 -0.9548482 0.2793621 0.1173934 -0.9544814 0.2741975 0.09899693 -0.9567512 0.2735449 0.1150286 -0.9563383 0.2686739 0.09697598 -0.958537 0.2679601 0.1937124 -0.9381827 0.2868604 0.1590903 -0.9447521 0.2865898 0.1590903 -0.944752 0.2865903 0.1381069 -0.9498921 0.2804136 0.1527609 -0.9491763 0.2751883 0.1326268 -0.9538841 0.2692868 0.1468919 -0.9531012 0.2646148 0.1300396 -0.9557075 0.2640323 0.1441154 -0.9548987 0.2596139 0.1275461 -0.957427 0.2589703 0.2390688 -0.9337324 0.2664397 0.2100131 -0.9407849 0.2661171 0.2100129 -0.9407854 0.2661158 0.2208039 -0.9395692 0.2616399 0.2026559 -0.9449802 0.2567937 0.2132979 -0.9437283 0.252747 0.1957689 -0.9487558 0.2480666 0.2062574 -0.9474835 0.244403 0.1924878 -0.9505035 0.243909 0.1924883 -0.9505034 0.243909 0.1924873 -0.9505036 0.243909 0.166789 -0.9545558 0.2469913 0.1441147 -0.9548991 0.2596126 0.2417227 -0.9397555 0.2417227 0.2486963 -0.932478 0.2619831 0.2494994 -0.9356817 0.2494993 0.2404966 -0.9370043 0.2533465 0.2233253 -0.9424318 0.2488939 0.2327849 -0.9411041 0.2452229 0.2161622 -0.9461692 0.2409107 0.225525 -0.9448266 0.2375738 0.2127395 -0.9479071 0.2370952 0.2308756 -0.9451948 0.2308753 0.2094182 -0.9495634 0.2333953 0.02217048 -0.9571667 0.2886874 0.04949057 -0.9436808 0.3271351 0.04949057 -0.9436801 0.3271373 0.0494908 -0.9436808 0.3271348 0.0916748 -0.9456197 0.3120886 0.08173888 -0.9453338 0.3156939 0.06803345 -0.9501423 0.3043045 0.07794255 -0.9504225 0.301035 0.06494694 -0.954669 0.2904981 0.07446759 -0.9548485 0.287609 0.06350213 -0.9567083 0.2840363 0.08185774 -0.9568939 0.2786637 0.1011024 -0.9548481 0.2793626 0.08365678 -0.9549322 0.2847914 0.1055778 -0.950657 0.2917274 0.0874924 -0.9505954 0.2978484 0.1104431 -0.9458715 0.3051713 0.1150279 -0.9563387 0.2686724 0.1150278 -0.9563383 0.2686739 0.1326264 -0.9538843 0.2692861 0.1173939 -0.9544808 0.2741987 0.1381068 -0.9498919 0.2804139 0.1224124 -0.9504024 0.2859205 0.1440312 -0.945374 0.2924433 0.1924868 -0.9505036 0.2439096 0.2100132 -0.9407849 0.2661171 0.210013 -0.9407851 0.2661166 0.1793025 -0.9472851 0.2655212 0.2026555 -0.9449803 0.2567937 0.1728306 -0.9511181 0.255938 0.1957687 -0.9487558 0.2480669 0.1697582 -0.9528829 0.2513886 0.07140928 -0.9449246 0.3194029 0.057747 -0.9497424 0.3076599 0.05383479 -0.9564709 0.2868193 0.06803345 -0.9501426 0.3043033 0.05508232 -0.9543829 0.293461 0.06494718 -0.9546689 0.2904979 0.04485428 -0.9539803 0.2964959 0.03345 -0.9556524 0.2925913 0.0342521 -0.9534471 0.299609 0.04706633 -0.9492096 0.3111046 0.03425198 -0.9534476 0.2996072 0.0359705 -0.9485294 0.3146399 0.02325367 -0.9527731 0.3027915 0.1527606 -0.9491765 0.2751877 0.1862467 -0.9429973 0.275805 0.1468922 -0.9531008 0.2646163 0.179302 -0.9472854 0.2655209 0.1441153 -0.9548992 0.2596119 0.1728299 -0.9511184 0.255937 0.2309474 -0.938304 0.2573885 0.2132984 -0.9437283 0.2527467 0.2029012 -0.9492242 0.2404261 0.2233254 -0.9424318 0.2488939 0.2062578 -0.9474833 0.2444042 0.2161607 -0.9461695 0.2409104 0.2186774 -0.9482164 0.2303605 0.2186784 -0.9482158 0.2303618 0.03785938 -0.9428139 0.3311624 0.03597062 -0.948529 0.314641 0.024441 -0.9476864 0.318266 0.8915562 0 0.4529104 0.891556 0 0.4529104 0 -0.9805807 0.1961161 0 -0.9805808 0.1961159 -1 0 0 0 0.9805807 0.1961161 0 0.9805807 0.196116 0 0.9805808 0.1961159 -0.9246415 0 0.3808387 -0.9246416 0 0.3808387 -0.9246416 0 0.3808386 -0.9246416 0 0.3808388 -0.9246418 0 0.3808382 -0.9246418 0 0.3808382 -0.9246415 0 0.3808387 0.9622663 0 -0.2721093 0.9622664 0 -0.2721094 0.9622665 0 -0.2721091 0.9622663 0 -0.2721094 0.9622665 0 -0.2721092 0.9622664 0 -0.2721093 0.9622664 0 -0.2721092 0.9622664 0 -0.2721094 0.9622663 0 -0.2721095 0.9622665 0 -0.2721086 0.9622665 0 -0.2721089 0 0 -1</float_array>
          <technique_common>
            <accessor source="#robotiq_3f_gripper_simplified_001-mesh-normals-array" count="372" stride="3">
              <param name="X" type="float"/>
              <param name="Y" type="float"/>
              <param name="Z" type="float"/>
            </accessor>
          </technique_common>
        </source>
        <vertices id="robotiq_3f_gripper_simplified_001-mesh-vertices">
          <input semantic="POSITION" source="#robotiq_3f_gripper_simplified_001-mesh-positions"/>
        </vertices>
        <triangles count="420">
          <input semantic="VERTEX" source="#robotiq_3f_gripper_simplified_001-mesh-vertices" offset="0"/>
          <input semantic="NORMAL" source="#robotiq_3f_gripper_simplified_001-mesh-normals" offset="1"/>
          <p>0 0 1 0 2 0 2 0 1 0 3 0 4 1 5 1 6 1 6 1 5 1 7 1 8 2 9 2 10 2 10 2 9 2 11 2 10 3 3 3 8 3 8 3 3 3 1 3 10 4 11 4 3 4 3 4 11 4 5 4 3 4 5 4 12 4 12 4 5 4 4 4 12 4 2 4 3 4 9 5 7 5 11 5 11 5 7 5 5 5 8 6 1 6 9 6 9 6 1 6 7 6 7 6 1 6 13 6 7 6 13 6 6 6 1 6 0 6 13 6 14 7 15 7 16 7 16 8 15 8 17 8 16 9 17 9 18 9 18 10 17 10 19 10 18 11 19 11 20 11 20 12 19 12 21 12 20 13 21 13 22 13 22 14 21 14 23 14 22 15 23 15 24 15 24 16 23 16 25 16 24 17 25 17 26 17 26 18 25 18 27 18 26 19 27 19 28 19 28 20 27 20 29 20 28 21 29 21 30 21 30 22 29 22 31 22 30 23 31 23 32 23 32 24 31 24 33 24 32 25 33 25 34 25 34 26 33 26 35 26 34 27 35 27 36 27 36 28 35 28 37 28 36 29 37 29 38 29 38 30 37 30 39 30 38 31 39 31 40 31 40 32 39 32 41 32 40 33 41 33 42 33 42 34 41 34 43 34 42 35 43 35 44 35 44 36 43 36 45 36 44 37 45 37 46 37 46 38 45 38 47 38 46 39 47 39 48 39 48 40 47 40 49 40 48 41 49 41 50 41 50 42 49 42 51 42 51 43 49 43 52 43 51 44 52 44 53 44 53 45 52 45 54 45 53 46 54 46 55 46 55 47 54 47 56 47 55 48 56 48 57 48 57 49 56 49 58 49 57 50 58 50 59 50 59 51 58 51 60 51 59 52 60 52 61 52 61 53 60 53 62 53 61 54 62 54 63 54 63 55 62 55 64 55 63 56 64 56 65 56 66 57 67 57 14 57 14 58 67 58 68 58 14 59 68 59 15 59 15 60 68 60 69 60 15 61 69 61 70 61 70 62 69 62 71 62 70 63 71 63 72 63 72 64 71 64 25 64 72 65 25 65 23 65 67 66 66 66 73 66 73 67 66 67 35 67 73 68 35 68 74 68 74 68 35 68 33 68 74 69 33 69 31 69 39 70 37 70 75 70 75 71 37 71 76 71 75 72 76 72 77 72 77 73 76 73 78 73 77 74 78 74 79 74 79 75 78 75 80 75 79 76 80 76 81 76 81 77 80 77 82 77 81 78 82 78 83 78 83 79 82 79 56 79 83 80 56 80 54 80 76 81 84 81 78 81 78 82 84 82 85 82 78 83 85 83 80 83 80 84 85 84 86 84 80 85 86 85 82 85 82 86 86 86 58 86 82 87 58 87 56 87 85 88 84 88 87 88 87 89 84 89 64 89 87 90 64 90 62 90 63 91 65 91 61 91 61 92 65 92 88 92 61 93 88 93 59 93 59 94 88 94 57 94 51 95 53 95 88 95 88 96 53 96 55 96 88 97 55 97 57 97 48 98 50 98 89 98 89 99 50 99 90 99 89 100 90 100 91 100 91 101 90 101 92 101 91 102 92 102 93 102 93 103 92 103 94 103 93 104 94 104 95 104 95 105 94 105 96 105 95 106 96 106 97 106 97 107 96 107 98 107 97 108 98 108 99 108 99 109 98 109 32 109 99 110 32 110 34 110 90 111 100 111 92 111 92 112 100 112 101 112 92 113 101 113 94 113 94 114 101 114 102 114 94 115 102 115 96 115 96 116 102 116 103 116 96 117 103 117 98 117 98 118 103 118 30 118 98 119 30 119 32 119 22 120 104 120 100 120 100 121 104 121 105 121 100 122 105 122 101 122 101 123 105 123 102 123 22 124 16 124 20 124 20 125 16 125 106 125 20 126 106 126 18 126 18 127 106 127 16 127 104 128 22 128 24 128 68 129 67 129 107 129 107 130 67 130 73 130 107 131 73 131 108 131 108 132 73 132 74 132 108 133 74 133 31 133 19 134 17 134 70 134 70 135 17 135 15 135 30 136 103 136 28 136 28 137 103 137 109 137 28 138 109 138 26 138 26 139 109 139 104 139 26 140 104 140 24 140 72 141 23 141 21 141 25 142 71 142 27 142 27 143 71 143 110 143 27 144 110 144 29 144 29 145 110 145 108 145 29 146 108 146 31 146 39 147 75 147 41 147 41 148 75 148 111 148 41 149 111 149 43 149 43 150 111 150 112 150 43 151 112 151 45 151 45 152 112 152 113 152 45 153 113 153 47 153 47 154 113 154 114 154 47 155 114 155 49 155 49 156 114 156 52 156 42 157 115 157 116 157 116 158 115 158 95 158 116 159 95 159 97 159 95 160 115 160 93 160 93 161 115 161 117 161 93 162 117 162 91 162 91 163 117 163 89 163 117 164 115 164 44 164 44 165 115 165 42 165 42 166 116 166 40 166 40 167 116 167 118 167 40 168 118 168 38 168 38 169 118 169 36 169 118 170 116 170 97 170 77 171 79 171 111 171 111 172 79 172 112 172 113 173 112 173 81 173 81 174 112 174 79 174 117 175 44 175 46 175 48 176 89 176 46 176 46 38 89 38 117 38 75 177 77 177 111 177 85 178 87 178 86 178 86 179 87 179 60 179 86 180 60 180 58 180 62 181 60 181 87 181 113 182 81 182 83 182 113 183 83 183 114 183 114 184 83 184 54 184 114 185 54 185 52 185 104 186 109 186 105 186 105 187 109 187 102 187 109 188 103 188 102 188 36 189 118 189 99 189 99 190 118 190 97 190 70 191 72 191 19 191 19 192 72 192 21 192 107 193 108 193 110 193 107 194 110 194 69 194 69 195 110 195 71 195 107 196 69 196 68 196 36 197 99 197 34 197 119 198 120 198 121 198 121 199 120 199 122 199 121 200 122 200 123 200 123 201 122 201 120 201 123 202 120 202 124 202 124 203 120 203 125 203 124 204 125 204 126 204 126 205 125 205 127 205 126 206 127 206 128 206 128 207 127 207 129 207 128 208 129 208 130 208 129 209 127 209 119 209 119 210 127 210 125 210 119 211 125 211 120 211 131 212 132 212 130 212 130 213 132 213 133 213 130 214 133 214 134 214 134 215 133 215 135 215 134 216 135 216 136 216 136 217 135 217 137 217 136 218 137 218 138 218 138 219 137 219 139 219 138 220 139 220 140 220 140 221 139 221 141 221 140 222 141 222 142 222 142 223 141 223 123 223 142 224 123 224 124 224 143 225 144 225 131 225 131 226 144 226 145 226 131 227 145 227 146 227 146 228 145 228 147 228 146 229 147 229 148 229 148 230 147 230 149 230 148 231 149 231 150 231 150 232 149 232 151 232 150 233 151 233 152 233 152 234 151 234 153 234 152 235 153 235 154 235 154 236 153 236 141 236 154 237 141 237 139 237 155 238 156 238 143 238 143 239 156 239 157 239 143 240 157 240 144 240 144 241 157 241 158 241 144 242 158 242 159 242 159 243 158 243 160 243 159 244 160 244 161 244 161 245 160 245 162 245 161 246 162 246 163 246 163 247 162 247 164 247 163 248 164 248 153 248 165 249 166 249 155 249 155 250 166 250 167 250 155 251 167 251 156 251 156 251 167 251 168 251 156 252 168 252 169 252 169 253 168 253 170 253 169 254 170 254 171 254 171 255 170 255 172 255 171 256 172 256 173 256 173 257 172 257 174 257 173 258 174 258 164 258 175 259 176 259 165 259 165 260 176 260 177 260 165 261 177 261 178 261 178 262 177 262 179 262 178 263 179 263 180 263 180 264 179 264 181 264 180 265 181 265 182 265 182 266 181 266 183 266 182 267 183 267 184 267 184 268 183 268 185 268 184 269 185 269 186 269 186 270 185 270 174 270 186 271 174 271 172 271 187 272 188 272 175 272 175 273 188 273 189 273 175 274 189 274 176 274 176 275 189 275 188 275 176 276 188 276 190 276 190 277 188 277 191 277 190 278 191 278 192 278 192 279 191 279 193 279 192 280 193 280 194 280 194 281 193 281 187 281 194 282 187 282 185 282 141 283 121 283 123 283 128 284 130 284 195 284 195 285 130 285 134 285 195 286 134 286 136 286 131 287 146 287 132 287 132 288 146 288 148 288 132 289 148 289 196 289 196 290 148 290 150 290 196 291 150 291 197 291 197 292 150 292 152 292 197 293 152 293 154 293 153 235 151 235 163 235 163 294 151 294 149 294 163 295 149 295 161 295 161 296 149 296 147 296 161 297 147 297 159 297 159 298 147 298 145 298 159 299 145 299 144 299 164 300 162 300 173 300 173 301 162 301 160 301 173 302 160 302 171 302 171 303 160 303 158 303 171 304 158 304 169 304 169 305 158 305 157 305 169 306 157 306 156 306 194 307 185 307 183 307 165 308 178 308 166 308 166 309 178 309 180 309 166 310 180 310 198 310 198 311 180 311 182 311 198 312 182 312 199 312 199 313 182 313 184 313 199 314 184 314 186 314 132 315 196 315 133 315 133 316 196 316 135 316 154 317 139 317 137 317 196 318 197 318 135 318 135 319 197 319 137 319 197 320 154 320 137 320 138 321 140 321 200 321 200 322 140 322 142 322 200 323 142 323 124 323 136 324 138 324 201 324 201 325 138 325 200 325 201 326 200 326 126 326 126 327 200 327 124 327 168 328 167 328 198 328 198 329 167 329 166 329 170 330 168 330 199 330 199 331 168 331 198 331 172 332 170 332 186 332 186 333 170 333 199 333 176 334 190 334 177 334 177 335 190 335 179 335 194 336 183 336 181 336 190 337 192 337 179 337 179 338 192 338 181 338 192 339 194 339 181 339 188 340 187 340 191 340 191 341 187 341 193 341 128 342 195 342 201 342 201 343 195 343 136 343 128 344 201 344 126 344 202 4 187 4 203 4 203 4 187 4 175 4 203 4 175 4 204 4 205 6 88 6 206 6 206 6 88 6 65 6 206 6 65 6 207 6 208 2 209 2 210 2 210 2 209 2 211 2 210 345 121 345 208 345 208 346 121 346 66 346 211 347 129 347 210 347 210 348 129 348 119 348 210 348 119 348 121 348 211 349 209 349 129 349 129 349 209 349 16 349 209 350 208 350 16 350 16 351 208 351 14 351 14 352 208 352 66 352 2 2 175 2 0 2 0 2 175 2 88 2 0 2 88 2 205 2 12 2 204 2 2 2 2 2 204 2 175 2 205 2 13 2 0 2 88 353 175 353 51 353 51 354 175 354 165 354 51 355 165 355 50 355 50 355 165 355 155 355 50 356 155 356 90 356 90 353 155 353 143 353 90 357 143 357 100 357 100 358 143 358 131 358 100 359 131 359 22 359 22 356 131 356 130 356 22 356 130 356 16 356 16 353 130 353 129 353 65 360 64 360 187 360 187 361 64 361 185 361 185 362 64 362 84 362 185 362 84 362 174 362 174 363 84 363 76 363 174 364 76 364 164 364 164 365 76 365 37 365 164 366 37 366 153 366 153 367 37 367 35 367 153 368 35 368 141 368 141 369 35 369 66 369 141 370 66 370 121 370 187 3 202 3 65 3 65 3 202 3 207 3 202 371 203 371 207 371 207 371 203 371 206 371 6 349 203 349 4 349 4 349 203 349 204 349 4 349 204 349 12 349 13 349 205 349 6 349 6 349 205 349 206 349 6 349 206 349 203 349</p>
        </triangles>
      </mesh>
    </geometry>
  </library_geometries>
  <library_visual_scenes>
    <visual_scene id="Scene" name="Scene">
      <node id="robotiq_3f_gripper_simplified_c1" name="robotiq_3f_gripper_simplified_c1" type="NODE">
        <matrix sid="transform">0.001 0 0 0 0 0.001 0 0 0 0 0.001 0 0 0 0 1</matrix>
        <instance_geometry url="#robotiq_3f_gripper_simplified_c1-mesh" name="robotiq_3f_gripper_simplified_c1"/>
      </node>
      <node id="robotiq_3f_gripper_simplified" name="robotiq_3f_gripper_simplified" type="NODE">
        <matrix sid="transform">0.001 0 0 0 0 0.001 0 0 0 0 0.001 0 0 0 0 1</matrix>
        <instance_geometry url="#robotiq_3f_gripper_simplified_001-mesh" name="robotiq_3f_gripper_simplified"/>
      </node>
    </visual_scene>
  </library_visual_scenes>
  <scene>
    <instance_visual_scene url="#Scene"/>
  </scene>
</COLLADA>