Waypoint,j0,j1,j2,j3,j4,j5
0,0,-1.5708,0,-1.5708,0,0
1,0.111247,-0.727206,1.15069,-3.56497,-0.0557485,0.785294
2,0.118008,-0.706592,1.11187,-3.54315,-0.042227,0.781678
3,0.124822,-0.686012,1.07273,-3.5204,-0.0288572,0.777491
4,0.130603,-0.675752,1.05272,-3.47582,-0.0174281,0.742663
5,0.133946,-0.673908,1.04853,-3.43684,-0.0108521,0.706018
6,0.135191,-0.679095,1.05743,-3.40253,-0.00820786,0.668002
7,0.136304,-0.685405,1.06802,-3.36651,-0.00590645,0.627701
8,0.137281,-0.697623,1.08822,-3.31215,-0.003832,0.565359
9,0.137791,-0.705075,1.09917,-3.27986,-0.00311205,0.529569
10,0.1383,-0.712527,1.11012,-3.24756,-0.00239209,0.493778
11,0.138809,-0.71998,1.12107,-3.21527,-0.00167214,0.457988
12,0.139318,-0.727432,1.13202,-3.18298,-0.000952189,0.422198
13,0.139827,-0.734885,1.14297,-3.15068,-0.000232236,0.386408
14,0.139864,-0.735418,1.14375,-3.14837,-0.000180734,0.383848
15,0.139967,-0.744101,1.15763,-3.11768,2.22377e-05,0.347953
16,0.140179,-0.75204,1.16732,-3.08434,0.000110597,0.312863
17,0.14039,-0.759978,1.177,-3.05099,0.000198956,0.277773
18,0.140298,-0.768993,1.19084,-3.02008,0.000228455,0.242032
19,0.140575,-0.776691,1.19962,-2.98624,0.000329415,0.207119
20,0.140318,-0.785517,1.21123,-2.95389,0.000201481,0.171982
21,0.140797,-0.792775,1.21892,-2.91956,0.000388922,0.137213
22,0.141275,-0.800033,1.22661,-2.88522,0.000576364,0.102444
23,0.141583,-0.804689,1.23155,-2.86319,0.000696611,0.0801397
24,0.141615,-0.812597,1.2398,-2.82845,0.000651477,0.0450574
25,0.14117,-0.82108,1.24882,-2.79416,0.000437917,0.0102283
26,0.14119,-0.828608,1.25594,-2.75936,0.000409277,-0.0241577
27,0.140715,-0.836723,1.26385,-2.72495,0.000232041,-0.0583743
28,0.140725,-0.843882,1.2699,-2.69002,0.000216343,-0.0921902
29,0.140734,-0.850876,1.27544,-2.6549,0.000201841,-0.125856
30,0.140244,-0.858434,1.28176,-2.62009,6.99211e-05,-0.159432
31,0.140247,-0.86505,1.28629,-2.58479,6.49311e-05,-0.192639
32,0.140249,-0.871484,1.29033,-2.54934,6.05716e-05,-0.225703
33,0.139715,-0.884547,1.29827,-2.47851,-3.8658e-05,-0.291413
34,0.139712,-0.896032,1.303,-2.40682,-3.26882e-05,-0.356344
35,0.139154,-0.907477,1.30718,-2.33498,-9.04011e-05,-0.420911
36,0.139147,-0.917252,1.30824,-2.26256,-7.32687e-05,-0.484615
37,0.139141,-0.926132,1.30754,-2.1898,-5.71557e-05,-0.547795
38,0.139137,-0.934084,1.30512,-2.11677,-4.18407e-05,-0.61046
39,0.139135,-0.941082,1.30104,-2.04353,-2.71234e-05,-0.672619
40,0.139133,-0.947103,1.29533,-1.97014,-1.28208e-05,-0.734282
41,0.139133,-0.952129,1.28806,-1.89667,1.23683e-06,-0.795462
42,0.139133,-0.956146,1.27928,-1.82316,1.52093e-05,-0.856169
43,0.139135,-0.959146,1.26903,-1.74966,2.92498e-05,-0.916416
44,0.139138,-0.961124,1.25738,-1.67624,4.35076e-05,-0.976216
45,0.139142,-0.962079,1.24438,-1.60291,5.81307e-05,-1.03558
46,0.139148,-0.962016,1.23008,-1.52974,7.32683e-05,-1.09452
47,0.139154,-0.960939,1.21453,-1.45674,8.90724e-05,-1.15305
48,0.139162,-0.958861,1.19778,-1.38395,0.0001057,-1.21117
49,0.139171,-0.955793,1.1799,-1.31139,0.000123312,-1.26891
50,0.139181,-0.951751,1.16092,-1.2391,0.000142078,-1.32626
51,0.139193,-0.946753,1.14089,-1.16709,0.000162169,-1.38324
52,0.139207,-0.94082,1.11985,-1.09537,0.000183762,-1.43985
53,0.139222,-0.933971,1.09786,-1.02397,0.000207031,-1.49612
54,0.13924,-0.926229,1.07495,-0.952888,0.000232142,-1.55203
55,0.139259,-0.917619,1.05116,-0.882139,0.000259242,-1.6076
56,0.13928,-0.908164,1.02653,-0.811728,0.000288444,-1.66283
57,0.139303,-0.897888,1.00108,-0.74166,0.000319804,-1.71773
58,0.139328,-0.886815,0.974856,-0.671938,0.000353295,-1.7723
59,0.139355,-0.87497,0.947879,-0.602561,0.000388772,-1.82654
60,0.139384,-0.862376,0.920172,-0.533529,0.000425927,-1.88046
61,0.139413,-0.849056,0.891758,-0.464839,0.000464247,-1.93406
62,0.139404,-0.835809,0.863765,-0.396264,0.000455263,-1.98789
63,0.142187,-0.817845,0.829696,-0.345272,-0.00248997,-2.02274
64,0.140523,-0.81249,0.817802,-0.302519,-0.000649674,-2.05896
65,0.137392,-0.805871,0.802891,-0.239234,0.00347765,-2.11398
66,0.137683,-0.796,0.784395,-0.203117,0.00309634,-2.14147
67,0.137975,-0.78613,0.765899,-0.167,0.00271503,-2.16896
68,0.138267,-0.776259,0.747403,-0.130883,0.00233371,-2.19645
69,0.138558,-0.766388,0.728907,-0.0947659,0.0019524,-2.22395
70,0.136318,-0.765665,0.726797,-0.058934,0.00638235,-2.25839
71,0.134078,-0.764941,0.724686,-0.0231022,0.0108123,-2.29284
72,0.131839,-0.764217,0.722576,0.0127296,0.0152422,-2.32728
73,0.131525,-0.764116,0.72228,0.0177483,0.0158627,-2.33211
74,0.123599,-0.793968,0.775089,0.0100547,0.0311997,-2.34737
75,0.115692,-0.826006,0.831042,-0.00912247,0.0467621,-2.3521
76,0.107811,-0.857993,0.886114,-0.0308801,0.0625695,-2.35343
77,0.0999633,-0.889261,0.939154,-0.0519437,0.0786321,-2.35414
78,0.0946826,-0.911107,0.97544,-0.0744164,0.089447,-2.34576
