3.141593,-1.570796,0.000000,-1.570796,0.000000,3.141593
0.240861,-1.192779,1.910365,-0.717587,1.474100,-2.356194
0.286267,-1.227301,1.962548,-0.735248,1.573672,-2.356194
0.338840,-1.256368,2.005421,-0.749053,1.680410,-2.356194
0.398447,-1.279215,2.038402,-0.759187,1.794184,-2.356194
0.464502,-1.295102,2.060951,-0.765848,1.914404,-2.356194
0.535898,-1.303433,2.072646,-0.769212,2.039965,-2.356194
0.611034,-1.303864,2.073248,-0.769384,2.169267,-2.356194
