3.141593,-1.570796,0.000000,-1.570796,0.000000,3.141593
0.976480,-1.603774,1.670868,-0.067094,-2.845871,-2.356195
0.992835,-1.541662,1.608886,-0.067224,-2.775350,-2.356195
1.004114,-1.480108,1.543331,-0.063223,-2.709909,-2.356195
1.011138,-1.418924,1.474113,-0.055189,-2.648718,-2.356195
1.014569,-1.357877,1.401056,-0.043179,-2.591125,-2.356194
1.014941,-1.296677,1.323859,-0.027183,-2.536584,-2.356194
1.012693,-1.234969,1.242075,-0.007107,-2.484668,-2.356195
1.008184,-1.172295,1.155028,0.017267,-2.435008,-2.356195
