3.141593,-1.570796,0.000000,-1.570796,0.000000,3.141593
-0.651602,-2.001448,-1.925481,0.785337,0.705861,0.785398
-0.587898,-1.997505,-1.931939,0.787852,0.587988,0.785398
-0.525785,-1.999805,-1.928175,0.786386,0.471711,0.785398
-0.466522,-2.008287,-1.914245,0.780939,0.358281,0.785398
-0.411154,-2.022750,-1.890335,0.771492,0.248746,0.785398
-0.360452,-2.042874,-1.856742,0.758022,0.143879,0.785398
-0.314888,-2.068277,-1.813820,0.740505,0.044142,0.785398
-0.274664,-2.098572,-1.761926,0.718904,-0.050237,0.785399
