3.141593,-1.570796,0.000000,-1.570796,0.000000,3.141593
1.199860,-1.458682,2.067249,-0.608567,0.859044,-2.356194
1.217007,-1.512975,2.127638,-0.614663,0.930356,-2.356194
1.241204,-1.566095,2.182961,-0.616867,1.008718,-2.356194
1.273852,-1.617187,2.232641,-0.615453,1.095531,-2.356194
1.316497,-1.664992,2.275997,-0.611005,1.192341,-2.356194
1.370676,-1.707792,2.312282,-0.604490,1.300687,-2.356194
1.437622,-1.743462,2.340727,-0.597265,1.421798,-2.356194
1.517801,-1.769690,2.360620,-0.590930,1.556142,-2.356194
