3.141593,-1.570796,0.000000,-1.570796,0.000000,3.141593
-1.935285,-1.542408,-2.398229,0.799045,0.635256,0.785398
-1.851277,-1.547091,-2.393736,0.799235,0.497082,0.785398
-1.774799,-1.560534,-2.380648,0.799589,0.366432,0.785398
-1.707384,-1.581826,-2.359342,0.799576,0.244856,0.785398
-1.649654,-1.609697,-2.330390,0.798496,0.132963,0.785397
-1.601482,-1.642768,-2.294480,0.795657,0.030572,0.785395
-1.562242,-1.679810,-2.252268,0.790483,-0.062746,0.785401
-1.531046,-1.719712,-2.204495,0.782613,-0.148127,0.785399
