3.141593,-1.570796,0.000000,-1.570796,0.000000,3.141593
-0.779010,-1.778547,-2.054410,-2.450228,-0.875332,-2.356195
-0.713848,-1.772252,-2.062505,-2.448428,-0.756003,-2.356194
-0.650129,-1.772362,-2.062365,-2.448459,-0.638116,-2.356194
-0.589203,-1.778875,-2.053987,-2.450323,-0.523030,-2.356195
-0.532212,-1.791563,-2.037508,-2.454114,-0.411871,-2.356194
-0.480009,-1.810017,-2.013171,-2.459998,-0.305503,-2.356194
-0.433128,-1.833704,-1.981300,-2.468180,-0.204455,-2.356195
-0.391805,-1.862030,-1.942280,-2.478875,-0.108958,-2.356195
