3.141593,-1.570796,0.000000,-1.570796,0.000000,3.141593
0.518825,-0.215306,0.373001,2.983898,0.593903,0.785398
0.493363,-0.293473,0.534797,2.900269,0.565201,0.785398
0.467861,-0.355503,0.663006,2.834089,0.536533,0.785398
0.442319,-0.409505,0.774511,2.776586,0.507911,0.785398
0.416738,-0.458556,0.875720,2.724428,0.479330,0.785398
0.391115,-0.504211,0.969868,2.675935,0.450784,0.785398
0.365452,-0.547379,1.058852,2.630120,0.422280,0.785398
0.339746,-0.588644,1.143887,2.586350,0.393822,0.785398
