3.141593,-1.570796,0.000000,-1.570796,0.000000,3.141593
0.066485,-1.853351,-1.485682,-2.944152,0.958171,-2.356194
0.056148,-1.926143,-1.387735,-2.969307,1.001999,-2.356194
0.044059,-2.000540,-1.282125,-3.000520,1.044075,-2.356194
0.030506,-2.077464,-1.167313,-3.038408,1.084687,-2.356194
0.015719,-2.158303,-1.040772,-3.084110,1.124068,-2.356194
-0.000115,-2.245369,-0.898035,-3.139781,1.162397,-2.356194
