3.141593,-1.570796,0.000000,-1.570796,0.000000,3.141593
1.161414,-2.008272,2.000540,0.007732,0.795355,-2.356194
1.205884,-2.052151,2.023335,0.028816,0.893990,-2.356194
1.265993,-2.089112,2.041089,0.048023,1.008264,-2.356194
1.344253,-2.117000,2.053619,0.063380,1.140689,-2.356194
1.441762,-2.133748,2.060789,0.072958,1.292363,-2.356194
1.556897,-2.137881,2.062518,0.075363,1.461664,-2.356194
