3.141593,-1.570796,0.000000,-1.570796,0.000000,3.141593
-1.774857,-2.299857,-1.442514,0.600779,-0.666806,0.785398
-1.778271,-2.352230,-1.343715,0.554352,-0.717557,0.785398
-1.783530,-2.407631,-1.237991,0.504028,-0.766462,0.785399
-1.790412,-2.466849,-1.123751,0.449006,-0.813749,0.785398
-1.798725,-2.531162,-0.998385,0.387954,-0.859600,0.785398
-1.808304,-2.602784,-0.857339,0.318530,-0.904185,0.785398
-1.819005,-2.686145,-0.691438,0.235990,-0.947651,0.785398
