3.141593,-1.570796,0.000000,-1.570796,0.000000,3.141593
-1.902963,-1.349858,-2.374312,0.582576,0.101856,0.785399
-1.796185,-1.375087,-2.355868,0.589360,-0.059055,0.785401
-1.708073,-1.414908,-2.325152,0.598466,-0.201352,0.785399
-1.638329,-1.465486,-2.283237,0.607130,-0.325255,0.785399
-1.584934,-1.523190,-2.231358,0.612955,-0.432816,0.785398
-1.545260,-1.585191,-2.170721,0.614319,-0.526662,0.785398
-1.516742,-1.649559,-2.102386,0.610352,-0.609364,0.785398
-1.497167,-1.715236,-2.027072,0.600715,-0.683083,0.785398
