3.141593,-1.570796,0.000000,-1.570796,0.000000,3.141593
1.559647,-2.013895,1.939972,0.073923,0.587200,-2.356194
1.588651,-2.061463,1.964258,0.097205,0.670369,-2.356194
1.631240,-2.104043,1.984105,0.119939,0.767124,-2.356194
1.691013,-2.139670,1.999349,0.140321,0.881061,-2.356194
1.771423,-2.166080,2.009853,0.156227,1.015636,-2.356194
1.874334,-2.181080,2.015518,0.165561,1.172713,-2.356194
1.998099,-2.183170,2.016290,0.166879,1.350644,-2.356194
