3.141593,-1.570796,0.000000,-1.570796,0.000000,3.141593
0.200773,-1.621590,1.842682,-0.221092,0.924767,-2.356194
0.223999,-1.676642,1.892954,-0.216312,1.002158,-2.356194
0.255021,-1.728749,1.937466,-0.208717,1.087346,-2.356194
0.295171,-1.776798,1.975895,-0.199097,1.181661,-2.356194
0.345767,-1.819395,2.007893,-0.188499,1.286423,-2.356194
0.407877,-1.854928,2.033120,-0.178192,1.402698,-2.356194
0.481972,-1.881712,2.051267,-0.169555,1.530958,-2.356194
0.567498,-1.898227,2.062088,-0.163861,1.670650,-2.356194
