3.141593,-1.570796,0.000000,-1.570796,0.000000,3.141593
0.889223,-1.891347,1.911328,-0.019981,0.929787,-2.356194
0.939947,-1.925255,1.933070,-0.007815,1.034677,-2.356194
1.001707,-1.952535,1.949714,0.002821,1.150603,-2.356194
1.074721,-1.971972,1.961116,0.010856,1.277781,-2.356194
1.158210,-1.982567,1.967172,0.015395,1.415435,-2.356194
1.250181,-1.983718,1.967823,0.015895,1.561573,-2.356194
1.347530,-1.975360,1.963065,0.012295,1.713086,-2.356194
