3.141593,-1.570796,0.000000,-1.570796,0.000000,3.141593
1.896834,-1.430797,1.896920,-0.466124,1.367567,-2.356194
1.941778,-1.469131,1.940867,-0.471736,1.466677,-2.356194
1.994196,-1.501678,1.976793,-0.475115,1.573259,-2.356194
2.054029,-1.527399,2.004277,-0.476878,1.687258,-2.356194
2.120737,-1.545318,2.022949,-0.477631,1.808132,-2.356194
2.193218,-1.554659,2.032527,-0.477868,1.934777,-2.356194
2.269832,-1.554979,2.032853,-0.477874,2.065558,-2.356194
