3.141593,-1.570796,0.000000,-1.570796,0.000000,3.141593
1.824096,-1.635041,1.749514,-0.114473,1.723476,-2.356194
1.896383,-1.660821,1.773129,-0.112307,1.849929,-2.356194
1.976825,-1.676166,1.786841,-0.110675,1.984537,-2.356194
2.063513,-1.680345,1.790532,-0.110186,2.125389,-2.356194
2.153785,-1.673146,1.784163,-0.111017,2.269826,-2.356194
2.244578,-1.654929,1.767795,-0.112866,2.414785,-2.356194
