3.141593,-1.570796,0.000000,-1.570796,0.000000,3.141593
-0.521171,-2.191938,-1.468018,0.518363,-0.610676,0.785398
-0.529181,-2.241287,-1.382002,0.481695,-0.656831,0.785398
-0.538540,-2.292279,-1.291441,0.442128,-0.701637,0.785398
-0.549089,-2.345359,-1.195506,0.399273,-0.745250,0.785398
-0.560693,-2.401139,-1.093009,0.352555,-0.787815,0.785398
-0.573231,-2.460542,-0.982103,0.301052,-0.829441,0.785398
-0.586602,-2.525083,-0.859713,0.243203,-0.870234,0.785399
-0.600714,-2.597494,-0.720223,0.176124,-0.910287,0.785398
