3.141593,-1.570796,0.000000,-1.570796,0.000000,3.141593
1.668401,-1.263109,1.978550,-0.715441,0.860494,-2.356194
1.694082,-1.297785,2.027565,-0.729781,0.940343,-2.356194
1.725036,-1.329850,2.071541,-0.741691,1.025460,-2.356194
1.761623,-1.358791,2.110074,-0.751283,1.116212,-2.356194
1.804071,-1.384019,2.142736,-0.758717,1.212827,-2.356194
1.852400,-1.404902,2.169103,-0.764201,1.315320,-2.356194
1.906355,-1.420811,2.188774,-0.767963,1.423442,-2.356194
1.965344,-1.431200,2.201423,-0.770223,1.536595,-2.356194
