3.141593,-1.570796,0.000000,-1.570796,0.000000,3.141593
-0.367350,-0.122364,0.266422,2.997534,0.347402,0.785398
-0.406568,-0.222022,0.474599,2.889016,0.332454,0.785398
-0.446362,-0.291972,0.621067,2.812498,0.318078,0.785398
-0.486785,-0.350174,0.743232,2.748534,0.304339,0.785398
-0.527894,-0.401663,0.851592,2.691663,0.291283,0.785398
-0.569754,-0.448695,0.950855,2.639433,0.278978,0.785398
-0.612436,-0.492500,1.043594,2.590499,0.267497,0.785398
