3.141593,-1.570796,0.000000,-1.570796,0.000000,3.141593
1.844283,-1.315846,1.662564,-0.346718,1.065844,-2.356194
1.871538,-1.358021,1.716020,-0.357999,1.147261,-2.356194
1.903897,-1.396549,1.763132,-0.366584,1.233789,-2.356194
1.941626,-1.430892,1.803718,-0.372826,1.325683,-2.356194
1.984852,-1.460432,1.837551,-0.377119,1.423074,-2.356194
2.033491,-1.484520,1.864397,-0.379876,1.525878,-2.356194
2.087196,-1.502534,1.884033,-0.381499,1.633747,-2.356194
2.145316,-1.513945,1.896276,-0.382332,1.746034,-2.356194
