3.141593,-1.570796,0.000000,-1.570796,0.000000,3.141593
-1.210475,-1.416190,-2.627032,0.901630,0.627419,0.785398
-1.048161,-1.387754,-2.647167,0.893328,0.410932,0.785398
-0.894330,-1.379326,-2.652887,0.890621,0.202942,0.785398
-0.760761,-1.392716,-2.643746,0.894874,0.015117,0.785394
-0.653585,-1.425136,-2.620425,0.903968,-0.146126,0.785399
