3.141593,-1.570796,0.000000,-1.570796,0.000000,3.141593
1.725715,-1.722855,2.381324,-0.658469,0.622297,-2.356194
1.744865,-1.781905,2.425848,-0.643943,0.695611,-2.356194
1.774281,-1.840083,2.465407,-0.625324,0.779192,-2.356194
1.816870,-1.895273,2.499188,-0.603915,0.875947,-2.356194
1.875985,-1.944327,2.526327,-0.582001,0.989227,-2.356194
1.954839,-1.983139,2.545984,-0.562845,1.122246,-2.356194
2.055233,-2.007302,2.557451,-0.550149,1.276806,-2.356194
