3.141593,-1.570796,0.000000,-1.570796,0.000000,3.141593
0.493470,-1.584104,1.859849,-0.275745,1.242391,-2.356194
0.542630,-1.604492,1.879697,-0.275205,1.345717,-2.356194
0.596609,-1.619012,1.893548,-0.274536,1.453860,-2.356194
0.654689,-1.627228,1.901281,-0.274052,1.566107,-2.356194
0.715873,-1.628880,1.902826,-0.273946,1.681457,-2.356194
0.778941,-1.623912,1.898169,-0.274257,1.798690,-2.356194
0.842551,-1.612488,1.887354,-0.274866,1.916465,-2.356194
