3.141593,-1.570796,0.000000,-1.570796,0.000000,3.141593
0.424359,-1.583624,1.831253,-0.247630,1.411137,-2.356194
0.477680,-1.604697,1.851776,-0.247079,1.518623,-2.356194
0.536230,-1.619143,1.865559,-0.246416,1.631338,-2.356194
0.599124,-1.626492,1.872481,-0.245989,1.748398,-2.356194
0.665145,-1.626489,1.872478,-0.245989,1.868584,-2.356194
0.732829,-1.619137,1.865553,-0.246416,1.990433,-2.356194
0.800607,-1.604686,1.851766,-0.247080,2.112377,-2.356194
