3.141593,-1.570796,0.000000,-1.570796,0.000000,3.141593
0.937689,-1.202390,1.838127,-0.635738,-2.767463,-2.356195
0.956516,-1.145207,1.751491,-0.606285,-2.694468,-2.356195
0.970502,-1.087620,1.660954,-0.573335,-2.626317,-2.356195
0.980335,-1.029299,1.566186,-0.536887,-2.562321,-2.356194
0.986592,-0.969836,1.466659,-0.496823,-2.501899,-2.356195
0.989755,-0.908716,1.361582,-0.452867,-2.444568,-2.356195
0.990231,-0.845257,1.249783,-0.404527,-2.389929,-2.356194
0.988361,-0.778489,1.129462,-0.350973,-2.337634,-2.356195
