3.141593,-1.570796,0.000000,-1.570796,0.000000,3.141593
0.344834,-1.278751,2.004212,-0.725460,1.279185,-2.356194
0.385966,-1.309643,2.047387,-0.737744,1.374484,-2.356194
0.433507,-1.336038,2.083308,-0.747270,1.476190,-2.356194
0.487383,-1.357233,2.111485,-0.754252,1.584231,-2.356194
0.547164,-1.372551,2.131469,-0.758918,1.698177,-2.356194
0.612010,-1.381432,2.142907,-0.761475,1.817188,-2.356194
0.680670,-1.383519,2.145579,-0.762060,1.940014,-2.356194
