3.141593,-1.570796,0.000000,-1.570796,0.000000,3.141593
2.497309,-1.523501,2.047498,-0.523997,-2.960176,-2.356195
2.547170,-1.452074,1.968677,-0.516603,-2.856144,-2.356195
2.586544,-1.381387,1.884527,-0.503140,-2.762606,-2.356195
2.617210,-1.311250,1.795186,-0.483935,-2.677772,-2.356194
2.640635,-1.241331,1.700587,-0.459256,-2.600185,-2.356195
2.658015,-1.171178,1.600425,-0.429248,-2.528638,-2.356195
2.670324,-1.100224,1.494121,-0.393898,-2.462164,-2.356195
2.678351,-1.027752,1.380720,-0.352968,-2.399974,-2.356195
