3.141593,-1.570796,0.000000,-1.570796,0.000000,3.141593
-1.110831,-1.340064,-2.276126,0.474598,0.821058,0.785398
-0.997592,-1.314688,-2.294065,0.467161,0.653653,0.785398
-0.885003,-1.302135,-2.302672,0.463215,0.486902,0.785398
-0.778365,-1.303555,-2.301707,0.463670,0.326092,0.785398
-0.682117,-1.318818,-2.291196,0.468422,0.175679,0.785398
-0.598999,-1.346523,-2.271442,0.476378,0.038327,0.785393
