3.141593,-1.570796,0.000000,-1.570796,0.000000,3.141593
-1.895276,-2.179092,-1.366347,-2.737746,0.292713,-2.356194
-1.889733,-2.230306,-1.279658,-2.773222,0.352563,-2.356194
-1.886553,-2.285157,-1.184711,-2.813317,0.409785,-2.356194
-1.885500,-2.343651,-1.081230,-2.858304,0.465000,-2.356194
-1.886363,-2.407099,-0.966560,-2.909526,0.518304,-2.356194
-1.888949,-2.477478,-0.836613,-2.969095,0.569884,-2.356194
-1.893087,-2.558668,-0.683341,-3.041177,0.619911,-2.356194
