3.141593,-1.570796,0.000000,-1.570796,0.000000,3.141593
0.358788,-1.741060,2.050925,-0.309865,1.110197,-2.356194
0.400438,-1.793765,2.091940,-0.298175,1.206012,-2.356194
0.454204,-1.840770,2.125973,-0.285202,1.313943,-2.356194
0.521660,-1.879924,2.152527,-0.272603,1.435564,-2.356194
0.603626,-1.908907,2.171156,-0.262249,1.571696,-2.356194
0.699508,-1.925627,2.181513,-0.255885,1.721744,-2.356194
0.806776,-1.928706,2.183388,-0.254682,1.883176,-2.356194
