3.141593,-1.570796,0.000000,-1.570796,0.000000,3.141593
0.952087,-1.781990,2.447625,-0.665635,1.051813,-2.356194
1.014290,-1.824280,2.476572,-0.652292,1.168181,-2.356194
1.092980,-1.857242,2.497603,-0.640361,1.301036,-2.356194
1.188573,-1.877689,2.509997,-0.632309,1.450795,-2.356194
1.299167,-1.883245,2.513281,-0.630036,1.615554,-2.356194
1.420194,-1.873207,2.507323,-0.634116,1.790747,-2.356194
