3.141593,-1.570796,0.000000,-1.570796,0.000000,3.141593
0.365093,-1.568090,1.724843,-0.156753,1.090730,-2.356194
0.397393,-1.616251,1.771875,-0.155625,1.177195,-2.356194
0.437306,-1.660020,1.812415,-0.152395,1.271274,-2.356194
0.485538,-1.698386,1.846233,-0.147847,1.373670,-2.356194
0.542529,-1.730226,1.873087,-0.142861,1.484827,-2.356194
0.608256,-1.754406,1.892751,-0.138345,1.604720,-2.356194
0.682044,-1.769921,1.905038,-0.135117,1.732673,-2.356194
0.762452,-1.776051,1.909822,-0.133771,1.867246,-2.356194
