3.141593,-1.570796,0.000000,-1.570796,0.000000,3.141593
-0.998581,-2.103210,-1.555999,0.517617,-0.737555,0.785398
-1.008328,-2.154956,-1.470400,0.483763,-0.781972,0.785398
-1.019421,-2.207892,-1.380665,0.446965,-0.825047,0.785398
-1.031685,-2.262399,-1.286158,0.406965,-0.866948,0.785398
-1.044973,-2.318995,-1.185939,0.363341,-0.907822,0.785398
-1.059162,-2.378418,-1.078601,0.315426,-0.947799,0.785399
-1.074144,-2.441784,-0.961938,0.262129,-0.986985,0.785398
