3.141593,-1.570796,0.000000,-1.570796,0.000000,3.141593
0.630416,-1.042247,1.537733,2.646108,0.084913,0.785398
0.604779,-1.089600,1.613514,2.617679,0.056400,0.785397
0.579116,-1.137147,1.687541,2.591200,0.027865,0.785397
