3.141593,-1.570796,0.000000,-1.570796,0.000000,3.141593
2.527912,-0.977713,1.390296,-0.412587,-3.103148,-2.356199
2.548268,-0.923269,1.298718,-0.375451,-3.028627,-2.356196
2.565231,-0.865360,1.198928,-0.333568,-2.957488,-2.356195
2.579078,-0.803217,1.089299,-0.286083,-2.889472,-2.356195
2.590075,-0.735517,0.967095,-0.231578,-2.824308,-2.356195
2.598470,-0.659873,0.827376,-0.167503,-2.761747,-2.356195
2.604497,-0.571277,0.659765,-0.088488,-2.701560,-2.356195
