3.141593,-1.570796,0.000000,-1.570796,0.000000,3.141593
1.597042,-1.626074,2.239661,-0.613587,0.539164,-2.356194
1.608438,-1.680869,2.288473,-0.607604,0.604724,-2.356194
1.626736,-1.735550,2.333303,-0.597754,0.677187,-2.356194
1.653632,-1.789150,2.373589,-0.584439,0.758250,-2.356194
1.691159,-1.840181,2.408698,-0.568517,0.849943,-2.356194
1.741592,-1.886527,2.437952,-0.551425,0.954540,-2.356194
1.807122,-1.925458,2.460674,-0.535216,1.074237,-2.356194
1.889229,-1.953911,2.476254,-0.522342,1.210509,-2.356194
