3.141593,-1.570796,0.000000,-1.570796,0.000000,3.141593
1.694634,-1.828599,2.563650,-0.735051,1.056026,-2.356194
1.779250,-1.855742,2.580215,-0.724474,1.194807,-2.356194
1.880965,-1.869346,2.588173,-0.718827,1.350688,-2.356194
1.996836,-1.867609,2.587169,-0.719560,1.520725,-2.356194
2.121269,-1.850767,2.577249,-0.726482,1.699323,-2.356194
