3.141593,-1.570796,0.000000,-1.570796,0.000000,3.141593
-0.321465,-1.269184,-2.511795,-2.502206,-0.302758,-2.356195
-0.219294,-1.288617,-2.499934,-2.494633,-0.146410,-2.356195
-0.135191,-1.321752,-2.478662,-2.482764,-0.007919,-2.356201
-0.068898,-1.365298,-2.448631,-2.469256,0.112300,-2.356194
-0.018482,-1.415509,-2.410958,-2.456718,0.216886,-2.356194
0.018606,-1.469604,-2.366579,-2.447002,0.308138,-2.356195
0.044869,-1.525550,-2.316417,-2.441218,0.388568,-2.356194
0.062473,-1.582057,-2.261272,-2.439857,0.460329,-2.356194
