3.141593,-1.570796,0.000000,-1.570796,0.000000,3.141593
-0.270152,-1.409132,-2.322437,-2.551616,-0.259283,-2.356194
-0.184068,-1.430034,-2.305647,-2.547505,-0.119020,-2.356195
-0.110405,-1.461461,-2.279354,-2.542386,0.008555,-2.356179
-0.049403,-1.501035,-2.244431,-2.537721,0.123960,-2.356194
-0.000296,-1.546829,-2.201463,-2.534894,0.227220,-2.356194
0.038214,-1.596910,-2.151312,-2.534963,0.319900,-2.356195
0.067591,-1.649859,-2.094697,-2.538629,0.403445,-2.356194
0.089251,-1.704673,-2.032241,-2.546271,0.479272,-2.356194
