3.141593,-1.570796,0.000000,-1.570796,0.000000,3.141593
0.400135,-1.672056,2.011772,-0.339716,0.930428,-2.356194
0.424691,-1.730537,2.061522,-0.330985,1.009151,-2.356194
0.458513,-1.786240,2.105349,-0.319109,1.097139,-2.356194
0.503496,-1.837609,2.142754,-0.305145,1.196287,-2.356194
0.561574,-1.882635,2.173221,-0.290586,1.308529,-2.356194
0.634328,-1.918952,2.196256,-0.277304,1.435449,-2.356194
0.722342,-1.944128,2.211436,-0.267308,1.577629,-2.356194
