3.141593,-1.570796,0.000000,-1.570796,0.000000,3.141593
-0.377986,-2.020261,-1.636172,0.514840,-0.297007,0.785398
-0.369130,-2.067816,-1.561837,0.488061,-0.360045,0.785398
-0.363290,-2.117362,-1.482236,0.458004,-0.420046,0.785398
-0.360131,-2.169010,-1.397069,0.424486,-0.477371,0.785398
-0.359351,-2.223045,-1.305740,0.387192,-0.532315,0.785398
-0.360683,-2.279899,-1.207366,0.345672,-0.585148,0.785398
-0.363892,-2.340292,-1.100490,0.299190,-0.636104,0.785398
-0.368769,-2.405362,-0.982803,0.246572,-0.685391,0.785399
