3.141593,-1.570796,0.000000,-1.570796,0.000000,3.141593
-1.449266,-1.523195,-2.367670,-2.392320,-0.540510,-2.356195
-1.366413,-1.531530,-2.359871,-2.391784,-0.403493,-2.356195
-1.291889,-1.548841,-2.343344,-2.391000,-0.274796,-2.356195
-1.226934,-1.573991,-2.318543,-2.390651,-0.155678,-2.356195
-1.171886,-1.605554,-2.286093,-2.391536,-0.046433,-2.356197
-1.126396,-1.642121,-2.246660,-2.394406,0.053183,-2.356193
-1.089692,-1.682388,-2.200974,-2.399824,0.144053,-2.356194
-1.060805,-1.725340,-2.149682,-2.408164,0.227106,-2.356194
