3.141593,-1.570796,0.000000,-1.570796,0.000000,3.141593
-0.751606,-1.739181,-2.183887,0.781475,0.878645,0.785398
-0.691091,-1.742678,-2.179486,0.780571,0.763962,0.785398
-0.634136,-1.751701,-2.168051,0.778160,0.652841,0.785398
-0.581647,-1.765936,-2.149776,0.774120,0.546190,0.785398
-0.534232,-1.784929,-2.124952,0.768288,0.444606,0.785398
-0.492203,-1.808147,-2.093932,0.760487,0.348417,0.785398
-0.455618,-1.835036,-2.057112,0.750555,0.257665,0.785398
-0.424335,-1.865067,-2.014886,0.738361,0.172223,0.785398
