3.141593,-1.570796,0.000000,-1.570796,0.000000,3.141593
2.506260,-0.957609,1.344257,2.754944,2.883431,0.785398
2.516899,-0.899953,1.246533,2.795012,2.818624,0.785398
2.524737,-0.839206,1.140993,2.839806,2.756620,0.785398
2.530052,-0.774358,1.025620,2.890331,2.697132,0.785398
2.533096,-0.703741,0.897030,2.948304,2.639924,0.785398
2.534092,-0.624244,0.748836,3.017000,2.584764,0.785398
2.533239,-0.528737,0.566292,3.104037,2.531450,0.785398
