3.141593,-1.570796,0.000000,-1.570796,0.000000,3.141593
-0.012201,-1.310656,1.993278,-0.682622,1.114529,-2.356194
0.010474,-1.370100,2.071826,-0.701726,1.191370,-2.356194
0.041782,-1.427469,2.143207,-0.715739,1.276844,-2.356194
0.083522,-1.481802,2.206618,-0.724816,1.372748,-2.356194
0.137625,-1.531583,2.261023,-0.729440,1.481017,-2.356194
0.205873,-1.574664,2.305211,-0.730546,1.603431,-2.356194
0.289360,-1.608385,2.337915,-0.729530,1.741082,-2.356194
0.387759,-1.629977,2.357991,-0.728014,1.893646,-2.356194
