3.141593,-1.570796,0.000000,-1.570796,0.000000,3.141593
0.023187,-1.655352,1.667832,-0.012480,0.719234,-2.356194
0.041673,-1.705301,1.711866,-0.006565,0.791884,-2.356194
0.066646,-1.752544,1.751049,0.001495,0.871023,-2.356194
0.099175,-1.796324,1.785236,0.011087,0.957717,-2.356194
0.140360,-1.835712,1.814263,0.021449,1.053068,-2.356194
0.191199,-1.869643,1.837965,0.031678,1.158072,-2.356194
0.252367,-1.896974,1.856185,0.040789,1.273406,-2.356194
0.323937,-1.916598,1.868793,0.047806,1.399141,-2.356194
