3.141593,-1.570796,0.000000,-1.570796,0.000000,3.141593
0.134850,-0.368924,0.575698,2.934819,0.252004,0.785398
0.105033,-0.442328,0.724422,2.859499,0.227660,0.785398
0.074964,-0.505571,0.851773,2.795391,0.203565,0.785398
0.044617,-0.562755,0.966262,2.738085,0.179744,0.785398
0.013962,-0.615889,1.072046,2.685436,0.156237,0.785398
-0.017035,-0.666135,1.171504,2.636224,0.133073,0.785398
-0.048414,-0.714236,1.266147,2.589682,0.110282,0.785398
-0.080221,-0.760710,1.357006,2.545296,0.087914,0.785398
