3.141593,-1.570796,0.000000,-1.570796,0.000000,3.141593
1.015535,-1.336051,1.420441,-0.084391,-2.733153,-2.356195
1.024902,-1.272307,1.338451,-0.066145,-2.669621,-2.356195
1.030791,-1.207511,1.250816,-0.043305,-2.609567,-2.356195
1.033667,-1.141129,1.156652,-0.015523,-2.552526,-2.356195
1.033920,-1.072399,1.054598,0.017801,-2.498111,-2.356194
