3.141593,-1.570796,0.000000,-1.570796,0.000000,3.141593
0.021113,-1.480671,2.330073,-0.849402,0.900175,-2.356194
0.053397,-1.523942,2.378216,-0.854274,0.986624,-2.356194
0.095717,-1.564473,2.420526,-0.856053,1.083109,-2.356194
0.149622,-1.600747,2.456091,-0.855345,1.191180,-2.356194
0.216344,-1.630843,2.483955,-0.853111,1.312067,-2.356194
0.296327,-1.652640,2.503209,-0.850569,1.446215,-2.356194
0.388695,-1.664227,2.513133,-0.848905,1.592749,-2.356194
