3.141593,-1.570796,0.000000,-1.570796,0.000000,3.141593
1.861772,-1.670426,2.196181,-0.525755,0.995749,-2.356194
1.901167,-1.717191,2.235773,-0.518583,1.089308,-2.356194
1.951096,-1.759253,2.269113,-0.509860,1.193403,-2.356194
2.012695,-1.794754,2.295614,-0.500860,1.309167,-2.356194
2.086497,-1.821681,2.314735,-0.493054,1.437134,-2.356194
2.172002,-1.838175,2.326038,-0.487863,1.576804,-2.356194
2.267328,-1.842934,2.329242,-0.486308,1.726297,-2.356194
