3.141593,-1.570796,0.000000,-1.570796,0.000000,3.141593
1.352842,-1.318119,1.534214,-0.216096,-2.856845,-2.356195
1.374636,-1.252493,1.448135,-0.195642,-2.780881,-2.356195
1.391615,-1.185336,1.355477,-0.170141,-2.709737,-2.356195
1.404395,-1.116161,1.255372,-0.139212,-2.642791,-2.356195
1.413513,-1.044205,1.146420,-0.102215,-2.579512,-2.356195
1.419426,-0.968269,1.026327,-0.058059,-2.519432,-2.356195
1.422529,-0.886341,0.891122,-0.004781,-2.462159,-2.356195
