3.141593,-1.570796,0.000000,-1.570796,0.000000,3.141593
-0.217359,-1.802529,2.263004,-0.460475,1.330386,-2.356194
-0.151109,-1.866791,2.307098,-0.440307,1.450800,-2.356194
-0.061474,-1.919524,2.339916,-0.420392,1.594601,-2.356194
0.054393,-1.954942,2.360324,-0.405382,1.764634,-2.356194
0.195099,-1.967970,2.367509,-0.399540,1.959505,-2.356194
