3.141593,-1.570796,0.000000,-1.570796,0.000000,3.141593
2.487365,-1.480918,1.666666,-0.185748,2.556970,-2.356194
2.532461,-1.439163,1.619826,-0.180663,2.656233,-2.356194
2.572689,-1.394463,1.567580,-0.173117,2.750628,-2.356194
2.608155,-1.347163,1.509955,-0.162792,2.840262,-2.356194
2.639063,-1.297501,1.446899,-0.149398,2.925335,-2.356194
2.665680,-1.245589,1.378241,-0.132651,3.006123,-2.356194
2.688306,-1.191414,1.303661,-0.112247,3.082938,-2.356194
