3.141593,-1.570796,0.000000,-1.570796,0.000000,3.141593
1.814307,-1.424609,1.465009,-0.040400,1.085377,-2.356194
1.845060,-1.465253,1.511186,-0.045933,1.170297,-2.356194
1.881055,-1.501437,1.550798,-0.049361,1.260456,-2.356194
1.922453,-1.532642,1.583822,-0.051180,1.356019,-2.356194
1.969229,-1.558317,1.610202,-0.051885,1.456960,-2.356194
2.021109,-1.577925,1.629867,-0.051942,1.563007,-2.356194
2.077536,-1.591001,1.642749,-0.051748,1.673599,-2.356194
2.137649,-1.597205,1.648796,-0.051591,1.787878,-2.356194
