3.141593,-1.570796,0.000000,-1.570796,0.000000,3.141593
0.122247,-1.662796,2.322439,-0.659643,0.901810,-2.356194
0.152490,-1.720248,2.370440,-0.650192,0.986219,-2.356194
0.194799,-1.775048,2.412183,-0.637134,1.082694,-2.356194
0.251905,-1.824698,2.446721,-0.622023,1.193965,-2.356194
0.326402,-1.865851,2.473082,-0.607231,1.322627,-2.356194
0.419842,-1.894690,2.490379,-0.595689,1.470232,-2.356194
0.531474,-1.907830,2.497948,-0.590119,1.636029,-2.356194
