3.141593,-1.570796,0.000000,-1.570796,0.000000,3.141593
1.658910,-1.346120,1.876295,-0.530175,0.965494,-2.356194
1.669590,-1.412764,1.958930,-0.546166,1.030339,-2.356194
1.686741,-1.478665,2.035288,-0.556622,1.101657,-2.356194
1.711926,-1.543357,2.104919,-0.561562,1.181005,-2.356194
1.747069,-1.605900,2.167155,-0.561255,1.270316,-2.356194
1.794418,-1.664730,2.221138,-0.556408,1.371830,-2.356194
1.856367,-1.717511,2.265857,-0.548346,1.487943,-2.356194
1.934994,-1.761157,2.300234,-0.539078,1.620736,-2.356194
