3.141593,-1.570796,0.000000,-1.570796,0.000000,3.141593
2.607424,-1.141971,1.532704,-0.390735,-2.966703,-2.356195
2.623255,-1.086517,1.448770,-0.362253,-2.896704,-2.356195
2.635576,-1.029461,1.359475,-0.330014,-2.830214,-2.356195
2.644763,-0.970411,1.264104,-0.293693,-2.766858,-2.356195
2.651148,-0.908780,1.161552,-0.252772,-2.706311,-2.356195
2.655027,-0.843673,1.050081,-0.206408,-2.648271,-2.356195
2.656663,-0.773655,0.926828,-0.153173,-2.592463,-2.356195
2.656289,-0.696196,0.786646,-0.090451,-2.538677,-2.356195
