3.141593,-1.570796,0.000000,-1.570796,0.000000,3.141593
-0.178338,-2.071357,-1.438083,-2.773746,0.359060,-2.356194
-0.165431,-2.126540,-1.350805,-2.805840,0.426203,-2.356194
-0.155885,-2.185557,-1.254613,-2.843015,0.489904,-2.356194
-0.149347,-2.248873,-1.148341,-2.885971,0.550602,-2.356194
-0.145492,-2.317569,-1.029673,-2.935943,0.608624,-2.356194
-0.144027,-2.393638,-0.894450,-2.995098,0.664258,-2.356194
-0.144692,-2.481068,-0.734393,-3.067725,0.717755,-2.356194
