3.141593,-1.570796,0.000000,-1.570796,0.000000,3.141593
0.348487,-1.359948,1.527349,-0.167401,1.137615,-2.356194
0.382422,-1.390894,1.564900,-0.174006,1.225715,-2.356194
0.420496,-1.417274,1.596097,-0.178824,1.317954,-2.356194
0.462553,-1.438695,1.620877,-0.182182,1.414177,-2.356194
0.508273,-1.454787,1.639163,-0.184376,1.514063,-2.356194
0.557155,-1.465241,1.650891,-0.185650,1.617109,-2.356194
0.608526,-1.469836,1.656009,-0.186172,1.722646,-2.356194
0.661569,-1.468475,1.654494,-0.186020,1.829854,-2.356194
