3.141593,-1.570796,0.000000,-1.570796,0.000000,3.141593
1.882671,-1.196926,1.857375,-0.660450,1.479438,-2.356194
1.927329,-1.220884,1.893025,-0.672140,1.578263,-2.356194
1.976741,-1.239698,1.920568,-0.680871,1.681839,-2.356194
2.030416,-1.252939,1.939710,-0.686771,1.789679,-2.356194
2.087605,-1.260271,1.950221,-0.689950,1.901035,-2.356194
2.147321,-1.261491,1.951964,-0.690473,2.014918,-2.356194
2.208401,-1.256566,1.944918,-0.688352,2.130162,-2.356194
2.269603,-1.245633,1.929174,-0.683541,2.245529,-2.356194
