3.141593,-1.570796,0.000000,-1.570796,0.000000,3.141593
0.461615,-1.745890,2.357780,-0.611891,0.773433,-2.356194
0.503177,-1.790173,2.390624,-0.600450,0.869161,-2.356194
0.556469,-1.829330,2.417661,-0.588331,0.976619,-2.356194
0.622773,-1.861152,2.438292,-0.577140,1.097088,-2.356194
0.702547,-1.883354,2.451994,-0.568640,1.231027,-2.356194
0.794881,-1.894028,2.458385,-0.564356,1.377527,-2.356194
0.897161,-1.892156,2.457273,-0.565117,1.533973,-2.356194
