3.141593,-1.570796,0.000000,-1.570796,0.000000,3.141593
-0.106364,-1.781180,-1.786090,-2.715916,0.434758,-2.356194
-0.084510,-1.839183,-1.711787,-2.732215,0.510796,-2.356194
-0.068283,-1.899828,-1.630161,-2.753196,0.581185,-2.356194
-0.056890,-1.962941,-1.541118,-2.779126,0.646737,-2.356195
-0.049636,-2.028610,-1.444259,-2.810316,0.708159,-2.356194
-0.045927,-2.097221,-1.338737,-2.847227,0.766033,-2.356194
-0.045258,-2.169482,-1.223122,-2.890581,0.820867,-2.356194
-0.047203,-2.246618,-1.094975,-2.941592,0.873087,-2.356194
