3.141593,-1.570796,0.000000,-1.570796,0.000000,3.141593
-1.866659,-1.881227,-2.109387,0.849022,0.823669,0.785398
-1.805532,-1.880989,-2.109745,0.849142,0.708377,0.785398
-1.746917,-1.886068,-2.102108,0.846583,0.595596,0.785398
-1.691874,-1.896312,-2.086604,0.841323,0.486387,0.785398
-1.641213,-1.911432,-2.063483,0.833322,0.381559,0.785398
-1.595467,-1.931049,-2.033077,0.822534,0.281648,0.785398
-1.554898,-1.954731,-1.995784,0.808923,0.186908,0.785398
-1.519541,-1.982045,-1.952010,0.792464,0.097392,0.785397
