3.141593,-1.570796,0.000000,-1.570796,0.000000,3.141593
1.235287,-1.202149,1.924259,-0.722110,-2.811938,-2.356195
1.256934,-1.147794,1.840036,-0.692243,-2.736130,-2.356195
1.273294,-1.093153,1.752372,-0.659220,-2.665604,-2.356195
1.285134,-1.037959,1.661061,-0.623103,-2.599596,-2.356195
1.293095,-0.981892,1.565752,-0.583861,-2.537472,-2.356195
1.297712,-0.924560,1.465899,-0.541339,-2.478689,-2.356195
1.299434,-0.865470,1.360709,-0.495239,-2.422802,-2.356195
1.298637,-0.803959,1.249009,-0.445050,-2.369432,-2.356194
