3.141593,-1.570796,0.000000,-1.570796,0.000000,3.141593
0.945298,-0.811435,1.150478,2.802548,-2.741955,0.785398
0.969108,-0.763445,1.063840,2.841198,-2.819936,0.785398
0.990334,-0.709871,0.965553,2.885910,-2.895318,0.785398
1.009042,-0.649239,0.852449,2.938383,-2.968188,0.785398
1.025325,-0.578694,0.718501,3.001787,-3.038635,0.785399
1.039292,-0.491538,0.549715,3.083417,-3.106828,0.785399
