3.141593,-1.570796,0.000000,-1.570796,0.000000,3.141593
-1.916883,-2.118072,-1.592830,0.569309,-0.594221,0.785398
-1.920593,-2.168053,-1.508406,0.534866,-0.644681,0.785398
-1.926203,-2.219541,-1.419494,0.497442,-0.693236,0.785398
-1.933474,-2.272871,-1.325498,0.456776,-0.740130,0.785398
-1.942203,-2.328508,-1.225547,0.412462,-0.785566,0.785399
-1.952214,-2.387141,-1.118307,0.363854,-0.829719,0.785399
-1.963358,-2.449814,-1.001690,0.309911,-0.872742,0.785398
-1.975503,-2.518258,-0.872186,0.248851,-0.914762,0.785398
