3.141593,-1.570796,0.000000,-1.570796,0.000000,3.141593
1.148256,-1.477679,1.624211,-0.146533,-2.814335,-2.356195
1.157305,-1.419162,1.557876,-0.138715,-2.751120,-2.356195
1.162670,-1.360986,1.488272,-0.127286,-2.691589,-2.356195
1.164880,-1.302932,1.415231,-0.112299,-2.635217,-2.356195
1.164369,-1.244732,1.338483,-0.093751,-2.581563,-2.356194
1.161501,-1.186059,1.257616,-0.071557,-2.530264,-2.356195
1.156578,-1.126506,1.172035,-0.045528,-2.481020,-2.356194
1.149857,-1.065540,1.080862,-0.015322,-2.433578,-2.356195
