3.141593,-1.570796,0.000000,-1.570796,0.000000,3.141593
-1.234036,-2.842835,-0.111642,-0.187116,-2.793997,0.785398
-1.257618,-2.712327,-0.375260,-0.054006,-2.824580,0.785398
-1.280971,-2.636345,-0.524751,0.019504,-2.855396,0.785398
-1.304077,-2.574101,-0.645032,0.077541,-2.886455,0.785398
-1.326915,-2.518763,-0.750280,0.127451,-2.917785,0.785399
-1.349462,-2.467609,-0.846110,0.172126,-2.949406,0.785398
