3.141593,-1.570796,0.000000,-1.570796,0.000000,3.141593
-0.286208,-1.473483,-2.295758,0.627648,0.528882,0.785398
-0.198606,-1.478819,-2.291097,0.628324,0.387116,0.785398
-0.118813,-1.494373,-2.277296,0.630077,0.253160,0.785398
-0.048526,-1.519081,-2.254711,0.632200,0.128699,0.785398
0.011568,-1.551460,-2.223878,0.633752,0.014394,0.785392
0.061608,-1.589943,-2.185400,0.633749,-0.089751,0.785399
0.102279,-1.633007,-2.139983,0.631397,-0.184591,0.785398
