3.141593,-1.570796,0.000000,-1.570796,0.000000,3.141593
-0.088044,-1.546579,1.603656,-0.057077,1.057236,-2.356194
-0.050967,-1.579435,1.636789,-0.057354,1.148478,-2.356194
-0.008375,-1.607510,1.664174,-0.056664,1.245236,-2.356194
0.039666,-1.630238,1.685716,-0.055478,1.347441,-2.356194
0.092831,-1.647081,1.701320,-0.054239,1.454773,-2.356194
0.150490,-1.657605,1.710914,-0.053309,1.566596,-2.356194
0.211706,-1.661512,1.714445,-0.052933,1.681978,-2.356194
0.275284,-1.658689,1.711895,-0.053206,1.799722,-2.356194
