3.141593,-1.570796,0.000000,-1.570796,0.000000,3.141593
1.628511,-1.686169,1.912634,-0.226465,1.043672,-2.356194
1.665529,-1.732234,1.951639,-0.219405,1.134856,-2.356194
1.711622,-1.773460,1.984588,-0.211128,1.235113,-2.356194
1.767636,-1.808512,2.011164,-0.202652,1.345292,-2.356194
1.833976,-1.835974,2.031075,-0.195100,1.465798,-2.356194
1.910310,-1.854524,2.044075,-0.189551,1.596298,-2.356194
1.995331,-1.863141,2.049992,-0.186851,1.735485,-2.356194
