3.141593,-1.570796,0.000000,-1.570796,0.000000,3.141593
0.217948,-1.885309,2.132635,-0.247326,0.453010,-2.356194
0.228672,-1.943966,2.169258,-0.225292,0.517899,-2.356194
0.247575,-2.001180,2.201673,-0.200493,0.590967,-2.356194
0.277151,-2.055472,2.229520,-0.174048,0.674708,-2.356194
0.320569,-2.104787,2.252443,-0.147656,0.772291,-2.356194
0.381500,-2.146462,2.270111,-0.123649,0.887388,-2.356194
0.463417,-2.177396,2.282244,-0.104848,1.023470,-2.356194
0.568086,-2.194593,2.288634,-0.094041,1.182305,-2.356194
