3.141593,-1.570796,0.000000,-1.570796,0.000000,3.141593
-0.242374,-2.437178,-1.328896,0.624480,-0.236454,0.785399
-0.235125,-2.482639,-1.237050,0.578096,-0.297890,0.785398
-0.230204,-2.532263,-1.136536,0.527206,-0.356976,0.785398
-0.227404,-2.586980,-1.025414,0.470802,-0.413930,0.785398
-0.226533,-2.648334,-0.900470,0.407212,-0.468964,0.785399
-0.227412,-2.719323,-0.755470,0.333200,-0.522254,0.785398
-0.229879,-2.806809,-0.576137,0.241353,-0.573947,0.785398
