3.141593,-1.570796,0.000000,-1.570796,0.000000,3.141593
-0.348283,-0.119735,0.219975,3.041353,0.307418,0.785398
-0.375743,-0.244733,0.480077,2.906249,0.280722,0.785398
-0.403326,-0.325394,0.647983,2.819004,0.254130,0.785398
-0.431040,-0.391296,0.785291,2.747598,0.227678,0.785398
-0.458897,-0.449181,0.906041,2.684732,0.201370,0.785398
