3.141593,-1.570796,0.000000,-1.570796,0.000000,3.141593
-0.071592,-1.669287,2.444996,-0.775709,1.478481,-2.356194
0.017025,-1.681817,2.455538,-0.773722,1.621263,-2.356194
0.114757,-1.683223,2.456707,-0.773485,1.773161,-2.356194
0.218015,-1.673373,2.448459,-0.775086,1.930585,-2.356194
0.322493,-1.653173,2.431092,-0.777919,2.089228,-2.356194
0.423999,-1.624282,2.405188,-0.780906,2.244899,-2.356194
