3.141593,-1.570796,0.000000,-1.570796,0.000000,3.141593
1.095403,-0.165413,0.258896,3.048110,0.465450,0.785398
1.065439,-0.264958,0.464962,2.941589,0.441254,0.785398
1.035259,-0.335252,0.610116,2.866729,0.417266,0.785398
1.004846,-0.394174,0.731590,2.804177,0.393517,0.785398
0.974178,-0.446696,0.839733,2.748556,0.370015,0.785398
0.943234,-0.495052,0.939193,2.697452,0.346804,0.785398
0.911986,-0.540450,1.032486,2.649558,0.323886,0.785398
