3.141593,-1.570796,0.000000,-1.570796,0.000000,3.141593
-0.364755,-1.582619,-2.528853,0.969879,0.429422,0.785398
-0.273585,-1.593832,-2.517265,0.969503,0.284081,0.785399
-0.194670,-1.614004,-2.495815,0.968226,0.151008,0.785398
-0.128803,-1.641462,-2.465377,0.965250,0.030945,0.785393
-0.075519,-1.674429,-2.426970,0.959805,-0.076466,0.785399
-0.033607,-1.711287,-2.381685,0.951379,-0.172543,0.785399
-0.001559,-1.750794,-2.330509,0.939711,-0.258767,0.785398
0.022146,-1.792073,-2.274277,0.924757,-0.336631,0.785398
