3.141593,-1.570796,0.000000,-1.570796,0.000000,3.141593
0.008767,-1.649771,1.779623,-0.129851,1.396482,-2.356194
0.063487,-1.680122,1.806857,-0.126734,1.505367,-2.356194
0.125861,-1.703190,1.826887,-0.123697,1.621907,-2.356194
0.195214,-1.718133,1.839556,-0.121423,1.745425,-2.356194
0.270259,-1.724347,1.844754,-0.120407,1.874636,-2.356194
0.349151,-1.721565,1.842432,-0.120867,2.007693,-2.356194
0.429665,-1.709909,1.832613,-0.122705,2.142372,-2.356194
