3.141593,-1.570796,0.000000,-1.570796,0.000000,3.141593
2.627185,-1.321942,1.354594,-0.032652,2.624243,-2.356194
2.669422,-1.279399,1.299747,-0.020348,2.720647,-2.356194
2.707673,-1.232390,1.236963,-0.004573,2.813070,-2.356194
2.741910,-1.180960,1.165690,0.015271,2.901474,-2.356194
2.772208,-1.124934,1.085024,0.039911,2.985927,-2.356194
2.798715,-1.063793,0.993458,0.070335,3.066616,-2.356194
