3.141593,-1.570796,0.000000,-1.570796,0.000000,3.141593
1.105600,-0.706648,1.127153,2.721086,3.119936,0.785396
1.119691,-0.648941,1.016699,2.773834,3.051577,0.785398
1.131255,-0.584614,0.892116,2.834091,2.985853,0.785398
1.140475,-0.510572,0.746967,2.905197,2.922478,0.785398
1.147525,-0.419679,0.566416,2.994856,2.861263,0.785398
