3.141593,-1.570796,0.000000,-1.570796,0.000000,3.141593
-0.432512,-2.358076,-1.242927,0.459409,-0.795519,0.785399
-0.443979,-2.413426,-1.139446,0.411279,-0.838216,0.785398
-0.456436,-2.472321,-1.027837,0.358565,-0.879924,0.785398
-0.469772,-2.536140,-0.905294,0.299842,-0.920757,0.785398
-0.483888,-2.607336,-0.766780,0.232523,-0.960805,0.785398
-0.498700,-2.691101,-0.601543,0.151051,-1.000160,0.785398
