3.141593,-1.570796,0.000000,-1.570796,0.000000,3.141593
-0.082810,-0.185812,0.299281,3.028124,0.298812,0.785398
-0.118437,-0.288844,0.512382,2.918054,0.280272,0.785398
-0.154552,-0.362911,0.665184,2.839319,0.262223,0.785398
-0.191201,-0.425135,0.793332,2.773395,0.244703,0.785398
-0.228439,-0.480571,0.907346,2.714817,0.227776,0.785398
-0.266325,-0.531525,1.012024,2.661094,0.211502,0.785398
