3.141593,-1.570796,0.000000,-1.570796,0.000000,3.141593
-0.977455,-0.996334,-2.462409,-2.824442,-0.185999,-2.356194
-0.837927,-1.011549,-2.456527,-2.815116,0.007517,-2.356189
-0.730307,-1.049710,-2.440901,-2.792574,0.169470,-2.356194
-0.652810,-1.104891,-2.416028,-2.762267,0.301140,-2.356194
-0.599726,-1.170513,-2.382737,-2.729935,0.408392,-2.356194
-0.565004,-1.241405,-2.341945,-2.699835,0.497274,-2.356194
-0.543712,-1.314096,-2.294571,-2.674519,0.572731,-2.356194
