3.141593,-1.570796,0.000000,-1.570796,0.000000,3.141593
1.547723,-1.414086,1.406165,0.007921,1.155972,-2.356194
1.568554,-1.489926,1.491741,-0.001815,1.230969,-2.356194
1.597465,-1.561227,1.566534,-0.005307,1.314046,-2.356194
1.636142,-1.627223,1.630855,-0.003632,1.406888,-2.356194
1.686442,-1.686642,1.684736,0.001906,1.511353,-2.356194
1.750172,-1.737745,1.728037,0.009708,1.629250,-2.356194
1.828664,-1.778450,1.760529,0.017921,1.761907,-2.356194
1.922109,-1.806601,1.781971,0.024630,1.909517,-2.356194
