3.141593,-1.570796,0.000000,-1.570796,0.000000,3.141593
0.912196,-0.385041,0.726037,2.800597,2.783983,0.785398
0.912187,-0.298431,0.547022,2.893002,2.729832,0.785398
0.910649,-0.166955,0.274688,3.033860,2.677203,0.785398
