3.141593,-1.570796,0.000000,-1.570796,0.000000,3.141593
1.233813,-1.439127,1.902617,-0.463490,1.077110,-2.356194
1.249779,-1.514766,1.986859,-0.472093,1.147242,-2.356194
1.274512,-1.589382,2.063174,-0.473792,1.226140,-2.356194
1.310477,-1.661908,2.130866,-0.468958,1.316272,-2.356194
1.360736,-1.730397,2.188983,-0.458586,1.420696,-2.356194
1.428780,-1.791775,2.236384,-0.444608,1.542905,-2.356194
1.517884,-1.841812,2.271847,-0.430036,1.686174,-2.356194
1.629705,-1.875634,2.294251,-0.418617,1.852161,-2.356194
