3.141593,-1.570796,0.000000,-1.570796,0.000000,3.141593
-1.232332,-1.336954,-2.454138,-2.492093,-0.812607,-2.356195
-1.118477,-1.320661,-2.465131,-2.497393,-0.644584,-2.356194
-1.009941,-1.317585,-2.467168,-2.498432,-0.481885,-2.356194
-0.911517,-1.328056,-2.460181,-2.494947,-0.329292,-2.356195
-0.826343,-1.350976,-2.444414,-2.487795,-0.189962,-2.356195
-0.755585,-1.384174,-2.420393,-2.478617,-0.065038,-2.356196
