3.141593,-1.570796,0.000000,-1.570796,0.000000,3.141593
2.242883,-1.506607,1.958402,-0.451794,0.867983,-2.356194
2.272075,-1.546709,2.000635,-0.453926,0.951341,-2.356194
2.307522,-1.583542,2.037720,-0.454178,1.040953,-2.356194
2.349680,-1.616285,2.069314,-0.453029,1.137276,-2.356194
2.398808,-1.644032,2.095078,-0.451046,1.240569,-2.356194
2.454856,-1.665857,2.114696,-0.448839,1.350784,-2.356194
2.517354,-1.680916,2.127901,-0.446985,1.467446,-2.356194
2.585353,-1.688559,2.134501,-0.445941,1.589612,-2.356194
