3.141593,-1.570796,0.000000,-1.570796,0.000000,3.141593
1.429357,-0.419506,0.585887,2.975212,0.358377,0.785398
1.397345,-0.484814,0.716123,2.910283,0.336232,0.785398
1.364996,-0.542542,0.830215,2.853920,0.314412,0.785398
1.332278,-0.595568,0.934113,2.803048,0.292963,0.785398
1.299153,-0.645398,1.030912,2.756078,0.271918,0.785398
1.265580,-0.692943,1.122465,2.712070,0.251332,0.785398
1.231510,-0.738800,1.209963,2.670429,0.231236,0.785398
1.196887,-0.783399,1.294239,2.630754,0.211687,0.785398
