3.141593,-1.570796,0.000000,-1.570796,0.000000,3.141593
1.965949,-1.813143,2.454950,-0.641806,1.337314,-2.356194
2.050911,-1.860903,2.485820,-0.624917,1.476441,-2.356194
2.160191,-1.893091,2.505105,-0.612015,1.639886,-2.356194
2.292601,-1.904840,2.511851,-0.607011,1.826462,-2.356194
2.441590,-1.894104,2.505694,-0.611589,2.029617,-2.356194
