3.141593,-1.570796,0.000000,-1.570796,0.000000,3.141593
1.817345,-1.863558,2.027376,-0.163818,0.908498,-2.356194
1.859927,-1.907058,2.056116,-0.149058,1.005247,-2.356194
1.914076,-1.944658,2.079410,-0.134752,1.113560,-2.356194
1.980959,-1.974671,2.096992,-0.122321,1.234608,-2.356194
2.060924,-1.995446,2.108643,-0.113197,1.368739,-2.356194
2.152995,-2.005642,2.114208,-0.108566,1.514975,-2.356194
2.254567,-2.004537,2.113610,-0.109073,1.670714,-2.356194
