3.141593,-1.570796,0.000000,-1.570796,0.000000,3.141593
-0.028487,-1.490935,-2.628633,0.977975,0.390401,0.785398
0.072812,-1.504383,-2.617093,0.979882,0.234929,0.785398
0.157142,-1.528857,-2.595201,0.982468,0.096444,0.785396
0.224358,-1.561613,-2.564081,0.984098,-0.024929,0.785403
0.276028,-1.599909,-2.525039,0.983355,-0.130755,0.785399
0.314458,-1.641524,-2.479377,0.979308,-0.223359,0.785399
0.342013,-1.684929,-2.428233,0.971569,-0.305087,0.785398
0.360799,-1.729161,-2.372555,0.960123,-0.378047,0.785399
