3.141593,-1.570796,0.000000,-1.570796,0.000000,3.141593
2.581513,-1.089911,1.295213,-0.205302,-2.689771,-2.356194
2.587246,-1.025698,1.196247,-0.170548,-2.629873,-2.356195
2.590301,-0.958734,1.089158,-0.130424,-2.572655,-2.356195
2.590988,-0.887813,0.971622,-0.083810,-2.517802,-2.356195
2.589573,-0.810919,0.839622,-0.028703,-2.465049,-2.356195
