3.141593,-1.570796,0.000000,-1.570796,0.000000,3.141593
0.334471,-1.787962,2.614357,-0.826396,0.468630,-2.356194
0.349886,-1.858513,2.657149,-0.798636,0.538211,-2.356194
0.379612,-1.930305,2.694111,-0.763806,0.622102,-2.356194
0.430364,-1.998445,2.723755,-0.725310,0.727019,-2.356194
