3.141593,-1.570796,0.000000,-1.570796,0.000000,3.141593
2.029966,-0.384542,0.433583,-0.049041,-0.274516,-2.356194
1.996866,-0.472247,0.608100,-0.135852,-0.253452,-2.356195
1.963360,-0.543270,0.747348,-0.204078,-0.232790,-2.356195
1.929407,-0.605871,0.868471,-0.262600,-0.212586,-2.356195
1.894960,-0.663320,0.978210,-0.314890,-0.192850,-2.356195
1.859964,-0.717335,1.080068,-0.362734,-0.173686,-2.356194
1.824357,-0.768933,1.176082,-0.407149,-0.155132,-2.356195
