3.141593,-1.570796,0.000000,-1.570796,0.000000,3.141593
-0.305314,-2.586134,-0.984702,0.429243,-0.286906,0.785398
-0.302393,-2.647926,-0.860051,0.366385,-0.343940,0.785398
-0.301283,-2.720087,-0.713766,0.292259,-0.399223,0.785398
-0.301827,-2.810886,-0.528641,0.197934,-0.452840,0.785398
-0.303882,-2.958651,-0.224888,0.041946,-0.504944,0.785398
