3.141593,-1.570796,0.000000,-1.570796,0.000000,3.141593
-1.511874,-2.162517,-1.392965,0.413889,-0.783866,0.785398
-1.518851,-2.222703,-1.291655,0.372765,-0.831055,0.785398
-1.527434,-2.285692,-1.182797,0.326897,-0.876636,0.785398
-1.537418,-2.352498,-1.064427,0.275331,-0.920817,0.785398
-1.548630,-2.424775,-0.933240,0.216422,-0.963771,0.785398
-1.560919,-2.505510,-0.783155,0.147072,-1.005647,0.785398
