3.141593,-1.570796,0.000000,-1.570796,0.000000,3.141593
0.903008,-1.517148,1.557555,-0.040407,-2.748089,-2.356195
0.919482,-1.450438,1.484560,-0.034123,-2.677453,-2.356195
0.930950,-1.383567,1.406587,-0.023021,-2.611821,-2.356195
0.938206,-1.316203,1.323232,-0.007029,-2.550399,-2.356195
0.941892,-1.247895,1.233853,0.014042,-2.492543,-2.356195
