3.141593,-1.570796,0.000000,-1.570796,0.000000,3.141593
-1.429667,-2.121240,-1.525648,0.505296,-0.618086,0.785398
-1.430550,-2.176012,-1.434201,0.468621,-0.671369,0.785398
-1.433645,-2.232987,-1.336667,0.428061,-0.722438,0.785398
-1.438675,-2.292704,-1.232019,0.383130,-0.771573,0.785398
-1.445400,-2.355980,-1.118659,0.333046,-0.819014,0.785398
-1.453615,-2.424113,-0.993986,0.276507,-0.864964,0.785398
-1.463143,-2.499352,-0.853422,0.211181,-0.909600,0.785399
