3.141593,-1.570796,0.000000,-1.570796,0.000000,3.141593
0.555995,-2.062053,-1.475196,0.395657,-0.737250,0.785398
0.548865,-2.119760,-1.384046,0.362214,-0.784283,0.785398
0.540105,-2.179211,-1.287182,0.324801,-0.829692,0.785398
0.529928,-2.241011,-1.183516,0.282935,-0.873677,0.785399
0.518513,-2.306033,-1.071390,0.235831,-0.916427,0.785398
0.506013,-2.375648,-0.948100,0.182156,-0.958093,0.785398
0.492558,-2.452238,-0.808837,0.119482,-0.998805,0.785398
