3.141593,-1.570796,0.000000,-1.570796,0.000000,3.141593
0.206508,-1.416435,1.853049,-0.436614,1.116652,-2.356194
0.237547,-1.462003,1.905777,-0.443774,1.201857,-2.356194
0.275378,-1.503785,1.951964,-0.448179,1.293853,-2.356194
0.320540,-1.540886,1.991227,-0.450340,1.393181,-2.356194
0.373346,-1.572282,2.023160,-0.450878,1.500152,-2.356194
0.433740,-1.596900,2.047369,-0.450469,1.614711,-2.356194
0.501170,-1.613744,2.063513,-0.449769,1.736307,-2.356194
0.574497,-1.622045,2.071343,-0.449299,1.863798,-2.356194
