3.141593,-1.570796,0.000000,-1.570796,0.000000,3.141593
1.390025,-1.649596,1.842667,-0.193071,1.269350,-2.356194
1.439840,-1.680780,1.870607,-0.189827,1.373331,-2.356194
1.497011,-1.705531,1.892026,-0.186495,1.484668,-2.356194
1.561120,-1.722995,1.906738,-0.183743,1.602942,-2.356194
1.631218,-1.732492,1.914599,-0.182107,1.727205,-2.356194
1.705815,-1.733627,1.915533,-0.181905,1.855967,-2.356194
1.782998,-1.726351,1.909527,-0.183176,1.987316,-2.356194
