3.141593,-1.570796,0.000000,-1.570796,0.000000,3.141593
0.133008,-1.435754,-2.408847,0.703008,0.656206,0.785398
0.238355,-1.428491,-2.414685,0.701583,0.496688,0.785398
0.336892,-1.433577,-2.410604,0.702589,0.343989,0.785398
0.425106,-1.450523,-2.396751,0.705682,0.201607,0.785398
0.501000,-1.477822,-2.373595,0.709825,0.071531,0.785398
0.564092,-1.513412,-2.341830,0.713649,-0.045698,0.785398
