3.141593,-1.570796,0.000000,-1.570796,0.000000,3.141593
1.529893,-0.465378,0.594624,3.012347,0.318142,0.785398
1.497030,-0.533074,0.727567,2.947100,0.296840,0.785398
1.463775,-0.592983,0.843756,2.890820,0.275928,0.785398
1.430090,-0.648099,0.949366,2.840326,0.255449,0.785398
1.395931,-0.699992,1.047606,2.793979,0.235450,0.785398
1.361244,-0.749607,1.140372,2.750828,0.215963,0.785398
1.325972,-0.797584,1.228915,2.710261,0.197071,0.785398
1.290045,-0.844374,1.314083,2.671883,0.178830,0.785398
