3.141593,-1.570796,0.000000,-1.570796,0.000000,3.141593
-1.136325,-2.475156,-1.124235,0.457798,-0.731760,0.785398
-1.145780,-2.533561,-1.009881,0.401849,-0.776468,0.785398
-1.156315,-2.597667,-0.883281,0.339354,-0.820097,0.785399
-1.167813,-2.670387,-0.738407,0.267202,-0.862766,0.785398
-1.180172,-2.758317,-0.561573,0.178297,-0.904574,0.785398
