3.141593,-1.570796,0.000000,-1.570796,0.000000,3.141593
2.406499,-1.789518,2.006430,-0.216912,2.401225,-2.356194
2.497907,-1.750619,1.976082,-0.225463,2.546800,-2.356194
2.581096,-1.705189,1.938560,-0.233371,2.684152,-2.356194
2.655074,-1.654740,1.894236,-0.239496,2.812298,-2.356194
2.719646,-1.600536,1.843468,-0.242932,2.931037,-2.356194
2.775159,-1.543553,1.786564,-0.243011,3.040718,-2.356194
