3.141593,-1.570796,0.000000,-1.570796,0.000000,3.141593
-0.859901,-1.142645,-2.507608,-2.632931,-0.296442,-2.356195
-0.711799,-1.144666,-2.506626,-2.631892,-0.094179,-2.356196
-0.588435,-1.170783,-2.493570,-2.618833,0.083350,-2.356194
-0.492900,-1.216420,-2.469081,-2.597684,0.233059,-2.356194
-0.422816,-1.275219,-2.434226,-2.573741,0.357311,-2.356194
-0.373489,-1.341391,-2.390278,-2.551516,0.460795,-2.356194
