3.141593,-1.570796,0.000000,-1.570796,0.000000,3.141593
1.622256,-1.526652,2.022791,-0.496139,0.829993,-2.356194
1.651891,-1.566577,2.063907,-0.497329,0.913792,-2.356194
1.688079,-1.603282,2.099972,-0.496690,1.004146,-2.356194
1.731332,-1.635881,2.130613,-0.494732,1.101564,-2.356194
1.781949,-1.663393,2.155459,-0.492066,1.206347,-2.356194
1.839889,-1.684816,2.174168,-0.489352,1.318452,-2.356194
1.904647,-1.699245,2.186457,-0.487211,1.437377,-2.356194
1.975178,-1.706002,2.192125,-0.486123,1.562072,-2.356194
