3.141593,-1.570796,0.000000,-1.570796,0.000000,3.141593
1.149610,-1.262923,2.031263,-0.768341,0.968295,-2.356194
1.160096,-1.323324,2.116920,-0.793596,1.032945,-2.356194
1.177591,-1.383189,2.196953,-0.813764,1.104607,-2.356194
1.203970,-1.442167,2.270696,-0.828529,1.185150,-2.356194
1.241607,-1.499430,2.337167,-0.837737,1.276952,-2.356194
1.293355,-1.553430,2.395054,-0.841623,1.382866,-2.356194
1.362311,-1.601640,2.442734,-0.841095,1.505986,-2.356194
1.451121,-1.640475,2.478405,-0.837930,1.648962,-2.356194
