3.141593,-1.570796,0.000000,-1.570796,0.000000,3.141593
-1.969926,-1.271730,-2.462271,-2.549184,-0.522403,-2.356195
-1.863479,-1.277029,-2.458994,-2.547162,-0.361787,-2.356194
-1.770319,-1.296267,-2.446827,-2.540090,-0.214467,-2.356195
-1.692426,-1.327435,-2.426185,-2.529566,-0.082401,-2.356194
-1.629755,-1.367794,-2.397700,-2.517693,0.034428,-2.356193
-1.580957,-1.414549,-2.362141,-2.506496,0.137389,-2.356194
-1.544110,-1.465331,-2.320307,-2.497547,0.228398,-2.356195
