j0,j1,j2,j3,j4,j5
0.0,-1.5707963267948966,0.0,-1.5707963267948966,0.0,0.0
-1.8682249416015193,-2.7295645195595255,-0.833301350036442,0.4224926248303102,-0.6823049329736613,0.7844581654466927
-1.8811557613460546,-2.8493050091477903,-0.5838156413678441,0.2904253866180916,-0.7512760446508352,0.786772278237962
