j0,j1,j2,j3,j4,j5
0.0,-1.5707963267948966,0.0,-1.5707963267948966,0.0,0.0
-0.2066220617270476,-2.047638721498025,-1.3479563543335613,3.3913087327826363,-6.066353275911635,3.931242986265656
-0.18465912768164344,-2.1289419517043973,-1.2218121797008674,3.3538738843775975,-5.961951747984871,3.923446174777512
-0.17020551058059835,-2.2226556987808954,-1.06941709103714,3.2934078559668376,-5.863967058022788,3.9251885019384956
-0.16203962038045824,-2.3304786381697937,-0.885438079838712,3.2153796322500017,-5.773087704260941,3.9265560183910106
-0.1592299776789666,-2.4618139575760165,-0.6493130424749219,3.1114854163810257,-5.687903713245186,3.926335258987482
-0.16091956071123983,-2.6777830731704126,-0.23511363499324056,2.9118782060067048,-5.607777391235558,3.92687729400422
2.7044239416001137,-0.2670817699096482,0.32445494731817615,3.085931937946148,-3.623840482463022,0.7872630611374798
