j0,j1,j2,j3,j4,j5
0.0,-1.5707963267948966,0.0,-1.5707963267948966,0.0,0.0
0.002587432618773046,-1.900338246085839,-1.4997151462880598,-2.8844267100988343,0.4512206419035126,-2.3543799754799855
0.014474792850920978,-1.989798048487418,-1.373680584929974,-2.919618838538845,0.5456997356792089,-2.355545777658491
0.018919426325129957,-2.0862895514626754,-1.2295008293792267,-2.967954331274216,0.6322165480559108,-2.35533172537288
0.017796594600088013,-2.19090399442394,-1.0631677215939088,-3.030273297691885,0.714096418583279,-2.3544461551439184
0.011671326763220012,-2.3079301130252805,-0.8663184679042133,-3.1082910458394593,0.7907446980477942,-2.3570466508102905
0.0014735945717139743,-2.4531142664689316,-0.6072598039294943,-3.222902257915546,0.862780828611313,-2.355640407715187
-0.01192606634817806,-2.6618208466437414,-0.6945888874551285,-6.067490743194225,-0.9333038914912326,0.7842077772900141
-0.027875871421390162,-2.860514503052188,-0.29515803432785165,-6.2704319806927264,-0.9994233774773001,0.786388704762111
