j0,j1,j2,j3,j4,j5
0.0,-1.5707963267948966,0.0,-1.5707963267948966,0.0,0.0
1.5611118055291013,-1.2598705009170716,1.3630601119154995,-0.10685924703351064,-3.013335242452827,-2.359167778403153
1.5821975528007013,-1.1689122559011715,1.2378851089642762,-0.07020606101399501,-2.911061689150798,-2.3566110350946654
1.5958945583924145,-1.0722803981738809,1.0957308631756768,-0.021030675282767145,-2.813992633742074,-2.3545323644528784
1.6032487986366366,-0.9701671093057057,0.9355974753028353,0.03260303006708577,-2.7231077798235583,-2.3578837697207997
-1.2318612247614595,-2.437566465235907,-0.4753155839206651,2.911548058098022,-5.393161420552099,-2.3557576384138152
-1.2528105016729054,-2.555689745044292,-0.7398739987830806,-6.128297750719934,-0.9515330000386635,0.7856872318294232
-1.275467785988643,-2.700559977240034,-0.45802916688908135,-6.266317166201737,-1.0104202410635312,0.785721763572529
