j0,j1,j2,j3,j4,j5
0.0,-1.5707963267948966,0.0,-1.5707963267948966,0.0,0.0
1.9085492194597038,-1.293533369121344,1.7292738829544634,-0.35400836950677356,-3.12885432042953,-2.2738436982134242
1.9383993100009123,-1.2332112440493923,1.6460477919040604,-0.4205253341960383,-3.0161683400255033,-2.3629142522052904
1.9590958594034635,-1.1524881312556365,1.5300235533725648,-0.38323499805677097,-2.9132370962120664,-2.360985822373183
1.9720295579260716,-1.0684107281604658,1.4031469067371518,-0.3321153786232549,-2.8174470734036685,-2.3530235161174304
1.978535914221382,-0.983407297114225,1.2682417424148997,-0.2836012043450583,-2.7278926471873275,-2.3543694391173413
1.979543663572628,-0.894420647567304,1.1202413462671876,-0.22638564802029695,-2.6436233899773667,-2.356109020040233
1.9762554377857486,-0.7982263540320454,0.9535664915688189,-0.15553684293375739,-2.5641394271337647,-2.3554201808706834
5.411936979176346,-2.4527344122701695,-0.7568576467516047,3.2091598621252535,0.9522243899175336,-2.3556707001927295
