j0,j1,j2,j3,j4,j5
0.0,-1.5707963267948966,0.0,-1.5707963267948966,0.0,0.0
4.254719849752342,-2.199048962211982,-1.5954985770775525,0.6538059304928281,5.423175626464197,0.7840130386590498
4.231385521405494,-2.2705747191497507,-1.4656600240614317,0.5940373925655752,5.363559467993946,0.7863905314065642
4.206522034921052,-2.344496134874283,-1.3283158720368429,0.5301243831416692,5.306692810302436,0.7851136155326447
-2.130989961679366,-2.4019158173185216,-0.7186361460469762,3.121339639805166,1.0871816028436145,3.926830250166371
-2.159977650245893,-2.978490899695265,0.45008128210883397,2.529230413039491,1.1413388065426513,3.925900877130815
0.6518941207231291,-0.02133317585718452,-0.22694737635820894,3.389653721416715,2.163669296586132,0.7860183951609647
