j0,j1,j2,j3,j4,j5
0.0,-1.5707963267948966,0.0,-1.5707963267948966,0.0,0.0
2.8258679715463915,-1.5601714429970281,2.349304683345061,-3.929799652341772,-2.927768013938834,0.7858541439050889
0.4320310064697193,-1.7538382618476538,-2.1519635404427855,0.7630593712645204,-0.6984319268367678,0.7864870278506544
0.422433826131665,-1.835438441823838,-2.0430789633053648,0.7363408771483163,-0.7703698834716634,0.7865785931895076
0.40672707558777643,-1.915968634411852,-1.927310052082148,0.7026450261545437,-0.8377951016805154,0.7840268870808971
0.3866687237666078,-1.9950465768892982,-1.8068556523497332,0.661134474138271,-0.9006107882808266,0.7839265278106791
0.36400902124969037,-2.07433312020812,-1.6800213075577397,0.6137629580506149,-0.9605414752537772,0.7849555830581988
0.33838439388872765,-2.1542605483844945,-1.5463520774765478,0.5600298874876212,-1.0183309854026465,0.7840301893882252
0.15822938174281845,-2.8021737896512784,-0.32648974766681405,-0.012988128097819579,-1.3348436476988323,0.7846754427624193
