j0,j1,j2,j3,j4,j5
0.0,-1.5707963267948966,0.0,-1.5707963267948966,0.0,0.0
-3.6500742095997736,-1.4900642731424314,1.6087413109549655,-0.12294592889525671,3.3625080968735626,-2.35957210868397
-3.61113558060419,-1.3878204738052826,1.4924233956969506,-0.10163350760015541,3.484026606516258,-2.3540206851758625
-3.584771245509057,-1.2859435004496893,1.36445068506101,-0.07859385549351273,3.5930420713818543,-2.3553071082144643
6.225357816907482,-2.0733043370605757,-1.056637220519257,3.1300084992385724,-5.279704814655922,3.9260283079055935
-0.07980020807160706,-3.0222709834045984,0.863901551830361,2.1583640554434176,1.0636389330344669,-2.355649634054772
-0.10442302676540993,-2.93189353078501,0.6171411476941315,2.3151082533882885,1.1221584773449471,-2.3560989447496032
-0.13015813995052672,-2.7355362823663247,0.15623634014746432,2.579262510556186,1.1769669595637895,-2.356616074116761
2.699436637489857,0.02773064946224668,-0.561495199321773,3.676143269149348,2.1926364574669908,-5.49709731037341
