j0,j1,j2,j3,j4,j5
0.0,-1.5707963267948966,0.0,-1.5707963267948966,0.0,0.0
-2.968889714467802,-1.1584459361845665,1.1293531029311383,0.030004166646954156,-2.788246738478836,-2.3543658074906086
-2.9556624828679774,-1.0505243872343244,0.9685836237678548,0.08009254094348482,-2.6915181931345997,-2.35709867830014
0.5292583839205565,-2.2533606350221547,-1.1941836422972474,-5.9761715063449445,-0.875644953761127,0.7839124385157076
0.5113294944510508,-2.3531051399072296,-1.01935136328319,-6.051522406586223,-0.9412699316172025,0.785426241289549
0.4912713886213095,-2.4654150836887423,-0.8153393353916207,-6.143844101689476,-1.0022385071351085,0.7855666656267368
0.46886309516019054,-2.6084271377305717,-0.544438602971589,-6.270506675663529,-1.0633946682971835,0.785076032344873
