j0,j1,j2,j3,j4,j5
0.0,-1.5707963267948966,0.0,-1.5707963267948966,0.0,0.0
0.4248532630628873,-1.9702756799670893,-1.1672348055274269,-3.144555625910819,0.8391668836962134,-2.356255055506098
0.39727051082787634,-2.060930065229739,-1.0342523767312735,-3.1871063834626283,0.89430118893997,-2.356212941291181
0.36866945386237815,-2.157455386054395,-0.8842168822043626,-3.24170750276328,0.947192679021116,-2.3559613639081505
0.33884465437941613,-2.2647515365956155,-0.7066916015246066,-3.3117691558868456,1.0021233833327088,-2.355697382248815
0.21289173667573089,-2.720950521941705,-0.3434177244729362,-0.07649229789502296,-1.2060027342321584,0.784540842785856
