j0,j1,j2,j3,j4,j5
0.0,-1.5707963267948966,0.0,-1.5707963267948966,0.0,0.0
-0.23312877087070788,-1.581521714105149,-1.6058489209615852,3.177810710290832,-6.1725165787832035,-2.3461317573192275
-0.15051330589817147,-1.6518352999575154,-1.5318611709377865,3.182069773254343,-6.006097535028702,-2.3540249143044085
-0.0885580683107593,-1.7404033609141454,-1.4312440767194008,3.1721876487529563,-5.861719421701734,-2.357464758067575
-0.04488308149743492,-1.8437016682756118,-1.303437244771101,3.1457181398548504,-5.736192628185758,-2.354059756717101
-0.015813639597277978,-1.9604591223510537,-1.1454518099642577,3.105240947008102,-5.624191498279952,-2.3550321202241875
0.0013835593785373355,-2.094286423427543,-0.9476858772963819,3.0412399295186803,-5.524490365088687,-2.3553049137376014
0.009539308242083629,-2.25760531485158,-0.6823523607615156,2.939930906089796,-5.432296574035948,-2.3567731194338264
0.010600612682347441,-2.543309067575078,-0.15646881446461677,2.700004744411048,-5.350922458719782,-2.3557637589257436
