j0,j1,j2,j3,j4,j5
0.0,-1.5707963267948966,0.0,-1.5707963267948966,0.0,0.0
1.5306875015796049,-1.0203325783252033,1.3050183668056958,-0.2857513831437674,3.6570562294378366,-2.356199400963582
1.5246435325101102,-0.9362351273306387,1.1681301129824855,-0.23366366633673818,3.73325806422022,-2.3570576439892497
4.980399637538825,-2.4682102407471462,-1.2152686203283725,0.5425627998855497,-0.9885645363025657,0.7842616976004478
-1.330805655154514,-3.200844521957412,0.844679879022672,2.357666892771286,-5.239866304037901,3.925337494183185
-1.35992799219068,-3.1160821303283277,0.6363429471534737,2.478865037194706,-5.1860782068661795,3.926987960303806
