j0,j1,j2,j3,j4,j5
0.0,-1.5707963267948966,0.0,-1.5707963267948966,0.0,0.0
-0.43256638397275204,-2.3715884637484455,-1.2520450729525114,0.48243766044788133,-0.7954551748249071,0.7850424838623337
-0.4504837543068216,-2.456092647593651,-1.0920211965339164,0.40531124753502173,-0.8602166149482897,0.78657035009967
-0.47046991430025425,-2.550568902289228,-0.9096141479086582,0.31772365726719654,-0.922743192000597,0.7866696292311652
-0.49251614239553426,-2.6627359264613384,-0.6888113790927727,0.20970959737924327,-0.9841485079572636,0.7846680516042384
-0.5157010946896731,-2.822674227017391,-0.36775388625832844,0.04978144957772516,-1.0425023443173473,0.7842008249671725
