j0,j1,j2,j3,j4,j5
0.0,-1.5707963267948966,0.0,-1.5707963267948966,0.0,0.0
4.467205605314868,-2.38467570090988,-1.503009797247029,0.7456206713312554,-0.8970290985008743,0.7865413366466019
4.451615049309445,-2.4623313206583273,-1.342024241294909,0.6639822925411073,-0.9633440837872234,0.7846919546231388
4.432995694651887,-2.5484615018562238,-1.1640743070702646,0.5715871615890835,-1.0280526041719076,0.7852116327753316
-1.8711157550428814,-3.2284694144294823,0.7839255637163655,-3.8380509774909064,1.0886657729874276,3.92574134159764
-1.8941644310170722,-3.0929163604711487,0.46914729733719185,-3.659307204301145,1.1480096572706575,3.927495619095316
