j0,j1,j2,j3,j4,j5
0.0,-1.5707963267948966,0.0,-1.5707963267948966,0.0,0.0
-0.0292154737788588,-2.2980695881541737,-0.9950263485295417,3.293246665046503,0.672028224128855,3.9269942941395657
-0.04148632477596713,-2.4080374569644394,-0.8008003097182166,3.2074824806240936,0.7418120711168822,3.9275567299267555
-0.05654859635689755,-2.5433416695536772,-0.5500297415647197,3.0936529367884376,0.8088004794796916,3.926270858940302
-0.09323415542937326,-3.0294836597741495,-0.057617098539206636,6.2293047880752495,-0.9391771164259772,0.7860191719293477
