j0,j1,j2,j3,j4,j5
0.0,-1.5707963267948966,0.0,-1.5707963267948966,0.0,0.0
-5.53690811622364,-2.091744626253542,-1.7107078225855334,-5.621429031219021,-0.9107052432201547,0.7845316777036296
-5.570278556102093,-2.1554600399127786,-1.6015156857830433,-5.666379758286676,-0.9596789244852808,0.7848403436587336
-5.604405866269594,-2.21977028619808,-1.4889901804111696,-5.7148769654675435,-1.0082247609311163,0.7855837374248065
-5.639023564255903,-2.284540724302881,-1.372552212855918,-5.7668083888888315,-1.0561901878718019,0.7843354335016128
-5.74460497858683,-3.0245673869097516,0.6332330944631261,-3.8925317266128676,1.1979750339053021,-2.355122108156612
-5.78040317093437,-2.9206170226418053,0.38672976743960474,-3.750063029910064,1.2450645354848688,-2.355135744663865
3.297301513375497,0.04624750365402658,-0.4317438286237272,-2.7558620148772617,-4.205534705684895,0.7861216362152642
