j0,j1,j2,j3,j4,j5
0.0,-1.5707963267948966,0.0,-1.5707963267948966,0.0,0.0
0.02232303919428519,-2.0966368743069452,-1.2764693054651457,-2.910196929336515,-5.480843753700437,-2.357100410790233
0.014229220255838369,-2.2053377105147405,-1.1019510693716428,-2.975882515081485,-5.405713713659341,-2.355756629108561
0.002151490855758425,-2.326611662289052,-0.8959575090016033,-3.060802375477942,-5.336505963283097,-2.3550862885903507
-0.01345432002863648,-2.4748243358991826,-0.6290141256231988,-3.178286530657342,-5.268995807077614,-2.35758641775638
2.821690130352634,-0.1616724201332869,0.11070945310380603,-3.091795921606416,-4.014270727348646,-5.498373386319481
