j0,j1,j2,j3,j4,j5
0.0,-1.5707963267948966,0.0,-1.5707963267948966,0.0,0.0
2.39857974889512,-1.3101562056486544,1.6776367458093402,-0.3714730829421238,-2.918727788722676,-2.3595040956746303
2.4078715176901335,-1.229622438671639,1.5699243531206892,-0.3373185967671646,-2.8268291094742746,-2.3524398364546313
2.4106023235461502,-1.150694688488663,1.4573552147101263,-0.30641141136551814,-2.7402801868730493,-2.3552544146744694
2.4081427443084453,-1.071281454294667,1.3382076100198814,-0.26754525970367676,-2.660528268928536,-2.3559930215912592
2.401222833923434,-0.9898078022018313,1.2095365226083983,-0.22084490357184414,-2.584433923015367,-2.357077555974279
-0.41777018140736455,-2.4054690155280793,-1.2864190928543628,0.5490382012082353,-0.9617181533602212,0.7864024839442068
-0.44714687856542945,-2.4765142124172166,-1.1472814187733107,0.4835815109976277,-1.014830906077986,0.7844985275089459
-0.5080728177593178,-3.0380713027114,0.509753431031948,-3.753511171859167,-5.16375446386094,3.9262537284296304
