j0,j1,j2,j3,j4,j5
0.0,-1.5707963267948966,0.0,-1.5707963267948966,0.0,0.0
-0.37546275088857956,-1.895951432939666,-1.4399854772293068,-2.948085045283568,0.3967148390835138,-2.3551748705934297
-0.3735180325442883,-1.9811180860269582,-1.3212096240672668,-2.9813429403046254,0.4830814010918537,-2.3550484075409184
-0.376495759783569,-2.070257115150902,-1.1890556045992067,-3.024234229062452,0.5604755072707982,-2.3563797313015686
-0.384323735623,-2.1667588098663173,-1.0377434019704126,-3.078282740410835,0.6376266198669349,-2.355973900208024
-0.3956236106408347,-2.27274997152579,-0.862132488669491,-3.147166895761215,0.7082823315307909,-2.3560991690117516
-0.40993354100407536,-2.399135381537371,-0.6408932971646533,-3.242817327436476,0.777186395024602,-2.357091354882953
-0.426525090336898,-2.5827991004350284,-0.29633911766858967,-3.403810970318705,0.8422685848845475,-2.355624364857321
-3.866774732310294,-0.43828129625238954,0.5469557956800821,-3.251291350495677,2.515920986926738,0.7838573674999455
