j0,j1,j2,j3,j4,j5
0.0,-1.5707963267948966,0.0,-1.5707963267948966,0.0,0.0
-1.5685317222766597,-2.4897917202327857,-1.0060086052282267,0.3554999025613096,-0.5027831505734437,0.7838806602087942
-1.576233144768262,-2.5888439250501043,-0.8147675495170537,0.26025357073921135,-0.5773296117810663,0.7876735454681566
-1.5869355073956,-2.7177439184775194,-0.5594626837511358,0.13730925560756288,-0.6488144712459515,0.7837906247972019
