j0,j1,j2,j3,j4,j5
0.0,-1.5707963267948966,0.0,-1.5707963267948966,0.0,0.0
1.8688451546718123,-1.714741031885636,1.8740369913885382,-0.15584192754173454,-2.994926515028988,-2.351811410846811
1.938184605611994,-1.6043136888738465,1.774670063440943,-0.16925838801396673,-2.842903046049547,-2.354146330200606
1.984782710385819,-1.4956089888755506,1.6632100875200682,-0.16927976552390334,-2.7146373293037556,-2.3579264692208457
-0.689028977867288,-2.017691415159093,-1.701523591978945,0.5769955112091603,5.2231580112102325,0.786200247998359
-0.7150701490498969,-3.1660728006057286,1.2468378178608055,1.918828524184324,1.118236624450846,-2.356299633290094
-0.7426596100109696,-3.119152195285153,1.07399944048824,2.046490249129925,1.1722396053773598,-2.3559053871123514
-0.7722919792262573,-3.0531619462302535,0.8691255911105296,2.1841079320950842,1.2253170272035834,-2.355373515216555
-0.8032226616367845,-2.9543398986223917,0.6048134718240139,2.349229394760557,1.278124766966466,-2.356194863246564
