j0,j1,j2,j3,j4,j5
0.0,-1.5707963267948966,0.0,-1.5707963267948966,0.0,0.0
2.6423278000875934,-1.226447111905328,1.5164021542550712,-0.2955703697448982,-2.9576646146076038,-2.361784568930234
2.6825252882840798,-1.1272352950122968,1.3744600993929317,-0.2511260109580356,-2.834531972602868,-2.3605180037983193
2.7117619006819855,-1.019855101733776,1.2106201340667304,-0.18835468296492375,-2.7224215613748024,-2.354075784149063
2.731825646152586,-0.904667788131422,1.0229266831370858,-0.11958963117810074,-2.6193841905721245,-2.3563694816054483
6.183546490070062,-2.5517898942876895,-0.4582023369138939,-3.2724869907635408,0.9976383306609222,-2.3561148710729167
