j0,j1,j2,j3,j4,j5
0.0,-1.5707963267948966,0.0,-1.5707963267948966,0.0,0.0
1.073925686026288,-1.0925904838957907,1.7035252373089758,2.5426729204837604,-3.045378936196114,0.7982153065976806
1.152976500054477,-0.9423025191457838,1.4528253864736225,2.6341974003599624,-3.289166960994136,0.7893418301541923
1.2087604866085728,-0.6636377419837369,0.946472897881419,2.8567996700563882,-3.5933289465459293,0.7830400197795631
1.2150795342987588,-0.5398130469312078,0.7095911483390829,2.973391153219551,-3.6830384730619605,0.7876051203638048
1.2167175296042916,-0.35417986927801653,0.3421506506838382,3.1538704393888985,-3.7658842490216378,0.7857105108380621
