j0,j1,j2,j3,j4,j5
0.0,-1.5707963267948966,0.0,-1.5707963267948966,0.0,0.0
-0.35657737800408884,-3.1815403254114667,1.0548461372278222,2.1226299745729884,0.2928906653866176,-2.352279211768516
-0.3509442287323119,-3.1245626458424867,0.8903187166865765,2.232164018931457,0.3812440788552659,-2.3545158089992397
-0.34998715510858763,-3.046076270203184,0.6847371193847783,2.3619239456763443,0.46526656502060326,-2.357235492714617
-0.3530829825805327,-2.916131352442651,0.3739802675025523,2.5401895554087006,0.5442601232690397,-2.35511437242314
-3.781624652533358,-0.4372750101577995,0.5728282440058279,-3.2739933943220323,-3.481692995977443,0.7885823379049294
