j0,j1,j2,j3,j4,j5
0.0,-1.5707963267948966,0.0,-1.5707963267948966,0.0,0.0
-0.3555742162221941,-2.0557677547932816,-1.5855933467096393,0.49686999353351635,0.18370272950264874,-5.495841314539764
-0.3129577340233301,-2.105053999508499,-1.506702918632485,0.4515149995362267,0.05756016992673714,-5.478528517921865
-0.27906121604428613,-2.167901135237132,-1.4038147874338975,0.4204741112793504,-0.05854313486695967,-5.488205593761005
-0.2528347374370229,-2.23935920295469,-1.2824020720223692,0.37576635333266606,-0.16804606249536436,-5.494313204037962
-0.2336447766072355,-2.3189807504331,-1.1433894674537035,0.31688283722215466,-0.26936081687978125,-5.494422595928422
-0.22087516328653312,-2.4119871725932693,-0.9752316714468835,0.24458692302714982,-0.3652290122251976,-5.497607565606408
-0.2134043973794936,-2.522093597923304,-0.7703848951557559,0.1479581889338991,-0.4553418606419481,-5.494339415665565
-0.21096124835027127,-2.675286343965794,-0.47402924708593375,0.00852551593051931,-0.5412471009862257,-5.498248052486399
