j0,j1,j2,j3,j4,j5
0.0,-1.5707963267948966,0.0,-1.5707963267948966,0.0,0.0
2.6059145160370623,-0.8330510510803917,1.2202187294567477,-0.38951419303183504,2.8085183055848058,-2.3586803559822673
2.666246194914609,-0.6714366174545557,0.9240187317152142,-0.2560731786616518,3.032700446381904,-2.3605009843977083
2.687633415423851,-0.5467925637141601,0.6867837186795274,-0.08934573117306122,3.1366506678492456,-2.305239078714422
2.7035517753249776,-0.40646337437445845,0.4108371186950684,0.007616539632271103,3.236508072597289,-2.3448182339988746
-0.16087431146659684,-3.183479821559926,0.02884038578853184,0.013560422665798672,5.827653513100553,0.7849163153333436
