j0,j1,j2,j3,j4,j5
0.0,-1.5707963267948966,0.0,-1.5707963267948966,0.0,0.0
-0.3780273433493139,-1.8958333076736944,-1.337154514495195,-3.053454097798827,0.2966801193491581,-2.3523795928728184
-0.3657544557698038,-1.982171241564828,-1.2172811759821862,-3.0852730443575753,0.3911946477684298,-2.3538289393649494
-0.3599993428743094,-2.0765506991534073,-1.0773850809778647,-3.1284623181189404,0.48137262769024164,-2.3562811403995125
-0.3599725930553538,-2.181327220752578,-0.9124428837063808,-3.1892170920649914,0.5642814653530042,-2.356198866283935
-0.36451094068477646,-2.303599524913777,-0.7075759892869563,-3.2722465545049992,0.6422450954450348,-2.3551674524567763
-0.372588080831967,-2.4669558793928825,-0.4127752323397795,-3.4027632039631124,0.7154779062564335,-2.3566867449061384
-0.39833828633279317,-3.0813217721580917,0.337763380591575,-0.39887076487570694,-0.8552952015940277,-5.4982280808144885
