j0,j1,j2,j3,j4,j5
0.0,-1.5707963267948966,0.0,-1.5707963267948966,0.0,0.0
-1.2939091112653707,-1.8100149240237648,-1.5191700770580105,-2.9540472223197742,0.725450215181299,-2.3557777105082423
-1.3191131762676758,-1.8928708454016208,-1.41110499144384,-2.9796137350196745,0.7847953644297926,-2.3554662382851235
-1.34546936453127,-1.9751786946013523,-1.2965807750027236,-3.010843382570536,0.8397618540472114,-2.3557686634490036
-1.3736963683564847,-2.1976315034390987,-1.4602480002795721,-5.766142356098025,-0.8948127548666667,0.7856429081374989
-1.4029945054157809,-2.267895211819132,-1.3370543681312002,-5.819041884428431,-0.9477227853220324,0.7842969660334065
4.787205857288273,-2.9280913085408393,0.4766578067744229,2.4514988103381143,-5.179778558799349,3.926983074783966
4.72261889250737,-3.199040402448161,0.5195577619337656,5.821530909398958,5.0799909018617555,0.784739402793386
4.689458537203174,-3.001130039511776,0.09361188859577554,6.049523882968652,5.029101715647942,0.7858652259083619
