j0,j1,j2,j3,j4,j5
0.0,-1.5707963267948966,0.0,-1.5707963267948966,0.0,0.0
-1.8411091069299346,-2.01966912047904,-1.4249969049622397,-2.8434297536825204,0.13479795248614945,-2.3514917010982774
-1.8064934250992042,-2.094880147350858,-1.310259351513164,-2.87800006446777,0.2513701233407363,-2.3567266433613945
-1.7635014463350331,-2.281830050337326,-1.003352243929229,-2.99653734075785,0.46048348376241693,-2.3583755125076244
-1.7525095710633538,-2.4025259887100905,-0.7914635164612979,-3.0909809232039107,0.5533320645355758,-2.354339968657593
-1.7474031730988653,-2.563244380960239,-0.49269753168251734,-3.2257444408948164,0.6419856381713411,-2.356699192355551
