j0,j1,j2,j3,j4,j5
0.0,-1.5707963267948966,0.0,-1.5707963267948966,0.0,0.0
0.06643326971222499,-2.05509470545811,-1.7647793628428081,0.67934807428131,-0.9580197918683677,0.7849727935762284
0.05005524859233838,-2.1448099061250696,-1.6142368026515106,0.6162523443025694,-1.0243124707702693,0.7867324912443943
