j0,j1,j2,j3,j4,j5
0.0,-1.5707963267948966,0.0,-1.5707963267948966,0.0,0.0
-1.314572440294581,-1.9468054542249271,-1.6622558222883708,-2.674343893647814,0.5892694560447869,-2.355061112802292
-1.326371353501736,-2.0244864865889918,-1.546550945626387,-2.710087850402313,0.6613634559708198,-2.3580596229984745
-1.3414940098379446,-2.10469547668103,-1.421871109727825,-2.757515125250661,0.729093191626629,-2.3565176919874604
-1.3594350974917677,-2.1859606333977295,-1.289339106850525,-2.807534783783328,0.7924553186640398,-2.355933923590546
-1.3800335770629364,-2.272176044153849,-1.1435099610424397,-2.8672806484106728,0.8551129149719886,-2.3559493015407926
-1.4024988344829556,-2.3641240510352897,-0.9818654154058415,-2.9362670052824513,0.9154974080859377,-2.3574657596940534
-1.426514267591441,-2.467307248896189,-0.7935777225201825,-3.020991604959518,0.9745208905757992,-2.3573029138161337
-1.4519213669135311,-2.59298624006673,-0.5561898611869813,-3.1328983672464936,1.0315713367223227,-2.357330938248859
