j0,j1,j2,j3,j4,j5
0.0,-1.5707963267948966,0.0,-1.5707963267948966,0.0,0.0
2.528060069083357,-0.961962207575596,1.3977586828072819,-0.41769956013011034,-3.10297361284785,-2.3374780837278695
2.557462729085941,-0.8816689083092782,1.2600923365715464,-0.3743062050768481,-2.990893807747723,-2.352566342407425
2.5798029888716005,-0.7917068143779967,1.1005599004087985,-0.3126368230416944,-2.8862195840116582,-2.3602498684520152
2.5951379646505184,-0.686478632291713,0.9079427626846569,-0.224283543551441,-2.7878549593130817,-2.358584981877251
2.6049191136734073,-0.556383952584622,0.6619882602243643,-0.10490133544864291,-2.6949168718250545,-2.3547539347684783
