0.000000 0.000000
0.000000 0.000000
0.000000 0.000000
0.007500 0.715000
-0.001667 0.735000
0.025833 0.735000
0.025833 0.695000
0.025833 0.655000
0.025833 0.615000
0.025833 0.575000
0.025833 0.535000
0.025833 0.495000
0.025833 0.455000
0.025833 0.415000
0.025833 0.375000
0.025833 0.335000
0.025833 0.295000
0.025833 0.255000
0.025833 0.235000
0.025833 0.215000
