0.000000 0.000000
0.000000 0.000000
0.000000 0.000000
0.009419 0.661479
0.009459 0.681543
0.009459 0.661543
0.028067 0.686122
0.028067 0.686122
0.028067 0.686122
0.028067 0.686122
0.028067 0.686122
0.028067 0.686122
0.028067 0.686122
0.028067 0.686122
0.028067 0.686122
0.028067 0.686122
0.028067 0.686122
0.028067 0.686122
0.028067 0.666122
0.028067 0.666122
0.028067 0.666122
0.028067 0.666122
0.028067 0.666122
0.028067 0.666122
0.028067 0.686122
0.028067 0.666122
0.028067 0.666122
0.028067 0.666122
0.028067 0.666122
0.028067 0.646122
0.028067 0.646122
0.028067 0.666122
0.028067 0.666122
0.028067 0.646122
0.028067 0.666122
0.028067 0.666122
0.028067 0.666122
0.028067 0.686122
0.009459 0.661543
0.028067 0.686122
