0.000000 0.000000
0.000000 0.000000
0.000000 0.000000
-0.010679 0.009698
0.026272 0.027990
0.044250 0.028142
0.044390 0.037434
0.044390 0.037434
0.044390 0.037434
0.044390 0.037434
0.043992 0.037488
0.034721 0.046646
0.080816 0.064947
0.053230 0.064921
0.080644 0.037408
0.080644 0.037408
0.080644 0.037408
0.080644 0.037408
0.080644 0.037408
0.080644 0.037408
0.108440 0.083155
0.108420 0.101476
0.108440 0.083155
0.108440 0.083155
0.108440 0.083155
0.062767 0.101418
0.062767 0.101418
0.099514 0.064810
0.117949 0.064795
0.117949 0.064795
0.117949 0.064795
0.117860 0.064774
0.117860 0.064774
0.136252 0.073870
0.136086 0.064774
0.117860 0.064774
0.117860 0.064774
0.117860 0.064774
0.136086 0.064774
0.136086 0.064774
