0.000000 0.000000
0.000000 0.000000
0.000000 0.000000
-0.020000 0.016667
0.025833 0.025833
0.044167 0.025833
0.080833 0.035000
0.080833 0.035000
0.080833 0.035000
0.080833 0.035000
0.080833 0.035000
0.080833 0.035000
0.080833 0.035000
0.044167 0.035000
0.044167 0.035000
0.044167 0.035000
0.044167 0.035000
0.035000 0.035000
0.035000 0.035000
0.035000 0.035000
