0.000000 0.000000
0.000000 0.000000
0.000000 0.000000
-0.003409 -0.009610
0.015074 -0.000262
0.014852 -0.000189
0.015074 -0.000262
0.052100 0.009090
0.042999 0.018275
0.042762 0.018359
0.042762 0.018359
0.061180 0.018530
0.061180 0.018530
0.042999 0.018275
0.043342 0.027656
0.043342 0.027656
0.043342 0.027656
0.043342 0.027656
0.043342 0.027656
0.043342 0.027656
0.043342 0.027656
0.043342 0.027656
0.043342 0.027656
0.043342 0.027656
0.043342 0.027656
0.043342 0.027656
0.043342 0.027656
0.043342 0.027656
0.043342 0.027656
0.043342 0.027656
0.043342 0.027656
0.043342 0.027656
0.043342 0.027656
0.043342 0.027656
0.043342 0.027656
0.043342 0.027656
0.043342 0.027656
0.043342 0.027656
0.043342 0.027656
0.043342 0.027656
