0.000000 0.000000
0.000000 0.000000
0.000000 0.000000
0.018847 0.099755
0.037304 0.044723
0.037304 0.044723
0.037304 0.044723
0.037304 0.044723
0.037304 0.044723
0.037304 0.044723
0.037304 0.044723
0.037249 0.044934
0.037249 0.044934
0.037249 0.044934
0.037124 0.054491
0.037277 0.091019
0.037379 0.054091
0.055732 0.044703
0.073983 0.063210
0.073983 0.063210
0.046527 0.072284
0.046527 0.072284
0.046527 0.072284
0.064778 0.072415
0.073879 0.044808
0.064576 0.081691
0.064576 0.081691
0.064576 0.081691
0.064539 0.054217
0.064443 0.054111
0.046101 0.072519
0.046101 0.072519
0.064443 0.054111
0.055173 0.072463
0.055173 0.072463
0.055179 0.054165
0.055179 0.054165
0.055179 0.054165
0.036924 0.044952
0.036924 0.044952
