0.000000 0.000000
0.000000 0.000000
0.000000 0.000000
0.016667 0.126667
0.035000 0.117500
0.035000 0.163333
0.035000 0.154167
0.035000 0.154167
0.035000 0.181667
0.035000 0.172500
0.053333 0.163333
0.062500 0.145000
0.035000 0.126667
0.044167 0.090000
0.053333 0.117500
0.071667 0.117500
0.090000 0.090000
0.126667 0.090000
0.135833 0.090000
0.126667 0.080833
