0.000000 0.000000
0.000000 0.000000
0.000000 0.000000
-0.021319 0.009128
0.043342 0.027656
0.080256 0.027932
0.080256 0.027932
0.098541 0.028117
0.098541 0.028117
0.061713 0.028146
0.034144 0.046491
0.034144 0.046491
0.034144 0.046491
0.034144 0.046491
0.034144 0.046491
0.034144 0.046491
0.034144 0.046491
0.034144 0.046491
0.034144 0.046491
0.034144 0.046491
