0.000000 0.000000
0.000000 0.000000
0.000000 0.000000
-0.001667 0.190833
0.035000 0.190833
0.044167 0.145000
0.053333 0.135833
0.053333 0.135833
0.044167 0.126667
0.053333 0.154167
0.035000 0.135833
0.044167 0.145000
0.053333 0.145000
0.080833 0.181667
0.071667 0.154167
0.062500 0.135833
0.062500 0.117500
0.053333 0.117500
0.044167 0.154167
0.062500 0.172500
0.062500 0.172500
0.044167 0.181667
0.080833 0.145000
0.071667 0.181667
0.071667 0.190833
0.071667 0.190833
0.053333 0.235000
0.053333 0.275000
0.053333 0.315000
0.080833 0.330000
