0.000000 0.000000
0.000000 0.000000
0.000000 0.000000
0.025833 0.145000
0.035000 0.163333
0.035000 0.163333
0.044167 0.145000
0.035000 0.135833
0.044167 0.117500
0.071667 0.154167
0.080833 0.181667
0.090000 0.190833
0.090000 0.163333
0.062500 0.145000
0.071667 0.190833
0.099167 0.225000
0.080833 0.225000
0.053333 0.260000
0.062500 0.310000
0.108333 0.320000
