0.000000 0.000000
0.000000 0.000000
0.000000 0.000000
-0.001667 0.035000
0.035000 0.044167
0.035000 0.062500
0.035000 0.035000
0.035000 0.062500
0.044167 0.090000
0.044167 0.080833
0.053333 0.071667
0.035000 0.071667
0.044167 0.099167
0.035000 0.080833
0.035000 0.062500
0.044167 0.080833
0.071667 0.062500
0.090000 0.099167
0.080833 0.080833
0.108333 0.080833
