0.000000 0.000000
0.000000 0.000000
0.000000 0.000000
-0.001667 0.044167
0.035000 0.062500
0.071667 0.080833
0.062500 0.099167
0.035000 0.108333
0.080833 0.099167
0.090000 0.099167
0.099167 0.080833
0.117500 0.062500
0.099167 0.044167
0.108333 0.053333
0.099167 0.099167
0.080833 0.145000
0.090000 0.181667
0.117500 0.190833
0.117500 0.230000
0.145000 0.205000
