0.000000 0.000000
0.000000 0.000000
0.000000 0.000000
0.015017 -0.000417
0.014852 -0.000189
0.051666 0.009063
0.042762 0.018359
0.042762 0.018359
0.061066 0.018553
0.061066 0.018553
0.079457 0.027766
0.106839 0.036953
0.106839 0.036953
0.106839 0.036953
0.106839 0.036953
0.106839 0.036953
0.106839 0.036953
0.106839 0.036953
0.106839 0.036953
0.106839 0.036953
0.106839 0.036953
0.106839 0.036953
0.106839 0.036953
0.106839 0.036953
0.079457 0.027766
0.079457 0.027766
0.079457 0.027766
0.079457 0.027766
0.079457 0.027766
0.079457 0.027766
