0.000000 0.000000
0.000000 0.000000
0.000000 0.000000
0.005610 -0.009376
0.024081 0.009127
0.061066 0.018553
0.042827 0.037054
0.042827 0.037054
0.042827 0.037054
0.042827 0.037054
0.042827 0.037054
0.042827 0.037054
0.042827 0.037054
0.042827 0.037054
0.042827 0.037054
0.042827 0.037054
0.042827 0.037054
0.042827 0.037054
0.042827 0.037054
0.042827 0.037054
0.042827 0.037054
0.042827 0.037054
0.042827 0.037054
0.042827 0.037054
0.042827 0.037054
0.061312 0.037149
0.061312 0.037149
0.061312 0.037149
0.061312 0.037149
0.061312 0.037149
0.061312 0.037149
0.061312 0.037149
0.061312 0.037149
0.061312 0.037149
0.088895 0.046387
0.134614 0.046326
0.162340 0.037258
0.125459 0.037164
0.125459 0.037164
0.134614 0.046326
