0.000000 0.000000
0.000000 0.000000
0.000000 0.000000
0.007206 0.009710
0.053176 0.028179
0.034990 0.037473
0.043992 0.037488
0.043992 0.037488
0.043992 0.037488
0.043992 0.037488
0.043992 0.037488
0.043992 0.037488
0.080633 0.037480
0.108087 0.046653
0.163334 0.037500
0.117058 0.074097
0.117058 0.074097
0.062084 0.083233
0.034596 0.064915
0.034596 0.064915
0.071248 0.083217
0.108231 0.092374
0.135884 0.101533
0.172669 0.083228
0.172669 0.083228
0.108276 0.064908
0.117466 0.074014
0.117466 0.074014
0.136086 0.064774
0.136086 0.064774
0.163692 0.092171
0.182027 0.110424
0.163692 0.092171
0.163729 0.064758
0.163457 0.064895
0.181834 0.055795
0.181834 0.055795
0.172719 0.037473
0.181834 0.055795
0.181641 0.074103
