0.000000 0.000000
0.000000 0.000000
0.000000 0.000000
0.009372 0.054919
0.037059 0.045543
0.037155 0.036231
0.037266 0.063544
0.046357 0.082038
0.055457 0.063810
0.055379 0.082248
0.045994 0.091675
0.045994 0.091675
0.073472 0.082504
0.036578 0.082686
0.045778 0.055154
0.073186 0.073590
0.036418 0.064470
0.036418 0.064470
0.073186 0.073590
0.091608 0.045979
0.091608 0.045979
0.073233 0.055161
0.073233 0.055161
0.100828 0.036749
0.073233 0.055161
0.064110 0.045981
0.064110 0.045981
0.064110 0.045981
0.064110 0.045981
0.045584 0.045974
0.064098 0.064316
0.045745 0.073374
0.045651 0.064148
0.073239 0.091702
0.063975 0.054928
0.063975 0.054928
0.063975 0.054928
0.045563 0.045777
0.082277 0.036489
0.091451 0.036400
