 global thread_handler_1 = run Force_properties_calculation_thread_1()

    $ "Waypoint_1"

    movej(p[-0.09,-0.4,0.5,1.4,-0.6,0.3], a=1.0, v=0.1)

    textmsg("bok")


    $ "Waypoint_2"

    movej(p[-0.06,-0.6,0.5,1.4,-0.6,0.3], a=1.0, v=0.1)

