def zatvaranje():
    force_mode(tool_pose(), [1, 1, 0, 0, 0, 0], [0.0, 0.0, 0.0, 0.0, 0.0, 0.0], 2, [0.2, 0.2, 0.1, 0.35, 0.35, 0.35]) 
    movej(get_inverse_kin(p[-0.023,-0.385,0.593,1.443,0.671,-0.659], qnear=[5,-1.41,-1.26,2.69,-1.3,-0.86]),a=1.4,v=0.5)
    movej(get_inverse_kin(p[-0.023,-0.575,0.593,1.443,0.671,-0.659], qnear=[4.89,-1.9,-0.72,2.64,-1.41,-0.86]),a=1.4,v=0.5)
end

zatvaranje()