=======
0	31.000000
1	24.000000
=======
0	23.000000
=======
0	32.000000
=======
0	32.000000
=======
0	63.000000
=======
0	523.000000
=======
0	16.000000
=======
0	16.000000
=======
0	31.000000
=======
0	32.000000
=======
0	16.000000
=======
0	16.000000
=======
0	16.000000
=======
0	16.000000
=======
0	16.000000
=======
0	16.000000
=======
0	16.000000
=======
0	15.000000
=======
0	15.000000
=======
0	15.000000
=======
0	16.000000
=======
0	15.000000
=======
0	16.000000
=======
0	16.000000
=======
0	16.000000
=======
0	16.000000
=======
0	15.000000
=======
0	16.000000
=======
0	15.000000
=======
0	16.000000
=======
0	16.000000
1	0.000000
=======
0	16.000000
=======
0	15.000000
=======
0	32.000000
=======
0	31.000000
=======
0	31.000000
=======
0	16.000000
=======
0	16.000000
=======
0	31.000000
=======
0	16.000000
=======
0	16.000000
1	16.000000
2	15.000000
3	15.000000
=======
0	15.000000
1	16.000000
2	16.000000
3	47.000000
=======
0	16.000000
=======
0	16.000000
1	16.000000
=======
0	16.000000
=======
0	16.000000
=======
0	16.000000
1	15.000000
2	16.000000
=======
0	15.000000
1	63.000000
2	16.000000
3	63.000000
4	31.000000
5	63.000000
6	16.000000
7	31.000000
8	46.000000
9	16.000000
10	16.000000
11	14.000000
12	16.000000
13	47.000000
14	15.000000
15	63.000000
16	63.000000
17	16.000000
18	62.000000
19	16.000000
20	63.000000
=======
0	15.000000
1	31.000000
2	0.000000
3	0.000000
4	0.000000
5	0.000000
6	0.000000
7	0.000000
8	10.000000
9	0.000000
10	0.000000
11	0.000000
12	0.000000
13	0.000000
14	0.000000
15	0.000000
=======
0	110.000000
1	94.000000
2	109.000000
3	94.000000
4	94.000000
5	94.000000
6	94.000000
7	94.000000
8	94.000000
9	94.000000
10	93.000000
11	93.000000
12	94.000000
13	93.000000
14	93.000000
15	93.000000
16	93.000000
17	94.000000
18	94.000000
=======
0	156.000000
1	109.000000
2	94.000000
3	94.000000
4	94.000000
5	93.000000
6	94.000000
7	94.000000
=======
0	125.000000
1	141.000000
2	94.000000
3	94.000000
4	94.000000
5	93.000000
6	94.000000
7	94.000000
8	94.000000
9	109.000000
10	94.000000
11	93.000000
=======
0	125.000000
1	94.000000
2	94.000000
3	94.000000
4	93.000000
5	94.000000
6	94.000000
7	94.000000
8	94.000000
9	94.000000
=======
0	110.000000
1	93.000000
2	93.000000
3	94.000000
4	110.000000
5	94.000000
6	94.000000
7	140.000000
8	94.000000
9	94.000000
10	94.000000
11	94.000000
=======
0	15.000000
1	0.000000
2	0.000000
3	0.000000
4	0.000000
5	0.000000
6	0.000000
7	31.000000
8	0.000000
9	0.000000
10	0.000000
11	0.000000
12	0.000000
13	0.000000
14	0.000000
=======
0	16.000000
=======
0	14.485900
1	27.633699
2	9.403300
3	10.323600
4	9.220700
5	10.667600
6	10.233600
7	9.497200
8	9.584000
9	9.663700
10	9.163300
11	9.740100
12	9.751500
13	10.057500
14	9.791400
15	11.579500
16	9.746900
17	10.132900
18	34.765701
19	9.542400
20	10.072000
21	9.478500
22	9.715500
23	8.893900
24	9.648500
25	9.807200
26	9.690700
27	9.443600
28	9.831500
29	9.798000
30	9.262400
31	9.274500
32	9.395900
33	10.352200
34	9.268600
35	9.800300
36	9.629800
37	8.851900
38	9.231900
39	9.613400
40	9.545000
41	9.894500
42	9.558800
43	9.477500
44	9.285000
45	9.343300
46	10.207000
47	9.786800
48	9.960100
49	9.503300
50	9.911600
51	9.184000
52	10.249200
53	9.687800
54	9.688900
55	9.043500
56	9.929500
57	9.033500
58	9.634400
59	10.004400
60	10.439000
61	9.732100
62	10.419900
63	9.496900
64	9.287900
65	9.727300
66	9.854100
67	10.068100
68	9.394100
69	10.175700
70	10.481200
71	10.807400
72	31.874100
73	10.334700
74	10.004500
75	10.036500
76	9.545200
77	9.731600
78	9.646900
79	10.366800
80	28.489599
81	10.214900
82	10.948600
83	10.276100
84	10.260800
85	9.596900
86	10.911900
87	11.222600
88	9.908500
89	11.541500
90	12.375700
91	37.170502
92	10.393400
93	11.202600
94	10.108300
95	10.551000
96	10.369000
97	35.005798
98	10.157000
99	10.350300
100	9.554700
101	10.019400
102	10.198900
103	12.521400
104	10.362200
105	10.464700
106	10.268600
107	9.774300
108	11.018000
109	10.271600
110	12.189600
111	10.290000
112	9.994900
113	10.092200
114	27.651600
115	10.495700
116	10.654800
117	10.189700
118	11.201900
119	10.878500
120	10.349900
121	10.476200
122	10.875100
123	11.038000
124	10.275800
125	36.684101
126	10.289200
127	10.331100
128	10.284300
129	10.033600
130	10.754100
131	10.556200
132	38.266102
133	37.009800
134	10.549400
135	9.909500
136	10.134800
137	10.144700
138	9.961100
139	10.905500
140	42.424400
141	10.431500
142	11.379100
143	10.463800
144	11.717100
145	10.761800
146	10.912200
147	10.499700
148	11.525800
149	10.285000
150	10.169700
151	10.916400
152	38.294201
153	10.376500
154	11.599900
155	9.998700
156	10.988700
157	10.728000
158	11.880800
159	10.780400
160	11.714300
161	10.471600
162	10.298100
163	10.805300
164	9.813000
165	10.401500
166	10.200300
167	10.890900
168	9.955200
169	11.349600
170	43.626701
171	11.182100
172	10.471900
173	10.244000
174	9.800500
175	10.693300
176	10.187700
177	10.039200
178	11.032800
179	11.627200
180	10.410200
181	10.815200
182	10.028600
183	10.595800
184	38.872101
185	10.880200
186	10.411500
187	11.626800
188	11.404800
189	13.931600
190	11.833200
191	11.424700
192	11.937600
193	12.232500
194	12.291400
195	11.719300
196	12.097000
197	11.129400
198	12.602100
199	11.577900
200	11.870500
201	12.118600
202	12.383600
203	12.931500
204	12.100200
205	12.511200
206	13.235500
207	25.983200
208	14.733000
209	22.045300
210	13.473500
211	13.560900
212	13.183700
213	16.134501
214	14.484000
215	12.919700
216	12.784300
217	42.743198
218	13.387000
219	47.070202
220	14.573400
221	13.624400
222	13.405200
223	13.485200
224	49.047600
225	14.870300
226	13.029000
227	13.198000
228	12.898100
229	13.310100
230	12.676300
231	12.897000
232	13.046600
233	13.728800
234	12.746100
235	13.341700
236	14.052300
237	13.540300
238	13.030700
239	31.989799
240	11.948600
241	11.854800
242	38.661098
243	13.044300
244	47.500599
245	12.356200
246	11.547900
247	11.314800
248	12.195800
249	11.815600
250	11.074600
251	10.935100
252	10.672800
253	11.025700
254	10.948100
255	10.420200
256	12.558900
257	10.639900
258	12.556700
259	10.867300
260	11.293000
261	10.582700
262	10.776500
263	10.452800
264	11.156100
265	10.672500
266	11.343800
267	10.726000
268	10.830200
269	10.537400
270	11.313600
271	12.724900
272	10.277300
273	10.133400
274	10.378600
275	10.165900
276	10.384500
277	10.919500
278	9.892900
279	10.987500
280	10.366500
281	10.936100
282	10.008300
283	10.244200
284	10.405400
285	10.834200
286	10.205100
287	10.119800
288	39.308102
289	11.885900
290	10.290600
291	10.865100
292	11.183500
293	10.456400
294	10.544700
295	10.533000
296	10.906700
297	10.460000
298	9.680100
299	10.069800
300	10.976200
301	10.461900
302	11.021100
303	10.730100
304	10.407100
305	9.901400
306	37.575100
307	10.590700
308	10.571200
309	9.853500
310	11.058300
311	10.284300
312	10.308200
313	10.624400
314	40.327900
315	10.771800
316	10.530500
317	10.783400
318	40.522499
319	11.366300
320	11.207900
321	11.639700
322	11.016100
323	11.814000
324	11.923200
325	11.117800
326	11.315600
327	11.477400
328	12.261800
329	11.225000
330	12.512600
331	11.457200
332	10.684500
333	15.908000
334	12.255900
335	11.224700
336	12.090500
337	12.283700
338	11.155000
339	15.740500
340	10.207200
341	10.464500
342	10.893500
343	10.632900
344	10.915000
345	11.161400
346	10.620900
347	10.456200
348	10.545700
349	10.874800
350	9.968200
351	10.286100
352	9.805600
353	10.474400
354	11.367000
355	11.738800
356	10.624000
357	12.334400
358	12.601500
359	11.415100
360	11.086500
361	12.739500
362	10.933400
363	11.706400
364	10.533900
365	14.668900
366	10.439800
367	10.158600
368	11.296200
369	11.291500
370	10.486000
371	11.503100
372	13.410000
373	12.339800
374	11.887800
377	12.664600
379	12.960800
380	11.885700
381	11.793400
382	12.509500
383	11.032600
384	11.455700
385	10.999700
386	11.769000
387	11.644600
388	11.032800
389	12.747300
390	11.547000
391	11.853400
392	11.635600
393	11.617900
394	10.681900
395	10.739800
396	38.702000
397	12.430900
398	13.515100
399	10.804000
400	10.946400
401	37.119400
402	10.865600
403	10.448600
404	9.487700
405	9.686000
406	10.156600
407	9.486500
408	10.265500
409	10.708600
410	11.872000
411	10.845000
412	11.563500
415	13.287900
419	12.179200
420	11.833100
421	11.099800
422	11.595900
423	11.091000
424	11.183700
425	11.961900
426	11.589500
427	12.357400
428	12.450700
429	11.824200
432	11.727800
433	11.012700
438	10.523200
439	11.357700
440	10.539700
441	10.884600
442	11.013100
443	10.218700
448	13.382300
449	14.418300
450	12.021200
474	11.551000
475	11.997200
479	12.904300
487	11.305300
488	6.961300
489	8.292000
1203	5.077400
1204	6.044600
1205	5.698800
1206	6.133200
1207	6.312100
1208	6.563900
1209	7.391000
1210	8.505000
1211	7.356100
1212	7.962500
1213	7.575700
1214	9.446400
1215	7.897600
1216	8.114500
1217	11.028600
1218	8.618900
1219	7.830200
1220	8.086500
1221	7.623200
1222	8.239300
1223	7.928200
1224	8.123100
1225	9.013300
1226	8.097900
1227	8.447000
1228	7.870200
1229	8.304200
1230	32.196301
1231	7.979600
1232	7.951400
1233	9.332900
1234	10.405700
1235	8.324400
1236	8.743700
1237	8.473700
1238	9.156000
1239	8.444500
1240	10.455500
1241	8.468400
1242	8.896100
1243	9.165100
1244	10.926600
1245	11.043400
1246	8.775100
1247	8.743100
1248	8.546600
1249	8.766100
1250	35.027901
1251	9.363300
1252	9.173600
1253	9.519700
1254	9.720900
1255	9.775700
1256	9.775900
1257	9.656900
1258	9.283300
1259	9.581400
1260	9.564000
1261	10.415300
1262	10.899100
1263	11.757300
1264	11.001700
1265	11.400100
1266	12.393100
1267	11.692800
1268	12.321600
1269	12.974200
1270	13.590200
=======
62	8.235600
63	5.861400
66	8.000000
68	10.267400
69	7.715500
70	8.012600
71	11.870200
72	9.502300
73	9.137700
74	11.725100
75	11.246400
76	11.725500
77	12.819900
78	13.519300
79	12.764300
80	13.165200
81	13.434000
82	14.304800
83	15.186000
84	14.946700
85	14.854700
86	15.708600
87	15.100300
88	16.363300
89	17.056601
90	18.390200
91	22.674999
92	17.679001
93	17.346800
94	16.969801
95	19.645599
96	18.125000
97	19.086700
98	48.661098
99	30.005800
100	17.849199
101	18.539900
102	18.205200
103	17.086500
104	17.442200
105	17.510599
106	51.687698
107	18.474400
108	17.404200
109	17.963600
110	17.591101
111	20.727400
112	35.455101
151	16.315100
152	14.371200
153	13.621200
154	13.919300
155	13.700300
156	15.794700
157	12.418200
158	13.324100
159	12.998700
160	12.217900
161	17.689800
162	12.965500
163	15.060400
164	15.568700
165	10.971600
166	13.223000
167	12.651500
168	12.643700
169	12.361300
170	13.263600
340	5.152300
341	6.252600
342	7.079500
343	5.860800
344	5.645800
345	5.888600
346	6.269400
347	6.564000
348	7.384900
349	6.799000
350	7.717700
351	7.503200
352	7.013100
353	7.471500
354	7.670400
355	8.560800
356	8.104600
357	8.257000
358	8.584300
359	11.585700
360	12.353900
361	9.682800
362	11.268200
363	12.338200
364	11.427300
365	11.800700
366	13.449000
367	12.898600
368	12.823200
369	13.224600
370	13.702100
371	13.566700
372	13.635000
373	15.356000
374	15.511400
375	14.681500
376	15.296100
377	16.288700
378	30.613199
379	17.523399
380	15.763400
381	17.531700
382	50.635601
383	16.916201
384	18.249300
385	50.165798
386	16.558001
387	32.617699
388	31.980801
389	18.532700
390	17.420300
391	17.002701
392	17.069500
393	57.957199
394	18.004400
395	17.316700
396	21.233101
397	52.484299
398	45.315102
399	55.266399
400	59.958000
401	22.024900
402	26.761000
403	19.696199
404	21.829599
405	19.334999
406	39.477001
407	19.416100
408	40.525002
409	19.648800
414	20.374100
415	22.267200
416	20.411301
417	20.816401
418	18.586901
419	19.261801
420	20.815100
421	19.868200
422	19.849199
423	24.007099
424	20.637600
425	21.059999
426	21.353100
427	21.433500
428	21.769699
429	21.313601
430	58.980999
431	22.004801
432	25.948400
433	23.141199
434	21.346001
435	22.130400
451	23.824900
452	23.062201
453	27.333799
454	22.885000
455	21.723101
456	22.366199
457	25.913500
458	22.061800
459	22.102100
460	57.057400
461	24.313299
462	22.191700
463	23.803600
464	24.187201
465	20.224001
466	22.279301
467	21.398600
469	23.456900
470	21.431000
471	24.895599
472	26.101801
473	25.837500
500	21.522499
508	20.110901
509	19.995199
510	20.354500
511	20.133499
512	20.626600
513	25.033800
514	58.720402
515	18.850901
516	51.170700
517	19.725800
518	19.701200
519	20.843399
520	20.968700
521	21.595900
522	21.833000
582	20.732401
583	22.993401
584	22.100100
585	21.701799
586	21.429199
587	21.625999
588	21.059099
589	63.576900
590	22.006300
591	19.103901
592	18.213900
593	18.702600
594	19.462200
615	14.565900
616	15.000000
617	14.209100
618	15.163100
619	15.294900
620	13.689300
621	15.795800
622	15.333400
623	16.450399
624	16.196301
625	16.472401
626	16.464800
627	16.645700
628	15.759100
629	16.799900
630	18.014500
707	24.369801
708	31.192200
740	17.935499
741	17.104099
742	16.644199
743	18.067101
744	15.699600
745	15.227500
746	15.235100
747	15.994200
748	14.972100
749	14.749900
750	15.498100
751	14.755900
752	15.941800
753	15.775400
754	13.947100
755	14.326900
756	14.636200
757	14.147600
758	15.514800
759	14.304400
760	15.548800
761	19.389900
762	14.261500
763	15.337000
764	15.193600
765	14.581300
766	14.099900
767	14.526600
768	14.318000
769	13.891300
770	15.416700
771	14.145500
772	13.774700
773	21.470100
774	15.221100
775	15.599300
776	15.131900
777	13.270400
778	13.461100
779	13.589900
780	19.907700
781	13.346800
782	15.636800
783	14.087300
784	14.330400
794	16.983601
795	21.508699
796	17.020901
867	14.333300
868	15.154500
869	43.998001
870	22.997700
871	14.374100
872	13.191500
873	14.438700
874	13.044000
875	14.707900
876	38.875401
877	13.935400
878	14.440200
879	13.678600
880	15.842600
881	12.484000
882	13.034800
883	32.573299
884	16.650400
=======
10	50.303902
11	55.799702
12	63.479000
13	46.624001
14	59.224701
15	23.963100
16	23.803200
17	24.917299
18	23.380501
19	22.355200
20	21.910700
21	24.411900
22	25.260900
23	30.619600
24	30.366301
25	26.103800
26	25.844601
27	24.839199
28	57.656700
29	26.094101
30	26.483200
31	26.562300
32	23.232100
33	50.398800
34	26.816200
35	22.678900
36	38.510300
37	24.052299
38	22.641199
135	9.408800
136	8.725000
137	8.300200
138	8.509900
139	9.053100
140	8.750600
141	9.087100
142	8.386700
143	8.898100
144	10.528000
145	8.042800
146	9.539000
147	8.504800
148	9.001400
149	8.501100
150	8.870800
151	8.397100
152	8.967000
153	9.580200
154	8.975800
155	8.242400
156	8.008900
157	8.143300
158	8.348000
159	8.234500
160	7.736400
161	7.876300
162	8.597200
163	9.441900
164	8.050500
165	9.343200
166	10.021700
167	9.802100
168	8.360500
169	8.230600
170	8.629600
171	8.406300
172	9.906300
173	9.578700
174	9.507100
175	10.566300
210	13.974900
211	12.944000
212	13.040100
213	13.106300
214	14.272800
215	13.905600
216	14.651600
217	13.038100
218	14.648100
219	12.746400
296	23.438299
297	23.381701
298	26.323700
299	21.500999
300	22.347799
301	21.845501
302	23.759100
303	27.891100
304	23.004101
308	24.186399
309	24.721201
310	24.139099
311	22.748899
312	25.994499
313	25.759300
314	23.412701
315	22.269400
461	21.950800
462	19.515600
463	21.916300
464	20.601801
465	19.537001
466	20.888100
467	21.756599
468	19.866400
469	20.245899
470	21.429199
471	20.977699
472	26.203400
473	20.030399
474	21.038000
475	21.945999
476	23.070801
523	25.333900
524	26.092800
528	26.606001
529	26.586399
530	26.428699
993	27.590300
1003	25.733601
1004	29.874399
1129	13.871300
1130	12.146200
1131	11.700600
1179	11.577900
1180	11.585400
1181	12.135600
1182	13.208900
1193	16.233801
1194	17.285700
1279	30.658701
1280	29.465500
1281	28.715900
1282	31.001600
1283	27.368099
1284	26.922701
1285	28.160101
1286	26.728399
1287	29.311300
1288	27.332100
1289	26.497101
1290	26.582600
1291	25.571400
1292	25.420099
1293	27.658600
1294	25.652599
1295	28.858900
1296	27.270100
1297	25.843599
1298	26.105700
1304	28.676600
1305	25.302500
1306	27.505501
1307	30.901400
1308	26.072001
1309	27.542700
1321	25.671000
1322	26.245100
1323	25.899799
1324	27.760000
1325	27.896299
1326	26.648800
1327	25.782499
1328	24.896999
1329	26.810801
1330	29.329300
1331	26.263201
1332	31.381500
1333	25.419800
1334	27.252399
1335	26.691299
1336	30.319401
1337	26.209200
1338	24.708200
1339	25.934401
1340	27.659901
1341	26.097000
1342	27.610399
1343	26.140699
1344	27.504700
1345	29.614401
1346	28.212999
1347	28.214001
1348	29.459200
1349	27.041901
1350	27.358299
1351	28.713800
1352	26.944700
1353	26.236200
1354	28.372400
1355	30.054800
1356	29.437799
1357	27.173800
1358	53.387299
1359	65.624496
=======
0	23.110201
1	11.299500
2	11.289400
14	11.012400
15	14.361100
16	10.014400
17	10.158700
18	9.303600
19	10.696100
20	10.510900
21	10.190400
22	11.488100
23	12.805500
24	10.215900
25	10.413200
26	12.227500
27	9.785400
28	10.189300
29	9.843000
30	10.774100
31	11.542300
32	12.010500
33	45.069302
34	12.399300
35	10.495800
36	10.954900
37	10.470800
38	10.284100
39	10.832700
40	10.828300
41	10.955300
42	11.158700
43	10.241200
44	8.801600
45	9.513300
46	9.443400
47	9.317200
48	10.615400
49	9.437200
50	10.809800
51	10.030100
52	9.957600
53	10.099200
54	9.831000
55	12.638800
56	9.629700
57	9.936300
58	9.059000
59	9.098300
60	11.888000
61	9.425000
62	10.201900
63	9.872000
64	9.516100
65	9.984000
66	10.166600
67	9.521300
68	10.806500
69	9.833200
70	10.523700
71	9.048000
72	9.559200
73	8.986200
74	8.922300
75	11.149700
76	9.807000
77	12.708200
78	10.494700
79	9.241900
80	9.381500
81	9.244700
82	8.805400
83	9.234400
84	9.527000
85	8.895600
86	9.102600
87	8.611800
88	10.369300
89	10.748500
90	8.592500
91	8.292600
92	13.134500
93	8.859000
94	8.366000
95	9.148500
96	8.439400
97	8.349800
98	8.409200
99	9.401400
100	8.613900
101	10.291000
102	8.718300
103	10.221700
104	9.121100
105	8.844200
106	8.917100
107	8.558200
108	10.577600
109	8.681800
110	8.442600
111	8.771600
112	8.393000
113	8.785800
114	11.439200
115	7.916200
116	9.361900
117	8.959600
118	9.325700
119	9.378300
120	10.368300
121	11.796800
122	8.824800
123	9.036000
124	8.993400
125	9.620800
126	8.852800
127	10.474600
128	10.762900
129	8.718900
130	12.018200
131	8.960100
132	13.755200
133	11.713200
134	9.617400
135	10.075700
136	9.278600
137	11.972100
138	9.074500
139	9.228100
140	13.537900
141	10.058100
142	12.379200
143	11.543700
144	9.834000
145	11.236700
146	10.544500
147	11.600300
148	10.268900
149	10.201500
150	15.045300
151	9.892000
152	10.046100
153	10.269200
154	11.439500
172	8.901500
173	10.035800
182	10.054700
195	9.083000
196	9.887200
197	8.991400
198	8.438400
199	11.423500
204	8.472900
205	8.745400
225	7.425300
226	7.178500
227	8.748400
228	7.098500
229	7.345300
230	7.409600
231	6.733800
232	7.856200
233	7.905500
253	7.921400
254	7.877800
255	7.618200
256	7.361800
257	7.224700
258	8.097200
259	8.065500
260	7.621500
358	10.633800
359	10.758100
360	10.640100
361	11.020000
362	10.267100
363	10.997300
364	10.567200
365	12.555800
366	11.017600
367	10.776600
393	11.998400
394	12.738500
395	12.099700
409	13.634900
417	13.697500
556	14.501200
557	13.681300
558	13.936200
559	14.133400
560	12.545700
561	14.690100
562	14.004400
563	16.238501
564	14.642700
565	16.292700
566	57.193100
567	15.354200
568	15.488900
569	14.348200
570	15.248600
571	38.074600
572	13.577100
573	13.426900
574	14.159600
575	12.953200
810	12.766200
811	10.433600
812	8.594900
813	8.741100
814	8.140600
815	8.333100
816	9.061000
817	8.304100
818	9.752700
819	9.876300
820	9.017600
821	9.462500
822	9.160600
823	9.431100
876	7.226800
877	7.914000
882	11.111800
884	10.521200
885	12.956200
889	9.417200
890	12.740000
891	8.963700
892	11.519400
893	11.485500
894	13.189300
895	8.258500
896	8.416100
897	12.281400
898	8.462800
899	11.102600
900	9.101400
901	9.355000
902	10.930400
903	9.139700
904	8.925600
905	14.504800
906	9.416500
907	8.790200
908	8.606700
909	9.737800
910	9.479200
911	8.602200
920	8.853300
921	13.091100
922	9.220700
923	9.757800
924	9.385100
925	9.838700
926	10.939200
927	9.513700
928	8.914200
929	9.831500
930	9.344500
931	8.327100
932	12.399300
933	9.099700
934	8.368600
935	8.323300
936	9.797900
937	11.159600
958	8.999800
972	8.914800
973	9.709600
974	9.952500
978	11.456400
979	11.005700
980	10.496300
1095	15.173300
1096	11.175400
1097	10.356800
1098	10.615900
1099	11.665800
1100	10.982200
1101	11.403800
1186	9.221300
1187	8.522400
1188	12.154200
1265	8.151600
1266	8.392700
1267	8.179300
1268	8.004900
1269	8.166600
1270	8.966000
1271	8.512800
1272	9.626200
1273	11.924900
1274	9.182900
1275	10.290800
1276	10.765300
1277	12.681900
1278	11.889700
1279	11.770200
1353	8.774800
1354	8.367100
1355	9.341500
1356	11.988300
1357	9.425900
1358	10.194100
1359	9.524800
1360	13.226300
1365	8.680300
1596	9.632700
1597	6.238600
1598	10.387500
1599	6.245400
1600	6.719800
1638	22.401800
1639	65.833000
1642	20.608000
1643	20.293400
1644	23.440800
1645	22.379601
1646	20.553200
1647	21.364201
1648	19.611300
1649	20.924900
1650	18.796499
1651	18.519800
1652	18.319500
1653	17.614799
1654	19.204800
1655	19.271601
1656	18.135201
1657	17.455000
1658	18.397800
1659	18.669800
1660	21.105600
1661	17.019501
1662	16.991100
1663	17.285200
1664	18.872101
1665	16.659100
1666	18.281500
1667	17.405001
1668	18.034100
1669	16.718500
1670	16.985300
1671	16.727400
1672	17.268600
1673	15.943100
1674	16.162500
1675	17.478399
1676	19.238701
1702	21.365900
1703	20.428200
1704	19.301701
1705	19.277201
1706	19.837601
1707	21.827499
1708	19.204500
1709	23.972300
1710	18.833099
1711	17.848101
1712	21.463499
1713	16.954500
1714	15.319000
1715	14.349100
1716	12.979100
1717	10.904900
1718	11.450500
1719	11.640300
1720	10.671500
1721	12.239000
1722	12.055000
1723	12.346900
1724	13.590300
1725	13.937400
1726	11.141600
1727	11.538600
2007	11.034100
2008	9.777500
2009	15.789600
2010	10.378400
2011	13.187400
2012	12.389100
2013	13.641900
2014	14.213400
2015	15.346400
2016	16.776501
2017	15.451100
2018	15.145600
2019	18.881300
2020	18.096201
2021	18.238501
2022	18.215401
2023	18.990700
2024	19.456400
2025	20.156000
2026	24.394400
2027	22.028601
2028	21.747700
2029	20.884199
2030	22.023100
2031	19.444201
2032	20.228201
2033	19.997000
2034	20.886600
2035	22.721100
2036	23.752501
2037	23.387600
2038	19.993299
2039	19.420500
2040	19.516100
2041	19.518299
2042	20.622101
2043	18.815001
2044	20.459200
2045	17.773899
2046	17.241699
2047	16.805201
2048	16.603201
2049	16.539499
2050	18.003401
2051	17.677099
2052	17.520399
2053	17.753099
2054	18.086201
2055	18.995501
2056	17.874300
2057	17.304100
2058	18.257299
2059	18.661800
2060	21.073400
2061	21.254400
2062	21.296400
2063	20.334999
2064	20.194500
2065	21.025400
2066	22.270201
2067	20.756701
2068	22.311501
2069	19.975100
2070	19.504200
2071	20.902000
2072	20.778000
2073	19.310101
2074	21.366699
2075	23.212500
2076	17.539499
2077	18.437000
2078	16.691500
2079	15.711000
2080	15.009200
2081	15.380200
2082	16.920099
2083	15.558400
2084	15.584600
2085	14.392000
2086	13.003700
2087	14.218500
2088	14.845200
2089	13.377600
2090	14.305300
2091	13.496500
2092	12.896900
2093	13.986400
2094	13.992200
2095	15.547000
2096	17.251499
2097	17.660999
2098	18.314400
2099	18.653200
2100	21.313400
2101	23.063499
2102	19.073601
2103	19.267700
2104	18.562099
2105	19.459299
2112	20.669500
2113	20.948299
2114	21.079399
2115	23.193701
2116	24.910801
2117	24.654499
2121	26.943800
2123	27.766001
2124	23.039801
2146	23.938200
2147	21.774300
2148	24.926399
2149	27.450100
2150	22.056700
2152	23.095200
2153	30.893801
2157	23.460800
2158	22.009399
2159	22.642500
2160	20.746099
2161	23.311501
2162	22.361300
2163	22.950701
2164	21.952000
2169	22.234400
2180	27.691700
2181	28.532499
2182	26.434601
2183	28.774799
2184	32.541901
2185	30.588301
2186	32.600399
2188	28.669201
=======
0	10.220100
1	30.500000
2	7.440400
3	6.750000
4	6.623800
5	7.684700
6	6.297800
7	6.966900
8	6.972300
9	8.346600
10	6.562800
11	8.363400
12	7.060300
13	5.996100
14	6.043400
15	6.195300
16	7.731900
17	5.978600
18	6.497500
19	6.693900
20	7.032900
21	6.547400
22	6.684900
23	7.073700
24	7.337200
25	8.232400
26	7.532700
27	9.244000
28	7.340900
29	7.079400
30	6.665800
31	7.564300
32	7.844900
33	7.336600
34	7.061200
35	6.210000
36	7.187100
37	6.513600
38	6.886800
39	6.861700
40	7.535200
136	7.262200
137	6.425300
138	7.147900
139	7.372900
140	6.418300
141	7.243400
142	7.913900
143	10.441400
144	8.489500
145	6.675700
146	7.496600
147	7.806800
148	9.086100
149	6.838300
150	8.003900
151	9.040200
152	7.401200
153	8.353900
154	7.042400
155	8.228800
156	7.500300
157	11.581600
158	7.868600
159	7.468500
160	6.902300
161	6.262000
162	6.168000
163	10.698200
164	6.774500
166	6.798400
167	6.708200
168	7.069500
169	7.241300
170	6.499100
171	7.317500
172	10.802300
173	7.235200
174	7.378000
175	8.446200
176	7.290700
178	8.420800
179	9.383500
180	8.098300
181	8.542000
182	9.450800
183	7.914600
184	7.698700
185	9.016200
190	9.255000
191	9.186300
192	9.161700
193	8.534600
194	9.904200
195	8.368700
196	8.711900
197	9.505700
198	9.550300
199	9.669000
200	10.146400
201	13.795800
261	8.525100
262	8.834800
263	8.623300
264	8.346400
265	11.917800
266	12.946600
267	13.176600
268	12.802900
269	8.367700
270	8.517400
271	9.064100
272	9.630300
273	9.302600
274	9.541700
275	9.569800
276	9.657200
277	9.921700
278	13.031200
279	8.635900
280	10.108900
281	8.692700
282	9.127000
283	9.598900
284	9.748800
285	10.306000
286	11.874700
287	10.043000
288	10.100200
289	11.811400
290	10.419200
291	10.221300
292	13.733200
293	11.584600
294	10.673400
295	15.192300
296	13.679700
297	10.358600
298	10.057100
299	10.537500
300	10.824400
301	11.113500
302	12.061700
303	10.374200
304	11.778700
305	13.485300
306	12.727600
307	13.746800
308	15.872200
309	15.136500
310	14.664900
311	43.645699
312	13.772000
313	13.655100
314	14.945800
315	14.190700
316	20.163500
317	14.438600
318	15.721800
319	42.939400
320	14.311300
321	13.852900
322	41.848999
323	14.056400
324	15.663200
325	14.377100
326	11.955800
327	15.129800
328	12.312000
329	13.055000
330	13.290700
331	13.124100
332	13.257700
333	44.699299
334	13.430700
335	14.166200
336	14.329300
337	14.252300
338	13.453300
339	19.259001
340	13.967500
341	13.273200
342	13.566000
343	13.113200
344	13.593100
345	20.139999
346	13.309300
347	13.416700
348	17.464300
349	12.869400
350	11.565000
351	12.670600
352	11.848700
353	11.767800
354	15.971200
355	12.307100
356	12.078800
357	11.611600
358	11.500200
359	10.548400
360	12.951200
361	12.009600
362	10.524000
363	11.716100
364	11.075400
365	10.465700
366	11.144500
367	14.546600
368	10.221100
369	10.482500
370	10.238600
371	12.544400
372	10.046700
373	10.255800
374	10.897800
375	11.396200
376	10.385600
377	10.393400
378	9.921300
379	9.990700
380	9.660300
381	8.833200
382	9.008500
383	8.909400
384	11.056400
385	8.457900
386	10.643500
387	8.788800
388	8.817600
389	10.944200
390	11.317300
391	9.758500
392	13.640600
393	9.551400
394	8.730700
395	12.383000
396	9.555300
397	9.846100
398	15.482700
399	10.580900
400	10.844600
401	10.861000
402	10.772600
403	11.569300
404	12.144000
405	11.356500
406	10.760300
407	16.902901
408	11.145900
409	11.920200
410	11.827900
411	11.609700
412	11.456900
413	10.505400
414	11.965700
415	10.888500
416	10.990700
417	11.714800
418	10.994900
419	11.673600
420	12.851200
421	12.989000
422	12.192400
423	12.064800
424	12.467500
425	13.112000
426	13.715400
427	13.732600
428	14.420300
429	13.624000
430	12.907100
431	17.189600
432	13.173000
433	13.561600
434	13.542400
435	13.625700
436	14.914200
437	14.940800
515	7.089700
516	7.172300
517	7.767000
518	10.647500
519	8.733800
520	8.912200
521	9.515200
522	9.693400
523	9.075100
524	8.810200
525	10.118300
526	10.218300
527	14.027300
528	14.897400
529	10.902800
530	14.496600
531	10.358600
532	10.855700
533	12.048500
534	11.439000
535	12.375400
536	13.108600
537	13.947500
538	13.112100
539	13.340400
540	13.660400
541	13.873600
542	13.985900
543	14.504600
544	15.354400
545	50.622200
546	16.140699
547	62.828701
548	47.301102
549	15.162800
550	15.063700
551	16.012300
552	14.614200
553	14.359600
554	16.771601
555	17.334700
556	29.765200
557	15.898300
558	15.792600
559	16.014200
560	17.064400
561	19.253401
562	16.812901
563	17.322901
564	19.353100
565	18.560200
566	18.386200
567	16.624100
568	17.664700
569	21.098200
570	15.537300
571	15.355800
572	18.820000
573	16.779900
574	15.942600
575	15.366600
576	15.272700
577	15.657300
578	16.540001
579	15.604900
580	17.172300
581	15.878500
582	15.471700
583	15.199500
584	15.732200
585	15.952500
586	23.204800
587	39.373402
588	17.978500
589	18.900000
590	24.880501
591	19.048599
592	18.955099
593	19.749001
594	19.521400
595	19.580299
596	20.153700
597	19.428900
598	19.239000
599	21.595800
600	17.416800
601	18.245399
602	17.822701
603	17.923901
604	19.368799
605	20.021500
606	21.413700
607	21.945299
608	23.201300
609	23.237700
610	24.162201
611	23.352301
612	23.046000
613	22.738300
614	22.317900
615	20.960400
616	22.235399
617	19.698999
618	19.802900
619	17.476500
620	16.947800
621	16.344000
622	15.474300
623	14.816300
624	14.555200
625	13.444400
626	13.315600
627	12.968300
628	12.600000
629	12.675300
630	11.197300
631	11.110400
632	16.604401
633	11.760600
634	10.026600
635	10.785000
636	8.761600
637	8.590500
638	8.409400
639	8.215400
640	8.038800
641	7.749400
642	8.181800
643	8.560300
644	6.738600
645	6.737200
646	6.462200
647	6.583900
648	6.487700
649	6.092800
650	8.019000
651	8.056100
652	8.813400
675	15.264300
676	10.572900
677	9.764600
678	9.648800
679	9.767000
680	9.504000
681	9.062800
682	8.480800
683	9.590100
684	9.762800
685	10.580300
686	12.818300
687	9.240300
688	10.214900
689	9.151200
690	7.651200
691	8.187900
692	8.651200
693	8.840000
694	8.514200
695	9.049000
696	15.842600
697	9.506900
698	9.542900
699	13.976800
700	10.008900
701	10.921300
702	11.838600
703	10.970800
704	10.445200
705	10.897300
706	10.456000
707	13.329000
708	18.003300
709	11.131200
710	11.929500
711	11.665600
712	11.710100
713	10.386400
714	13.966800
715	9.863200
716	8.955000
717	9.647600
718	10.038500
719	10.339300
720	10.091600
721	9.473600
722	9.443200
723	10.539000
724	9.306800
725	9.203700
726	11.527900
727	9.487500
728	14.235900
729	12.096100
730	10.337400
731	9.946300
732	10.987900
733	11.903600
734	11.380000
735	13.236900
736	11.054200
737	11.007800
738	11.429700
739	11.672900
740	11.359000
741	12.522800
742	11.051400
743	11.948600
744	13.221400
745	12.605300
746	11.533500
747	13.343300
748	11.223300
749	13.422900
750	12.432400
751	11.565900
752	11.209000
753	10.837200
754	11.384600
755	11.697700
756	12.694700
757	13.047300
758	11.725400
759	11.361500
760	11.495500
761	11.000100
762	11.434000
763	11.833400
764	14.296700
765	21.559200
=======
170	10.889300
171	10.115100
172	9.465700
174	12.450200
175	12.754900
176	12.827800
177	12.767000
178	15.951300
179	19.035400
180	14.216600
181	12.453500
182	15.347300
183	39.575500
184	45.673100
185	13.953700
186	15.137000
187	14.414400
188	14.134700
189	17.609900
190	15.174000
191	17.451401
192	56.007599
193	14.190000
194	16.937000
195	16.248100
196	14.387600
197	13.730300
198	14.008000
199	14.131300
200	15.926100
201	15.728200
202	26.451099
203	13.594900
204	14.990500
205	14.276200
206	46.264500
207	28.400999
208	15.882900
209	42.494400
210	15.303600
211	36.162800
212	14.512700
213	16.139200
214	16.244200
215	15.668000
216	15.386000
217	14.408500
218	14.664700
219	17.118401
220	14.640000
221	15.688800
222	15.029900
223	15.660200
224	16.313801
225	16.056000
226	15.662600
227	15.205900
228	17.668800
229	16.496901
230	15.961800
238	15.329800
239	14.760400
240	13.494800
241	14.198200
242	14.948400
243	14.005500
244	13.921600
245	12.876600
246	13.318300
247	12.952900
248	13.710800
270	11.798000
271	10.693400
272	10.527000
273	10.936800
274	14.272400
275	10.718900
276	11.352400
277	12.433700
278	12.478500
279	11.484100
406	7.493700
407	9.824600
408	7.807700
409	7.202500
410	8.301900
411	9.362400
412	7.251600
413	7.268400
414	7.021700
415	7.667700
416	7.810600
417	7.155300
418	7.241600
419	7.917900
420	11.171700
421	7.506500
422	7.339400
423	6.940600
424	6.976300
425	7.791800
426	8.910500
427	7.287100
428	6.942700
429	7.430900
430	7.914600
431	9.132600
432	6.939300
433	9.406100
434	6.951400
435	8.099100
436	6.919300
437	10.468600
438	7.265000
439	8.776200
440	8.227200
441	7.715900
442	7.709700
443	7.474300
444	7.970100
445	7.624500
446	7.670200
447	7.689100
448	8.216100
449	8.077200
450	8.104400
451	8.643200
452	8.790600
453	9.068300
468	11.763800
469	16.135099
470	10.758100
471	12.275100
472	11.121200
473	10.658100
474	10.308800
475	10.897800
476	10.681900
477	10.508800
478	11.525100
493	14.259200
494	14.702600
495	14.813500
496	14.741200
497	13.042000
498	13.469900
500	13.218200
501	14.933800
502	12.628900
503	44.812401
504	12.971900
505	12.735100
506	36.000401
507	13.351800
508	12.932600
509	12.477700
510	13.023500
511	12.769800
512	32.118599
513	37.149101
514	13.968200
515	12.928900
516	14.121200
517	42.249401
518	12.035200
519	15.739900
520	12.166400
521	12.200500
522	12.920600
523	13.147300
524	12.096200
525	13.154600
526	52.083900
527	13.531000
528	12.628700
529	12.396800
530	13.439400
531	13.419500
532	12.960300
533	14.785000
534	14.529400
535	43.756302
536	44.366199
537	13.848700
538	14.567500
539	15.002500
540	13.303100
541	14.743400
542	15.933800
543	15.596700
544	15.410900
545	15.527600
546	14.902400
547	15.784300
548	16.955400
549	15.616100
550	16.807899
551	15.763700
552	23.383301
553	23.106800
554	16.533001
555	16.674299
556	17.397301
557	16.464600
558	59.439899
559	15.612700
560	16.181499
561	52.438801
562	30.549700
563	17.382999
564	51.288200
565	32.314400
566	18.005400
567	18.343599
568	17.463200
569	17.989599
570	17.507000
571	19.171499
572	18.311100
573	18.230000
574	18.942801
575	19.209299
576	17.237801
577	18.992001
578	17.974800
579	18.545200
580	17.404499
581	17.550200
582	17.127800
583	29.641399
584	16.912500
585	29.460501
586	18.428499
587	19.104000
588	17.483999
589	29.458599
590	16.730101
591	18.982901
592	61.936100
593	18.475901
594	29.999399
595	54.119499
596	28.015699
597	18.250999
598	31.330601
599	18.642000
600	19.520599
601	17.666599
602	17.852100
603	33.551998
604	17.647200
605	18.767300
606	17.024099
607	17.948099
608	19.872200
609	19.086700
610	20.348400
611	18.936399
612	19.389500
613	19.615101
614	18.786900
615	17.933399
616	18.215900
617	34.836899
618	20.718500
619	20.188801
620	37.017300
621	20.257700
622	20.092800
623	27.931400
624	40.737999
625	35.397598
626	18.807600
627	19.466000
628	18.068501
629	19.310400
630	19.023899
631	20.103600
632	19.995899
633	32.473598
634	19.849300
635	20.422100
636	19.901100
637	20.984400
638	21.160900
639	21.410999
640	20.214899
641	40.286499
642	20.795799
643	20.048901
644	33.195599
645	49.393002
646	21.114799
647	37.010799
698	11.155600
702	10.699400
705	13.644000
736	20.113199
737	43.405300
738	18.586201
739	37.143700
740	19.433300
741	20.194700
742	51.166599
743	21.226801
744	42.048199
745	20.329000
746	19.866800
747	43.697701
748	34.085499
749	23.485600
750	21.777399
751	22.444000
752	46.724899
753	21.124599
754	20.788700
767	22.878799
771	26.831900
772	27.701599
773	22.517900
774	27.910101
775	21.755100
776	22.421600
777	21.670200
778	21.566299
779	21.806499
780	21.763599
781	21.841700
782	22.488600
783	21.854700
784	24.657000
785	21.896799
786	21.046301
787	20.207899
788	20.758101
789	20.775801
790	19.558399
791	21.232901
792	28.490000
793	20.642099
794	19.839399
795	20.778000
796	19.516701
797	19.706301
798	20.662901
799	22.827000
800	21.407600
801	19.630400
802	21.003401
803	21.150801
804	18.873301
805	18.325001
806	18.909000
807	19.271700
850	27.061300
851	26.922501
852	30.498400
853	50.525299
854	59.862499
855	33.494400
868	30.904699
869	31.793800
884	64.066299
885	24.786400
886	24.635201
887	39.384102
888	48.279400
889	24.982700
1038	15.295100
1041	24.779699
1059	16.125601
1060	13.465700
1061	15.176200
1062	16.531900
1063	53.545502
1064	13.683200
1065	14.147100
1066	14.446200
1067	14.091300
1068	14.820700
1069	14.752300
1070	14.599300
1082	14.547800
1083	13.772600
1084	12.276800
1085	15.482100
1093	14.845600
1094	13.335500
1095	12.713700
1096	13.616700
1097	13.516100
1098	15.657400
1199	15.595900
1200	22.678400
1201	15.657700
1202	15.579400
1203	15.424100
1204	16.012699
1205	22.167101
1206	14.217000
1248	21.246000
1322	50.683300
1323	16.619400
1324	17.802999
1325	52.988800
1331	17.635500
1332	46.434299
1333	15.298500
1334	12.193200
1401	18.144800
1402	17.983101
1403	20.218599
1404	53.892700
1405	19.686001
1407	16.925600
1408	16.699800
1448	17.233200
1449	63.306702
1450	18.713699
1451	19.672701
1452	21.689800
1453	19.302099
1454	19.172001
1473	23.935900
1474	22.292801
1475	22.804600
1476	21.524401
1506	14.732000
1507	14.929100
1514	14.342900
1515	13.523700
1516	14.122700
1517	14.283200
1518	13.764100
1519	13.880800
1520	13.139800
1521	13.936400
1522	13.819500
1523	15.318800
1524	13.155500
1525	12.796400
1526	12.919200
1527	14.280200
1528	13.385200
1529	13.243700
1530	19.187799
1531	13.662200
=======
62	23.768400
63	30.174299
64	13.548300
72	13.725400
73	12.556900
74	13.185400
80	11.648400
81	12.288200
82	12.280700
83	12.595300
84	52.202202
88	12.313700
190	16.483299
191	16.378500
192	15.300300
193	16.596100
194	18.875900
195	48.478901
196	19.355600
197	16.291100
198	16.297400
199	59.065498
200	17.704901
201	15.676300
202	16.512501
203	16.732599
204	18.417601
205	17.107100
206	15.767300
207	25.960899
208	16.455900
209	15.893800
210	16.093201
211	16.323900
212	16.697399
213	17.339600
214	17.610800
215	18.505501
234	16.708799
235	18.183001
236	17.762800
237	17.526699
238	20.997700
239	16.902800
240	42.913799
241	32.899300
242	63.675900
243	18.537701
244	18.006500
245	19.072300
246	20.536900
247	56.361698
248	25.060101
249	64.371696
374	48.724300
375	16.719601
389	12.336300
419	18.592300
447	22.386400
448	38.786098
449	47.957699
450	22.132200
451	61.673199
452	22.529301
453	22.042000
454	22.981100
455	23.899500
456	24.761600
457	26.280500
458	25.301901
459	20.741400
460	25.124800
461	25.667000
462	26.704100
466	20.280300
646	20.492500
647	22.854401
648	21.534201
649	19.254200
650	17.283100
651	17.281900
652	17.678499
653	18.323799
654	18.857300
655	16.041500
656	18.673201
657	17.011700
658	15.704400
659	16.298700
660	19.194901
661	27.541599
662	16.689301
663	16.616301
664	17.335699
665	16.798401
666	17.951500
667	21.683100
680	16.197399
681	17.257000
682	16.388201
683	16.463400
916	4.848800
917	4.612600
918	6.790500
1064	14.190600
1065	15.221800
1117	17.246799
1118	46.712399
1119	14.277300
1140	18.923500
1141	52.698502
1142	18.188499
1143	51.123699
1144	18.665899
1145	62.236401
1146	17.912100
1147	18.233400
1148	17.220800
1149	19.261999
1150	17.042200
1151	17.816900
1152	16.149799
1153	18.708700
1154	21.309999
1155	20.241301
1156	20.553301
1157	21.932600
1158	20.252501
1159	19.797800
1160	21.249800
1161	22.115299
1162	23.100201
1179	12.253900
1185	10.628500
1281	16.862400
1282	12.932100
1283	12.014800
1284	13.848600
1285	13.710000
1286	26.421700
1287	13.110800
1288	12.720200
1297	9.156300
1298	8.907900
1299	11.148500
1300	8.379400
1301	8.793900
1302	8.265400
1303	8.579100
1304	7.950400
1305	8.164900
1306	9.913600
1307	7.872500
1308	7.263200
1309	8.206100
1310	7.198800
1311	8.159800
1312	9.252800
1313	6.833000
1314	7.086800
1315	7.500600
1316	9.033500
1317	6.638900
1318	6.854300
1319	8.581500
1320	7.651500
1321	6.948300
1322	8.559100
1323	7.299000
1324	7.139100
1325	8.192500
1326	7.237300
1327	8.011800
1328	9.042900
1329	8.400000
1330	8.304600
1359	18.508600
1360	46.813000
1361	48.917400
1362	17.435801
1363	19.895800
1364	17.217501
1365	18.809900
1366	19.460899
1367	18.176701
1368	16.919600
1369	17.143700
1370	26.043400
1371	17.576599
1372	16.529100
1373	17.126200
1374	25.460501
1375	17.456800
1376	17.191601
1377	19.895100
1378	19.445299
1382	30.318600
1383	17.333200
1384	17.599899
1391	16.197100
1392	15.886300
1393	18.091600
1394	15.131000
1395	14.921200
1396	15.760900
1397	15.025700
1398	14.419500
1399	14.388100
1400	14.099900
1401	14.530900
1402	14.545900
1403	13.032800
1404	14.794800
1405	17.326799
1406	14.959600
1407	15.795500
1408	16.355600
1409	19.386000
1410	16.614401
1411	43.984699
1412	15.210500
1413	14.855500
1414	21.823400
1415	18.608200
1416	19.610001
1417	15.393800
1418	16.221500
1419	16.716101
1420	16.148800
1421	37.852200
1422	17.243999
1423	17.337601
1424	16.698799
1425	17.446199
1426	19.501301
1427	17.920000
1428	19.100700
1429	18.328699
1430	19.689800
1431	20.586901
1432	19.981501
1433	19.860701
1434	20.310400
1435	20.854000
=======
0	14.713400
1	10.297800
2	9.316000
3	10.393000
4	9.707000
5	10.777900
6	11.993900
7	9.630900
8	9.489700
9	9.574500
10	12.381300
11	9.639300
12	9.557600
13	9.742700
14	9.935500
15	9.679600
16	9.805900
17	9.773500
18	9.448500
19	10.330000
20	10.391600
21	9.809200
22	10.030300
23	8.711100
24	11.444100
25	9.914500
26	10.664800
27	9.592500
28	9.810300
29	9.461200
30	9.070500
31	9.553600
32	10.016400
33	10.819100
34	9.349300
35	10.843800
36	9.544100
37	9.948700
38	9.242900
39	9.401200
40	9.550200
41	10.063300
42	11.803500
43	12.835800
44	9.377400
45	8.901300
46	10.241100
47	14.368600
48	10.233800
49	12.085300
50	9.712500
51	8.938000
52	9.656900
53	9.597300
54	10.143900
55	10.252700
56	14.238500
57	9.223300
58	23.906700
59	10.152200
60	10.828600
61	9.463500
62	10.505100
63	9.688700
64	9.840400
65	10.083500
66	10.048000
67	10.107500
68	10.748400
69	11.167900
70	10.484000
71	10.628700
72	12.168900
73	10.273300
74	10.250100
75	11.309900
76	36.155201
77	9.645300
78	9.765200
79	10.286800
80	10.253300
81	11.923500
82	11.793300
83	10.451900
84	10.336200
85	9.653200
86	10.412200
87	11.016800
88	9.850200
89	10.228800
90	9.836100
91	11.512000
92	10.349500
93	10.030900
94	10.299100
95	10.148000
96	11.078600
97	9.985200
98	10.197000
99	10.300700
100	10.036000
101	10.317900
102	9.790800
103	9.947500
104	10.195400
105	10.675400
106	10.272200
107	11.001500
108	10.678600
109	10.214300
110	10.547000
111	10.948000
112	10.125400
113	10.691100
114	39.640598
115	11.079400
116	26.816799
117	9.943600
118	10.060700
119	11.135900
120	10.300500
121	10.945600
122	11.042900
123	11.036800
124	10.198900
125	10.236600
126	9.961200
127	11.155600
128	11.315900
129	9.596800
130	10.567400
131	11.067800
132	11.579900
133	10.394200
134	11.029100
135	11.175500
136	11.288600
137	9.990200
138	9.945900
139	10.651600
140	9.868600
141	10.598000
142	11.160700
143	10.181200
144	10.371900
145	10.735800
146	10.953100
147	10.272100
148	10.975100
149	37.078602
150	10.876400
151	10.406900
152	11.245600
153	10.842700
154	10.933600
155	10.085600
156	11.207300
157	37.040798
158	10.362200
159	11.002900
160	12.049600
161	11.527400
162	10.589000
163	10.578300
164	9.647500
165	10.325900
166	10.661800
167	10.840700
168	10.199500
169	11.357300
170	10.355700
171	10.924200
172	9.907000
173	10.470200
174	10.150500
175	10.767300
176	10.447700
177	10.254600
178	11.021600
179	10.794400
180	10.392000
181	10.747800
182	10.086100
183	11.636000
184	11.130400
185	10.898700
186	10.122900
187	11.726200
188	14.114000
189	15.171200
190	11.974500
191	11.024400
192	15.346900
193	12.353600
194	12.446800
195	11.740300
196	12.564100
197	41.465698
198	11.984300
199	11.893100
200	12.134000
201	12.023800
202	12.464400
203	12.939500
204	11.906000
205	12.933500
206	43.589199
207	13.065700
208	13.724400
209	13.653500
210	13.599700
211	42.110500
212	42.671101
213	13.413000
214	13.297400
215	14.261600
216	13.554000
217	14.141700
218	13.749400
219	14.556700
220	14.179900
221	14.326100
222	14.452300
223	18.534599
224	14.065400
225	13.285500
226	13.639800
227	12.984600
228	13.884800
229	13.889100
230	12.860300
231	13.134200
232	13.371100
233	13.916600
234	13.216200
235	13.913000
236	13.804800
237	13.823200
238	13.467900
239	13.125700
240	12.860500
241	12.267700
242	14.105700
243	12.608000
244	12.066800
245	12.031500
246	12.027400
247	11.785100
248	12.933200
249	11.144700
250	11.564600
251	10.997400
252	10.900700
253	11.124200
254	10.974500
255	11.039200
256	10.784200
257	10.271400
258	10.220700
259	10.571000
260	11.052400
261	10.978500
262	10.654700
263	10.742900
264	10.772600
265	10.910000
266	11.422900
267	10.661900
268	10.292400
269	10.513400
270	11.456300
271	15.551800
272	10.193100
273	10.566900
274	11.180900
275	13.110400
276	12.615500
277	10.865500
278	10.165200
279	10.426100
280	11.201300
281	11.079100
282	10.536300
283	9.980000
284	10.189100
285	10.751900
286	10.263300
287	11.532800
288	12.570000
289	11.820800
290	11.069400
291	11.019000
292	11.414200
293	10.732500
294	11.655800
295	11.040300
296	10.231500
297	10.659600
298	9.702000
299	10.955300
300	11.149700
301	10.776200
302	11.850800
303	10.818300
304	10.622000
305	11.681400
306	10.591000
307	10.826000
308	11.047800
309	9.932500
310	10.861100
311	11.643400
312	10.406800
313	16.031601
314	11.986500
315	11.672100
316	12.779500
317	11.836800
318	11.952800
319	11.476900
320	11.749900
321	11.617400
322	11.272300
323	14.275400
324	11.570300
325	11.054600
326	12.325600
327	11.598100
328	11.625300
329	11.393000
330	12.126400
331	11.573200
332	10.934500
333	11.163900
334	10.715000
335	12.749400
336	12.052700
337	10.962200
338	11.302200
339	10.543300
340	10.295300
341	10.610000
342	11.029200
343	12.922000
344	10.697000
345	11.445100
346	11.222500
347	10.203400
348	10.713000
349	10.803600
350	15.371900
351	10.457000
352	10.132100
353	10.881500
354	12.689800
355	15.293300
356	10.605600
357	10.358200
358	11.139800
359	10.865500
360	14.073000
361	11.296400
362	10.848200
363	11.268700
364	10.670300
365	11.147700
366	10.363900
367	10.073200
368	11.811500
369	11.582600
370	10.906000
371	11.383000
372	15.363700
373	12.668800
374	11.392000
377	12.869100
379	40.366600
380	12.112900
381	11.968100
382	11.211700
383	10.971200
384	13.367300
385	10.577900
386	11.986100
387	12.106900
388	11.507200
389	11.690500
390	11.238400
391	12.137900
392	11.541300
393	13.438500
394	10.620900
395	31.093100
396	12.178800
397	11.446000
398	10.688500
399	10.673200
400	10.956100
401	10.424400
402	10.820800
403	10.257700
404	10.672800
405	9.789100
406	10.027100
407	11.020700
408	10.358200
409	10.921100
410	10.488900
411	10.894800
412	11.382100
415	11.956800
419	12.147400
420	11.699200
421	12.499600
422	11.839200
423	11.339200
424	11.430800
425	11.369000
426	12.628100
427	11.928000
428	11.843900
429	11.742400
432	41.689999
433	11.138000
438	10.469300
439	11.029800
440	10.478900
441	10.710300
442	11.178600
443	10.231200
448	13.555600
449	14.038700
450	12.096200
474	11.167100
475	10.424000
479	9.405800
487	7.824900
488	6.926500
489	8.454700
1203	5.260400
1204	5.927000
1205	5.757500
1206	6.487000
1207	6.409200
1208	7.058100
1209	7.333900
1210	6.990500
1211	7.502700
1212	8.312400
1213	7.717000
1214	7.455700
1215	7.778900
1216	8.221400
1217	8.570900
1218	12.062300
1219	7.527300
1220	8.656500
1221	7.779800
1222	10.170700
1223	10.976400
1224	10.243800
1225	8.217700
1226	8.161200
1227	8.398700
1228	8.335300
1229	7.922000
1230	8.032800
1231	8.334500
1232	8.222300
1233	8.537500
1234	8.133100
1235	10.380700
1236	8.361800
1237	8.219600
1238	9.044600
1239	8.226700
1240	11.007200
1241	8.642900
1242	8.460200
1243	9.214100
1244	8.844800
1245	8.751000
1246	8.410500
1247	8.930500
1248	8.548800
1249	9.148800
1250	9.288400
1251	10.007600
1252	9.538800
1253	9.566700
1254	9.590500
1255	9.982900
1256	9.770400
1257	10.083300
1258	9.527500
1259	10.000800
1260	9.580000
1261	10.160900
1262	10.775000
1263	10.213200
1264	11.833100
1265	11.758700
1266	12.420100
1267	12.072700
1268	12.271600
1269	13.206600
1270	13.588300
=======
0	14.208500
