<?xml version="1.0" encoding="UTF-8"?>
<COLLADA xmlns="http://www.collada.org/2008/03/COLLADASchema" version="1.5.0">
	<asset>
		<contributor>
			<authoring_tool>URDF Collada Writer</authoring_tool>
		</contributor>
		<created>2024-01-04T14:05:45.000000</created>
		<modified>2024-01-04T14:05:45.000000</modified>
		<unit/>
		<up_axis>Z_UP</up_axis>
	</asset>
	<library_visual_scenes id="vscenes">
		<visual_scene id="vscene" name="URDF Visual Scene">
			<node id="visual0" name="my_cabinet" sid="visual0">
				<node id="vkmodel0_node2" name="world" sid="node2">
					<translate>0 0 0</translate>
					<rotate>1 0 0 0</rotate>
					<node id="vkmodel0_node0" name="base_cabinet_link" sid="node0">
						<translate>-0 -0 -0</translate>
						<rotate>1 0 0 0</rotate>
						<translate>0 0 0</translate>
						<rotate>1 0 0 0</rotate>
						<rotate sid="node_virtual_joint_axis0">0 0 0 0</rotate>
						<translate>0 0 -0.214</translate>
						<rotate>1 0 0 0</rotate>
						<instance_geometry url="#gkmodel0_base_cabinet_link_geom0">
							<bind_material>
								<technique_common>
									<instance_material symbol="mat0" target="#gkmodel0_base_cabinet_link_geom0_mat"/>
								</technique_common>
							</bind_material>
						</instance_geometry>
						<instance_geometry url="#gkmodel0_base_cabinet_link_geom1">
							<bind_material>
								<technique_common>
									<instance_material symbol="mat0" target="#gkmodel0_base_cabinet_link_geom1_mat"/>
								</technique_common>
							</bind_material>
						</instance_geometry>
						<instance_geometry url="#gkmodel0_base_cabinet_link_geom2">
							<bind_material>
								<technique_common>
									<instance_material symbol="mat0" target="#gkmodel0_base_cabinet_link_geom2_mat"/>
								</technique_common>
							</bind_material>
						</instance_geometry>
						<instance_geometry url="#gkmodel0_base_cabinet_link_geom3">
							<bind_material>
								<technique_common>
									<instance_material symbol="mat0" target="#gkmodel0_base_cabinet_link_geom3_mat"/>
								</technique_common>
							</bind_material>
						</instance_geometry>
						<instance_geometry url="#gkmodel0_base_cabinet_link_geom4">
							<bind_material>
								<technique_common>
									<instance_material symbol="mat0" target="#gkmodel0_base_cabinet_link_geom4_mat"/>
								</technique_common>
							</bind_material>
						</instance_geometry>
						<node id="vkmodel0_node1" name="door_link" sid="node1">
							<translate>-0 -0 0.214</translate>
							<rotate>1 0 0 0</rotate>
							<translate>0.166 0.14 0</translate>
							<rotate>0 0 1 180</rotate>
							<rotate sid="node_door_joint_axis0">0 0 1 0</rotate>
							<translate>0 0.14 0</translate>
							<rotate>1 0 0 0</rotate>
							<instance_geometry url="#gkmodel0_door_link_geom0">
								<bind_material>
									<technique_common>
										<instance_material symbol="mat0" target="#gkmodel0_door_link_geom0_mat"/>
									</technique_common>
								</bind_material>
							</instance_geometry>
						</node>
					</node>
				</node>
			</node>
		</visual_scene>
	</library_visual_scenes>
	<library_geometries id="geometries">
		<geometry id="gkmodel0_base_cabinet_link_geom0">
			<mesh>
				<source id="gkmodel0_base_cabinet_link_geom0_positions">
					<float_array id="gkmodel0_base_cabinet_link_geom0_positions-array" count="24" digits="2490374">-0.1749999970197678 -0.1729999929666519 -0.008999999612569809 0.1749999970197678 -0.1729999929666519 -0.008999999612569809 0.1749999970197678 -0.1729999929666519 0.008999999612569809 -0.1749999970197678 -0.1729999929666519 0.008999999612569809 -0.1749999970197678 0.1729999929666519 0.008999999612569809 -0.1749999970197678 -0.1729999929666519 0.008999999612569809 0.1749999970197678 -0.1729999929666519 0.008999999612569809 0.1749999970197678 0.1729999929666519 0.008999999612569809 0.1749999970197678 0.1729999929666519 -0.008999999612569809 0.1749999970197678 0.1729999929666519 0.008999999612569809 0.1749999970197678 -0.1729999929666519 0.008999999612569809 0.1749999970197678 -0.1729999929666519 -0.008999999612569809 -0.1749999970197678 -0.1729999929666519 0.008999999612569809 -0.1749999970197678 0.1729999929666519 0.008999999612569809 -0.1749999970197678 0.1729999929666519 -0.008999999612569809 -0.1749999970197678 -0.1729999929666519 -0.008999999612569809 -0.1749999970197678 -0.1729999929666519 -0.008999999612569809 -0.1749999970197678 0.1729999929666519 -0.008999999612569809 0.1749999970197678 0.1729999929666519 -0.008999999612569809 0.1749999970197678 -0.1729999929666519 -0.008999999612569809 0.1749999970197678 0.1729999929666519 -0.008999999612569809 -0.1749999970197678 0.1729999929666519 -0.008999999612569809 -0.1749999970197678 0.1729999929666519 0.008999999612569809 0.1749999970197678 0.1729999929666519 0.008999999612569809</float_array>
					<technique_common>
						<accessor count="24" source="#gkmodel0_base_cabinet_link_geom0_positions-array" stride="3">
							<param name="X" type="float"/>
							<param name="Y" type="float"/>
							<param name="Z" type="float"/>
						</accessor>
					</technique_common>
				</source>
				<vertices id="vertices">
					<input semantic="POSITION" source="#gkmodel0_base_cabinet_link_geom0_positions"/>
				</vertices>
				<triangles count="12" material="mat0">
					<input offset="0" semantic="VERTEX" source="#gkmodel0_base_cabinet_link_geom0/vertices" set="0"/>
					<p>0 1 2 2 3 0 4 5 6 6 7 4 8 9 10 10 11 8 12 13 14 14 15 12 16 17 18 18 19 16 20 21 22 22 23 20</p>
				</triangles>
			</mesh>
		</geometry>
		<geometry id="gkmodel0_base_cabinet_link_geom1">
			<mesh>
				<source id="gkmodel0_base_cabinet_link_geom1_positions">
					<float_array id="gkmodel0_base_cabinet_link_geom1_positions-array" count="24" digits="2490374">-0.1749999970197678 -0.008999999612569809 -0.2230000048875809 0.1749999970197678 -0.008999999612569809 -0.2230000048875809 0.1749999970197678 -0.008999999612569809 0.2230000048875809 -0.1749999970197678 -0.008999999612569809 0.2230000048875809 -0.1749999970197678 0.008999999612569809 0.2230000048875809 -0.1749999970197678 -0.008999999612569809 0.2230000048875809 0.1749999970197678 -0.008999999612569809 0.2230000048875809 0.1749999970197678 0.008999999612569809 0.2230000048875809 0.1749999970197678 0.008999999612569809 -0.2230000048875809 0.1749999970197678 0.008999999612569809 0.2230000048875809 0.1749999970197678 -0.008999999612569809 0.2230000048875809 0.1749999970197678 -0.008999999612569809 -0.2230000048875809 -0.1749999970197678 -0.008999999612569809 0.2230000048875809 -0.1749999970197678 0.008999999612569809 0.2230000048875809 -0.1749999970197678 0.008999999612569809 -0.2230000048875809 -0.1749999970197678 -0.008999999612569809 -0.2230000048875809 -0.1749999970197678 -0.008999999612569809 -0.2230000048875809 -0.1749999970197678 0.008999999612569809 -0.2230000048875809 0.1749999970197678 0.008999999612569809 -0.2230000048875809 0.1749999970197678 -0.008999999612569809 -0.2230000048875809 0.1749999970197678 0.008999999612569809 -0.2230000048875809 -0.1749999970197678 0.008999999612569809 -0.2230000048875809 -0.1749999970197678 0.008999999612569809 0.2230000048875809 0.1749999970197678 0.008999999612569809 0.2230000048875809</float_array>
					<technique_common>
						<accessor count="24" source="#gkmodel0_base_cabinet_link_geom1_positions-array" stride="3">
							<param name="X" type="float"/>
							<param name="Y" type="float"/>
							<param name="Z" type="float"/>
						</accessor>
					</technique_common>
				</source>
				<vertices id="vertices">
					<input semantic="POSITION" source="#gkmodel0_base_cabinet_link_geom1_positions"/>
				</vertices>
				<triangles count="12" material="mat0">
					<input offset="0" semantic="VERTEX" source="#gkmodel0_base_cabinet_link_geom1/vertices" set="0"/>
					<p>0 1 2 2 3 0 4 5 6 6 7 4 8 9 10 10 11 8 12 13 14 14 15 12 16 17 18 18 19 16 20 21 22 22 23 20</p>
				</triangles>
			</mesh>
		</geometry>
		<geometry id="gkmodel0_base_cabinet_link_geom2">
			<mesh>
				<source id="gkmodel0_base_cabinet_link_geom2_positions">
					<float_array id="gkmodel0_base_cabinet_link_geom2_positions-array" count="24" digits="2490374">-0.1749999970197678 -0.008999999612569809 -0.2230000048875809 0.1749999970197678 -0.008999999612569809 -0.2230000048875809 0.1749999970197678 -0.008999999612569809 0.2230000048875809 -0.1749999970197678 -0.008999999612569809 0.2230000048875809 -0.1749999970197678 0.008999999612569809 0.2230000048875809 -0.1749999970197678 -0.008999999612569809 0.2230000048875809 0.1749999970197678 -0.008999999612569809 0.2230000048875809 0.1749999970197678 0.008999999612569809 0.2230000048875809 0.1749999970197678 0.008999999612569809 -0.2230000048875809 0.1749999970197678 0.008999999612569809 0.2230000048875809 0.1749999970197678 -0.008999999612569809 0.2230000048875809 0.1749999970197678 -0.008999999612569809 -0.2230000048875809 -0.1749999970197678 -0.008999999612569809 0.2230000048875809 -0.1749999970197678 0.008999999612569809 0.2230000048875809 -0.1749999970197678 0.008999999612569809 -0.2230000048875809 -0.1749999970197678 -0.008999999612569809 -0.2230000048875809 -0.1749999970197678 -0.008999999612569809 -0.2230000048875809 -0.1749999970197678 0.008999999612569809 -0.2230000048875809 0.1749999970197678 0.008999999612569809 -0.2230000048875809 0.1749999970197678 -0.008999999612569809 -0.2230000048875809 0.1749999970197678 0.008999999612569809 -0.2230000048875809 -0.1749999970197678 0.008999999612569809 -0.2230000048875809 -0.1749999970197678 0.008999999612569809 0.2230000048875809 0.1749999970197678 0.008999999612569809 0.2230000048875809</float_array>
					<technique_common>
						<accessor count="24" source="#gkmodel0_base_cabinet_link_geom2_positions-array" stride="3">
							<param name="X" type="float"/>
							<param name="Y" type="float"/>
							<param name="Z" type="float"/>
						</accessor>
					</technique_common>
				</source>
				<vertices id="vertices">
					<input semantic="POSITION" source="#gkmodel0_base_cabinet_link_geom2_positions"/>
				</vertices>
				<triangles count="12" material="mat0">
					<input offset="0" semantic="VERTEX" source="#gkmodel0_base_cabinet_link_geom2/vertices" set="0"/>
					<p>0 1 2 2 3 0 4 5 6 6 7 4 8 9 10 10 11 8 12 13 14 14 15 12 16 17 18 18 19 16 20 21 22 22 23 20</p>
				</triangles>
			</mesh>
		</geometry>
		<geometry id="gkmodel0_base_cabinet_link_geom3">
			<mesh>
				<source id="gkmodel0_base_cabinet_link_geom3_positions">
					<float_array id="gkmodel0_base_cabinet_link_geom3_positions-array" count="24" digits="2490374">-0.1749999970197678 -0.1729999929666519 -0.008999999612569809 0.1749999970197678 -0.1729999929666519 -0.008999999612569809 0.1749999970197678 -0.1729999929666519 0.008999999612569809 -0.1749999970197678 -0.1729999929666519 0.008999999612569809 -0.1749999970197678 0.1729999929666519 0.008999999612569809 -0.1749999970197678 -0.1729999929666519 0.008999999612569809 0.1749999970197678 -0.1729999929666519 0.008999999612569809 0.1749999970197678 0.1729999929666519 0.008999999612569809 0.1749999970197678 0.1729999929666519 -0.008999999612569809 0.1749999970197678 0.1729999929666519 0.008999999612569809 0.1749999970197678 -0.1729999929666519 0.008999999612569809 0.1749999970197678 -0.1729999929666519 -0.008999999612569809 -0.1749999970197678 -0.1729999929666519 0.008999999612569809 -0.1749999970197678 0.1729999929666519 0.008999999612569809 -0.1749999970197678 0.1729999929666519 -0.008999999612569809 -0.1749999970197678 -0.1729999929666519 -0.008999999612569809 -0.1749999970197678 -0.1729999929666519 -0.008999999612569809 -0.1749999970197678 0.1729999929666519 -0.008999999612569809 0.1749999970197678 0.1729999929666519 -0.008999999612569809 0.1749999970197678 -0.1729999929666519 -0.008999999612569809 0.1749999970197678 0.1729999929666519 -0.008999999612569809 -0.1749999970197678 0.1729999929666519 -0.008999999612569809 -0.1749999970197678 0.1729999929666519 0.008999999612569809 0.1749999970197678 0.1729999929666519 0.008999999612569809</float_array>
					<technique_common>
						<accessor count="24" source="#gkmodel0_base_cabinet_link_geom3_positions-array" stride="3">
							<param name="X" type="float"/>
							<param name="Y" type="float"/>
							<param name="Z" type="float"/>
						</accessor>
					</technique_common>
				</source>
				<vertices id="vertices">
					<input semantic="POSITION" source="#gkmodel0_base_cabinet_link_geom3_positions"/>
				</vertices>
				<triangles count="12" material="mat0">
					<input offset="0" semantic="VERTEX" source="#gkmodel0_base_cabinet_link_geom3/vertices" set="0"/>
					<p>0 1 2 2 3 0 4 5 6 6 7 4 8 9 10 10 11 8 12 13 14 14 15 12 16 17 18 18 19 16 20 21 22 22 23 20</p>
				</triangles>
			</mesh>
		</geometry>
		<geometry id="gkmodel0_base_cabinet_link_geom4">
			<mesh>
				<source id="gkmodel0_base_cabinet_link_geom4_positions">
					<float_array id="gkmodel0_base_cabinet_link_geom4_positions-array" count="24" digits="2490374">-0.008999999612569809 -0.1729999929666519 -0.2230000048875809 0.008999999612569809 -0.1729999929666519 -0.2230000048875809 0.008999999612569809 -0.1729999929666519 0.2230000048875809 -0.008999999612569809 -0.1729999929666519 0.2230000048875809 -0.008999999612569809 0.1729999929666519 0.2230000048875809 -0.008999999612569809 -0.1729999929666519 0.2230000048875809 0.008999999612569809 -0.1729999929666519 0.2230000048875809 0.008999999612569809 0.1729999929666519 0.2230000048875809 0.008999999612569809 0.1729999929666519 -0.2230000048875809 0.008999999612569809 0.1729999929666519 0.2230000048875809 0.008999999612569809 -0.1729999929666519 0.2230000048875809 0.008999999612569809 -0.1729999929666519 -0.2230000048875809 -0.008999999612569809 -0.1729999929666519 0.2230000048875809 -0.008999999612569809 0.1729999929666519 0.2230000048875809 -0.008999999612569809 0.1729999929666519 -0.2230000048875809 -0.008999999612569809 -0.1729999929666519 -0.2230000048875809 -0.008999999612569809 -0.1729999929666519 -0.2230000048875809 -0.008999999612569809 0.1729999929666519 -0.2230000048875809 0.008999999612569809 0.1729999929666519 -0.2230000048875809 0.008999999612569809 -0.1729999929666519 -0.2230000048875809 0.008999999612569809 0.1729999929666519 -0.2230000048875809 -0.008999999612569809 0.1729999929666519 -0.2230000048875809 -0.008999999612569809 0.1729999929666519 0.2230000048875809 0.008999999612569809 0.1729999929666519 0.2230000048875809</float_array>
					<technique_common>
						<accessor count="24" source="#gkmodel0_base_cabinet_link_geom4_positions-array" stride="3">
							<param name="X" type="float"/>
							<param name="Y" type="float"/>
							<param name="Z" type="float"/>
						</accessor>
					</technique_common>
				</source>
				<vertices id="vertices">
					<input semantic="POSITION" source="#gkmodel0_base_cabinet_link_geom4_positions"/>
				</vertices>
				<triangles count="12" material="mat0">
					<input offset="0" semantic="VERTEX" source="#gkmodel0_base_cabinet_link_geom4/vertices" set="0"/>
					<p>0 1 2 2 3 0 4 5 6 6 7 4 8 9 10 10 11 8 12 13 14 14 15 12 16 17 18 18 19 16 20 21 22 22 23 20</p>
				</triangles>
			</mesh>
		</geometry>
		<geometry id="gkmodel0_door_link_geom0">
			<mesh>
				<source id="gkmodel0_door_link_geom0_positions">
					<float_array id="gkmodel0_door_link_geom0_positions-array" count="24" digits="2490374">-0.008999999612569809 -0.1500000059604645 -0.2000000029802322 0.008999999612569809 -0.1500000059604645 -0.2000000029802322 0.008999999612569809 -0.1500000059604645 0.2000000029802322 -0.008999999612569809 -0.1500000059604645 0.2000000029802322 -0.008999999612569809 0.1500000059604645 0.2000000029802322 -0.008999999612569809 -0.1500000059604645 0.2000000029802322 0.008999999612569809 -0.1500000059604645 0.2000000029802322 0.008999999612569809 0.1500000059604645 0.2000000029802322 0.008999999612569809 0.1500000059604645 -0.2000000029802322 0.008999999612569809 0.1500000059604645 0.2000000029802322 0.008999999612569809 -0.1500000059604645 0.2000000029802322 0.008999999612569809 -0.1500000059604645 -0.2000000029802322 -0.008999999612569809 -0.1500000059604645 0.2000000029802322 -0.008999999612569809 0.1500000059604645 0.2000000029802322 -0.008999999612569809 0.1500000059604645 -0.2000000029802322 -0.008999999612569809 -0.1500000059604645 -0.2000000029802322 -0.008999999612569809 -0.1500000059604645 -0.2000000029802322 -0.008999999612569809 0.1500000059604645 -0.2000000029802322 0.008999999612569809 0.1500000059604645 -0.2000000029802322 0.008999999612569809 -0.1500000059604645 -0.2000000029802322 0.008999999612569809 0.1500000059604645 -0.2000000029802322 -0.008999999612569809 0.1500000059604645 -0.2000000029802322 -0.008999999612569809 0.1500000059604645 0.2000000029802322 0.008999999612569809 0.1500000059604645 0.2000000029802322</float_array>
					<technique_common>
						<accessor count="24" source="#gkmodel0_door_link_geom0_positions-array" stride="3">
							<param name="X" type="float"/>
							<param name="Y" type="float"/>
							<param name="Z" type="float"/>
						</accessor>
					</technique_common>
				</source>
				<vertices id="vertices">
					<input semantic="POSITION" source="#gkmodel0_door_link_geom0_positions"/>
				</vertices>
				<triangles count="12" material="mat0">
					<input offset="0" semantic="VERTEX" source="#gkmodel0_door_link_geom0/vertices" set="0"/>
					<p>0 1 2 2 3 0 4 5 6 6 7 4 8 9 10 10 11 8 12 13 14 14 15 12 16 17 18 18 19 16 20 21 22 22 23 20</p>
				</triangles>
			</mesh>
		</geometry>
	</library_geometries>
	<library_effects id="effects">
		<effect id="gkmodel0_base_cabinet_link_geom0">
			<profile_COMMON>
				<technique sid="">
					<phong>
						<ambient>
							<color>0.1000000014901161 0.1000000014901161 0.1000000014901161 0</color>
						</ambient>
						<diffuse>
							<color>1 1 1 0</color>
						</diffuse>
					</phong>
				</technique>
			</profile_COMMON>
		</effect>
		<effect id="gkmodel0_base_cabinet_link_geom0_eff">
			<profile_COMMON>
				<technique sid="">
					<phong>
						<ambient>
							<color>0.1000000014901161 0.1000000014901161 0.1000000014901161 0</color>
						</ambient>
						<diffuse>
							<color>1 1 1 0</color>
						</diffuse>
					</phong>
				</technique>
			</profile_COMMON>
		</effect>
		<effect id="gkmodel0_base_cabinet_link_geom1">
			<profile_COMMON>
				<technique sid="">
					<phong>
						<ambient>
							<color>0.1000000014901161 0.1000000014901161 0.1000000014901161 0</color>
						</ambient>
						<diffuse>
							<color>1 1 1 0</color>
						</diffuse>
					</phong>
				</technique>
			</profile_COMMON>
		</effect>
		<effect id="gkmodel0_base_cabinet_link_geom1_eff">
			<profile_COMMON>
				<technique sid="">
					<phong>
						<ambient>
							<color>0.1000000014901161 0.1000000014901161 0.1000000014901161 0</color>
						</ambient>
						<diffuse>
							<color>1 1 1 0</color>
						</diffuse>
					</phong>
				</technique>
			</profile_COMMON>
		</effect>
		<effect id="gkmodel0_base_cabinet_link_geom2">
			<profile_COMMON>
				<technique sid="">
					<phong>
						<ambient>
							<color>0.1000000014901161 0.1000000014901161 0.1000000014901161 0</color>
						</ambient>
						<diffuse>
							<color>1 1 1 0</color>
						</diffuse>
					</phong>
				</technique>
			</profile_COMMON>
		</effect>
		<effect id="gkmodel0_base_cabinet_link_geom2_eff">
			<profile_COMMON>
				<technique sid="">
					<phong>
						<ambient>
							<color>0.1000000014901161 0.1000000014901161 0.1000000014901161 0</color>
						</ambient>
						<diffuse>
							<color>1 1 1 0</color>
						</diffuse>
					</phong>
				</technique>
			</profile_COMMON>
		</effect>
		<effect id="gkmodel0_base_cabinet_link_geom3">
			<profile_COMMON>
				<technique sid="">
					<phong>
						<ambient>
							<color>0.1000000014901161 0.1000000014901161 0.1000000014901161 0</color>
						</ambient>
						<diffuse>
							<color>1 1 1 0</color>
						</diffuse>
					</phong>
				</technique>
			</profile_COMMON>
		</effect>
		<effect id="gkmodel0_base_cabinet_link_geom3_eff">
			<profile_COMMON>
				<technique sid="">
					<phong>
						<ambient>
							<color>0.1000000014901161 0.1000000014901161 0.1000000014901161 0</color>
						</ambient>
						<diffuse>
							<color>1 1 1 0</color>
						</diffuse>
					</phong>
				</technique>
			</profile_COMMON>
		</effect>
		<effect id="gkmodel0_base_cabinet_link_geom4">
			<profile_COMMON>
				<technique sid="">
					<phong>
						<ambient>
							<color>0.1000000014901161 0.1000000014901161 0.1000000014901161 0</color>
						</ambient>
						<diffuse>
							<color>1 1 1 0</color>
						</diffuse>
					</phong>
				</technique>
			</profile_COMMON>
		</effect>
		<effect id="gkmodel0_base_cabinet_link_geom4_eff">
			<profile_COMMON>
				<technique sid="">
					<phong>
						<ambient>
							<color>0.1000000014901161 0.1000000014901161 0.1000000014901161 0</color>
						</ambient>
						<diffuse>
							<color>1 1 1 0</color>
						</diffuse>
					</phong>
				</technique>
			</profile_COMMON>
		</effect>
		<effect id="gkmodel0_door_link_geom0">
			<profile_COMMON>
				<technique sid="">
					<phong>
						<ambient>
							<color>0.1000000014901161 0.1000000014901161 0.1000000014901161 0</color>
						</ambient>
						<diffuse>
							<color>1 1 1 0</color>
						</diffuse>
					</phong>
				</technique>
			</profile_COMMON>
		</effect>
		<effect id="gkmodel0_door_link_geom0_eff">
			<profile_COMMON>
				<technique sid="">
					<phong>
						<ambient>
							<color>0.1000000014901161 0.1000000014901161 0.1000000014901161 0</color>
						</ambient>
						<diffuse>
							<color>1 1 1 0</color>
						</diffuse>
					</phong>
				</technique>
			</profile_COMMON>
		</effect>
	</library_effects>
	<library_materials id="materials">
		<material id="gkmodel0_base_cabinet_link_geom0_mat">
			<instance_effect url="#gkmodel0_base_cabinet_link_geom0_eff"/>
		</material>
		<material id="gkmodel0_base_cabinet_link_geom0_mat">
			<instance_effect url="#gkmodel0_base_cabinet_link_geom0"/>
		</material>
		<material id="gkmodel0_base_cabinet_link_geom1_mat">
			<instance_effect url="#gkmodel0_base_cabinet_link_geom1_eff"/>
		</material>
		<material id="gkmodel0_base_cabinet_link_geom1_mat">
			<instance_effect url="#gkmodel0_base_cabinet_link_geom1"/>
		</material>
		<material id="gkmodel0_base_cabinet_link_geom2_mat">
			<instance_effect url="#gkmodel0_base_cabinet_link_geom2_eff"/>
		</material>
		<material id="gkmodel0_base_cabinet_link_geom2_mat">
			<instance_effect url="#gkmodel0_base_cabinet_link_geom2"/>
		</material>
		<material id="gkmodel0_base_cabinet_link_geom3_mat">
			<instance_effect url="#gkmodel0_base_cabinet_link_geom3_eff"/>
		</material>
		<material id="gkmodel0_base_cabinet_link_geom3_mat">
			<instance_effect url="#gkmodel0_base_cabinet_link_geom3"/>
		</material>
		<material id="gkmodel0_base_cabinet_link_geom4_mat">
			<instance_effect url="#gkmodel0_base_cabinet_link_geom4_eff"/>
		</material>
		<material id="gkmodel0_base_cabinet_link_geom4_mat">
			<instance_effect url="#gkmodel0_base_cabinet_link_geom4"/>
		</material>
		<material id="gkmodel0_door_link_geom0_mat">
			<instance_effect url="#gkmodel0_door_link_geom0_eff"/>
		</material>
		<material id="gkmodel0_door_link_geom0_mat">
			<instance_effect url="#gkmodel0_door_link_geom0"/>
		</material>
	</library_materials>
	<library_kinematics_models id="kmodels">
		<kinematics_model id="kmodel0" name="my_cabinet">
			<technique_common>
				<joint name="door_joint" sid="door_joint">
					<revolute sid="axis0">
						<axis>0 0 1</axis>
						<limits>
							<min>0</min>
							<max>90</max>
						</limits>
					</revolute>
				</joint>
				<joint name="virtual_joint" sid="virtual_joint">
					<revolute sid="axis0">
						<axis>0 0 0</axis>
						<limits>
							<min>0</min>
							<max>0</max>
						</limits>
					</revolute>
				</joint>
				<link sid="world" name="world">
					<attachment_full joint="kmodel0/virtual_joint">
						<translate>0 0 0</translate>
						<rotate>1 0 0 0</rotate>
						<link sid="base_cabinet_link" name="base_cabinet_link">
							<attachment_full joint="kmodel0/door_joint">
								<translate>0.166 0.14 0</translate>
								<rotate>0 0 1 180</rotate>
								<link sid="door_link" name="door_link"/>
							</attachment_full>
						</link>
					</attachment_full>
				</link>
			</technique_common>
		</kinematics_model>
	</library_kinematics_models>
	<library_articulated_systems id="asystems">
		<articulated_system id="robot0_motion">
			<motion>
				<instance_articulated_system url="#robot0_kinematics">
					<newparam sid="robot0_motion_kmodel0_inst">
						<SIDREF>robot0_kinematics/robot0_kinematics_kmodel0_inst</SIDREF>
					</newparam>
					<newparam sid="robot0_motion_robot0_kinematics_kmodel0_inst_door_joint_axis0">
						<SIDREF>robot0_kinematics/robot0_kinematics_kmodel0_inst_door_joint_axis0</SIDREF>
					</newparam>
					<newparam sid="robot0_motion_robot0_kinematics_kmodel0_inst_door_joint_axis0_value">
						<SIDREF>robot0_kinematics/robot0_kinematics_kmodel0_inst_door_joint_axis0_value</SIDREF>
					</newparam>
					<newparam sid="robot0_motion_robot0_kinematics_kmodel0_inst_virtual_joint_axis0">
						<SIDREF>robot0_kinematics/robot0_kinematics_kmodel0_inst_virtual_joint_axis0</SIDREF>
					</newparam>
					<newparam sid="robot0_motion_robot0_kinematics_kmodel0_inst_virtual_joint_axis0_value">
						<SIDREF>robot0_kinematics/robot0_kinematics_kmodel0_inst_virtual_joint_axis0_value</SIDREF>
					</newparam>
				</instance_articulated_system>
				<technique_common>
					<axis_info axis="robot0_kinematics/axis_info_inst0">
						<speed>
							<float>10</float>
						</speed>
						<acceleration>
							<float>50</float>
						</acceleration>
					</axis_info>
					<axis_info axis="robot0_kinematics/axis_info_inst1"/>
				</technique_common>
			</motion>
		</articulated_system>
		<articulated_system id="robot0_kinematics">
			<kinematics>
				<instance_kinematics_model url="#kmodel0" sid="kmodel0_inst">
					<newparam sid="robot0_kinematics_kmodel0_inst">
						<SIDREF>robot0_kinematics/kmodel0_inst</SIDREF>
					</newparam>
					<newparam sid="robot0_kinematics_kmodel0_inst_door_joint_axis0">
						<SIDREF>robot0_kinematics/kmodel0_inst/door_joint/axis0</SIDREF>
					</newparam>
					<newparam sid="robot0_kinematics_kmodel0_inst_door_joint_axis0_value">
						<float>0</float>
					</newparam>
					<newparam sid="robot0_kinematics_kmodel0_inst_virtual_joint_axis0">
						<SIDREF>robot0_kinematics/kmodel0_inst/virtual_joint/axis0</SIDREF>
					</newparam>
					<newparam sid="robot0_kinematics_kmodel0_inst_virtual_joint_axis0_value">
						<float>0</float>
					</newparam>
				</instance_kinematics_model>
				<technique_common>
					<axis_info sid="axis_info_inst0" axis="kmodel0/door_joint/axis0">
						<active>
							<bool>true</bool>
						</active>
						<locked>
							<bool>false</bool>
						</locked>
						<limits>
							<min>
								<float>0</float>
							</min>
							<max>
								<float>90</float>
							</max>
						</limits>
					</axis_info>
					<axis_info sid="axis_info_inst1" axis="kmodel0/virtual_joint/axis0">
						<active>
							<bool>false</bool>
						</active>
						<locked>
							<bool>false</bool>
						</locked>
						<limits>
							<min>
								<float>0</float>
							</min>
							<max>
								<float>0</float>
							</max>
						</limits>
					</axis_info>
				</technique_common>
			</kinematics>
		</articulated_system>
	</library_articulated_systems>
	<library_kinematics_scenes id="kscenes">
		<kinematics_scene id="kscene" name="URDF Kinematics Scene">
			<instance_articulated_system sid="robot0_motion_inst" url="#robot0_motion" name="my_cabinet">
				<bind symbol="kscene_kmodel0_inst">
					<param ref="robot0_motion/robot0_motion_kmodel0_inst"/>
				</bind>
				<bind symbol="kscene_kmodel0_inst_robot0_kinematics_kmodel0_inst_door_joint_axis0">
					<param ref="robot0_motion/robot0_motion_robot0_kinematics_kmodel0_inst_door_joint_axis0"/>
				</bind>
				<bind symbol="kscene_kmodel0_inst_robot0_kinematics_kmodel0_inst_door_joint_axis0_value">
					<param ref="robot0_motion/robot0_motion_robot0_kinematics_kmodel0_inst_door_joint_axis0_value"/>
				</bind>
				<bind symbol="kscene_kmodel0_inst_robot0_kinematics_kmodel0_inst_virtual_joint_axis0">
					<param ref="robot0_motion/robot0_motion_robot0_kinematics_kmodel0_inst_virtual_joint_axis0"/>
				</bind>
				<bind symbol="kscene_kmodel0_inst_robot0_kinematics_kmodel0_inst_virtual_joint_axis0_value">
					<param ref="robot0_motion/robot0_motion_robot0_kinematics_kmodel0_inst_virtual_joint_axis0_value"/>
				</bind>
			</instance_articulated_system>
		</kinematics_scene>
	</library_kinematics_scenes>
	<library_physics_scenes id="pscenes">
		<physics_scene id="pscene" name="URDF Physics Scene">
			<instance_physics_model url="#pmodel0" sid="pmodel0_inst" parent="#visual0">
				<instance_rigid_body body="rigid0" target="#vkmodel0_node0"/>
				<instance_rigid_body body="rigid1" target="#vkmodel0_node1"/>
				<instance_rigid_body body="rigid2" target="#vkmodel0_node2"/>
			</instance_physics_model>
			<technique_common>
				<gravity>0 0 0</gravity>
			</technique_common>
		</physics_scene>
	</library_physics_scenes>
	<library_physics_models id="pmodels">
		<physics_model id="pmodel0" name="my_cabinet">
			<rigid_body sid="rigid0" name="base_cabinet_link">
				<technique_common>
					<dynamic>true</dynamic>
					<mass>0.2</mass>
					<mass_frame>
						<translate>0 0 0</translate>
						<rotate>1 0 0 0</rotate>
					</mass_frame>
					<inertia>0.005311 0.005357 0.004037</inertia>
				</technique_common>
			</rigid_body>
			<rigid_body sid="rigid1" name="door_link">
				<technique_common>
					<dynamic>true</dynamic>
					<mass>0.2</mass>
					<mass_frame>
						<translate>0.166 0.14 0</translate>
						<rotate>0 0 1 180</rotate>
					</mass_frame>
					<inertia>0.004167 0.002672 0.001505</inertia>
				</technique_common>
			</rigid_body>
			<rigid_body sid="rigid2" name="world">
				<technique_common/>
			</rigid_body>
		</physics_model>
	</library_physics_models>
	<scene>
		<instance_physics_scene url="#pscene"/>
		<instance_visual_scene url="#vscene"/>
		<instance_kinematics_scene url="#kscene">
			<bind_kinematics_model node="visual0/node2">
				<param>kscene_kmodel0_inst</param>
			</bind_kinematics_model>
			<bind_joint_axis target="node2/node1/node_door_joint_axis0">
				<axis>
					<param>kscene_kmodel0_inst_robot0_kinematics_kmodel0_inst_door_joint_axis0</param>
				</axis>
				<value>
					<param>kscene_kmodel0_inst_robot0_kinematics_kmodel0_inst_door_joint_axis0_value</param>
				</value>
			</bind_joint_axis>
			<bind_joint_axis target="node0/node_virtual_joint_axis0">
				<axis>
					<param>kscene_kmodel0_inst_robot0_kinematics_kmodel0_inst_virtual_joint_axis0</param>
				</axis>
				<value>
					<param>kscene_kmodel0_inst_robot0_kinematics_kmodel0_inst_virtual_joint_axis0_value</param>
				</value>
			</bind_joint_axis>
		</instance_kinematics_scene>
	</scene>
	<extra id="sensors" type="library_sensors">
		<technique profile="OpenRAVE"/>
	</extra>
</COLLADA>
