<robot name="table">
    <link name="table_top">
        <visual>
            <geometry>
                <box size="0.6 0.6 0.4" />
            </geometry>
            <material name="grey">
                <color rgba="0.5 0.5 0.5 1.0" />
            </material>
        </visual>

        <collision>
            <geometry>
                <box size="0.6 0.6 0.4" />
            </geometry>
        </collision>

        <inertial>
            <mass value="5.0" />
            <origin xyz="0 0 0" />
            <inertia
                ixx="0.00625"
                iyy="0.00625"
                izz="0.003125"
                ixy="0.0"
                ixz="0.0"
                iyz="0.0" />
        </inertial>
    </link>
</robot>